<?xml version="1.0" encoding="UTF-8"?>
<kml xmlns="http://earth.google.com/kml/2.2">
<Document>
  <name>Centro Evangelístico Peniel</name>
  <description><![CDATA[Una Iglesia para la Ciudad
www.cepeniel.org]]></description>
  <Style id="style2">
    <IconStyle>
      <Icon>
        <href>http://maps.gstatic.com/mapfiles/ms2/micons/blue-dot.png</href>
      </Icon>
    </IconStyle>
  </Style>
  <Style id="style1">
    <IconStyle>
      <Icon>
        <href>http://maps.gstatic.com/mapfiles/ms2/micons/blue-dot.png</href>
      </Icon>
    </IconStyle>
  </Style>
  <Placemark>
    <name>Centro Evangelístico Peniel - Sede Sur</name>
    <description><![CDATA[<div dir="ltr">Calle 66 No. 99-35 Urbanización 13 de Septiembre, a 50 metros de la Avenida Las Ferias. Valencia. Carabobo. Venezuela. </div>]]></description>
    <styleUrl>#style2</styleUrl>
    <Point>
      <coordinates>-67.998817,10.154531,0.000000</coordinates>
    </Point>
  </Placemark>
  <Placemark>
    <name>Centro Evangelístico Peniel - Sede Megatemplo</name>
    <description><![CDATA[<div dir="ltr">Av. Ernesto Branger, al lado de Bomba Texaco, a 50 mts de los Bomberos de Valencia.<br>Urb Industrial, Valencia - Edo. Carabobo<br>Venezuela</div>]]></description>
    <styleUrl>#style1</styleUrl>
    <Point>
      <coordinates>-67.949303,10.179485,0.000000</coordinates>
    </Point>
  </Placemark>
</Document>
</kml>
