AWSTATS DATA FILE 7.4 (build 20140726)
# If you remove this file, all statistics for date 201709 will be lost/reset.
# Last config file used to build this data file was /home/cepeniel/tmp/awstats/ssl/awstats.cepeniel.org.conf.

# Position (offset in bytes) in this file for beginning of each section for
# direct I/O access. If you made changes somewhere in this file, you should
# also remove completely the MAP section (AWStats will rewrite it at next
# update).
BEGIN_MAP 28
POS_GENERAL 2013                
POS_TIME 2673                
POS_VISITOR 6066                
POS_DAY 6414                
POS_DOMAIN 3250                
POS_LOGIN 3490                
POS_ROBOT 3645                
POS_WORMS 3919                
POS_EMAILSENDER 4050                
POS_EMAILRECEIVER 4193                
POS_SESSION 6599                
POS_SIDER 6745                
POS_FILETYPES 4328                
POS_DOWNLOADS 4494                
POS_OS 4542                
POS_BROWSER 4640                
POS_SCREENSIZE 4756                
POS_UNKNOWNREFERER 4830                
POS_UNKNOWNREFERERBROWSER 4917                
POS_ORIGIN 4999                
POS_SEREFERRALS 5131                
POS_PAGEREFS 5275                
POS_SEARCHWORDS 5423                
POS_KEYWORDS 5575                
POS_MISC 2337                
POS_ERRORS 5634                
POS_CLUSTER 3346                
POS_SIDER_404 5742                
END_MAP

# LastLine    = Date of last record processed - Last record line number in last log - Last record offset in last log - Last record signature value
# FirstTime   = Date of first visit for history file
# LastTime    = Date of last visit for history file
# LastUpdate  = Date of last update - Nb of parsed records - Nb of parsed old records - Nb of parsed new records - Nb of parsed corrupted - Nb of parsed dropped
# TotalVisits = Number of visits
# TotalUnique = Number of unique visitors
# MonthHostsKnown   = Number of hosts known
# MonthHostsUnKnown = Number of hosts unknown
BEGIN_GENERAL 8
LastLine 20171001003552 3 318 8975295598234
FirstTime 0
LastTime 20170928155605
LastUpdate 20171001091754 3 0 2 0 0
TotalVisits 7                   
TotalUnique 7                   
MonthHostsKnown 0                   
MonthHostsUnknown 7                   
END_GENERAL

# Misc ID - Pages - Hits - Bandwidth
BEGIN_MISC 10
AddToFavourites 0 4 0
RealPlayerSupport 0 0 0
TotalMisc 0 0 0
WindowsMediaPlayerSupport 0 0 0
FlashSupport 0 0 0
JavascriptDisabled 0 0 0
PDFSupport 0 0 0
JavaEnabled 0 0 0
QuickTimeSupport 0 0 0
DirectorSupport 0 0 0
END_MISC

# Hour - Pages - Hits - Bandwidth - Not viewed Pages - Not viewed Hits - Not viewed Bandwidth
BEGIN_TIME 24
0 0 0 0 7 9 49930
1 0 0 0 2 2 0
2 0 0 0 2 4 10474
3 0 0 0 0 0 0
4 0 0 0 0 0 0
5 0 0 0 6 6 25832
6 0 0 0 2 2 0
7 0 0 0 0 0 0
8 0 0 0 4 6 40458
9 0 0 0 3 5 20133
10 0 0 0 6 6 41656
11 0 0 0 9 13 52394
12 1 38 543857 6 7 40587
13 1 1 9661 8 12 39546
14 0 0 0 4 5 28994
15 2 39 543867 4 7 21296
16 0 0 0 6 10 41836
17 0 0 0 4 4 36865
18 0 0 0 2 2 9658
19 2 76 1087724 4 6 31290
20 1 1 0 1 3 814
21 0 0 0 2 8 21761
22 0 0 0 5 7 40280
23 0 0 0 10 14 74907
END_TIME

# Domain - Pages - Hits - Bandwidth
# The 25 first Pages must be first (order not required for others)
BEGIN_DOMAIN 2
de 4 152 2175448
us 3 3 9661
END_DOMAIN

# Cluster ID - Pages - Hits - Bandwidth
BEGIN_CLUSTER 0
END_CLUSTER

# Login - Pages - Hits - Bandwidth - Last visit
# The 10 first Pages must be first (order not required for others)
BEGIN_LOGIN 0
END_LOGIN

# Robot ID - Hits - Bandwidth - Last visit - Hits on robots.txt
# The 25 first Hits must be first (order not required for others)
BEGIN_ROBOT 4
bot[\s_+:,\.\;\/\\-] 91 564342 20170930200758 34
crawl 3 10476 20170908131043 2
netcraft 1 9663 20170909110150 0
checker 1 0 20170913145208 1
END_ROBOT

# Worm ID - Hits - Bandwidth - Last visit
# The 5 first Hits must be first (order not required for others)
BEGIN_WORMS 0
END_WORMS

# EMail - Hits - Bandwidth - Last visit
# The 20 first Hits must be first (order not required for others)
BEGIN_EMAILSENDER 0
END_EMAILSENDER

# EMail - Hits - Bandwidth - Last visit
# The 20 first hits must be first (order not required for others)
BEGIN_EMAILRECEIVER 0
END_EMAILRECEIVER

# Files type - Hits - Bandwidth - Bandwidth without compression - Bandwidth after compression
BEGIN_FILETYPES 6
jpg 12 1134984 0 0
html 7 48321 0 0
png 20 26852 0 0
css 64 94940 0 0
js 48 877308 0 0
gif 4 2704 0 0
END_FILETYPES

# Downloads - Hits - Bandwidth
BEGIN_DOWNLOADS 0
END_DOWNLOADS

# OS ID - Hits
BEGIN_OS ID - Hits - Pages 3
winnt 1 1
linux 152 4
macosx 2 2
END_OS

# Browser ID - Hits - Pages
BEGIN_BROWSER 3
firefox50.0 152 4
chrome52.0.2743.116 2 2
chrome57.0.2987.133 1 1
END_BROWSER

# Screen size - Hits
BEGIN_SCREENSIZE 0
END_SCREENSIZE

# Unknown referer OS - Last visit date
BEGIN_UNKNOWNREFERER 0
END_UNKNOWNREFERER

# Unknown referer Browser - Last visit date
BEGIN_UNKNOWNREFERERBROWSER 0
END_UNKNOWNREFERERBROWSER

# Origin - Pages - Hits 
BEGIN_ORIGIN 6
From0 7 155
From1 0 0
From2 0 0
From3 0 0
From4 0 0
From5 0 0
END_ORIGIN

# Search engine referers ID - Pages - Hits
BEGIN_SEREFERRALS 0
END_SEREFERRALS

# External page referers - Pages - Hits
# The 25 first Pages must be first (order not required for others)
BEGIN_PAGEREFS 0
END_PAGEREFS

# Search keyphrases - Number of search
# The 10 first number of search must be first (order not required for others)
BEGIN_SEARCHWORDS 0
END_SEARCHWORDS

# Search keywords - Number of search
# The 25 first number of search must be first (order not required for others)
BEGIN_KEYWORDS 0
END_KEYWORDS

# Errors - Hits - Bandwidth
BEGIN_ERRORS 3
404 2 1584
401 4 38046
303 32 0
END_ERRORS

# URL with 404 errors - Hits - Last URL referrer
BEGIN_SIDER_404 1
/index.php 2 -
END_SIDER_404

# Host - Pages - Hits - Bandwidth - Last visit date - [Start date of last visit] - [Last page of last visit]
# [Start date of last visit] and [Last page of last visit] are saved only if session is not finished
# The 25 first Hits must be first (order not required for others)
BEGIN_VISITOR 7
54.183.206.171 1 1 0 20170908151844
137.226.113.22 1 38 543857 20170915122317
137.226.113.25 1 38 543858 20170907195601
45.55.235.61 1 1 9661 20170906130649
137.226.113.23 1 38 543867 20170928155605
54.183.163.41 1 1 0 20170907203730
137.226.113.21 1 38 543866 20170921191615
END_VISITOR

# Date - Pages - Hits - Bandwidth - Visits
BEGIN_DAY 6
20170906 1 1 9661 1
20170907 2 39 543858 2
20170908 1 1 0 1
20170915 1 38 543857 1
20170921 1 38 543866 1
20170928 1 38 543867 1
END_DAY

# Session range - Number of visits
BEGIN_SESSION 1
0s-30s 7
END_SESSION

# URL - Pages - Bandwidth - Entry - Exit
# The 25 first Pages must be first (order not required for others)
BEGIN_SIDER 1
/ 7 48321 7 7
END_SIDER
