AWSTATS DATA FILE 7.6 (build 20161204)
# If you remove this file, all statistics for date 201801 will be lost/reset.
# Last config file used to build this data file was /home/cepeniel/tmp/awstats/ssl/awstats.cepeniel.org.conf.

# Position (offset in bytes) in this file for beginning of each section for
# direct I/O access. If you made changes somewhere in this file, you should
# also remove completely the MAP section (AWStats will rewrite it at next
# update).
BEGIN_MAP 28
POS_GENERAL 2013                
POS_TIME 2671                
POS_VISITOR 6696                
POS_DAY 7094                
POS_DOMAIN 3324                
POS_LOGIN 3569                
POS_ROBOT 3724                
POS_WORMS 4016                
POS_EMAILSENDER 4147                
POS_EMAILRECEIVER 4290                
POS_SESSION 7445                
POS_SIDER 7592                
POS_FILETYPES 4425                
POS_DOWNLOADS 4609                
POS_OS 4657                
POS_BROWSER 4771                
POS_SCREENSIZE 4939                
POS_UNKNOWNREFERER 5013                
POS_UNKNOWNREFERERBROWSER 5389                
POS_ORIGIN 5471                
POS_SEREFERRALS 5604                
POS_PAGEREFS 5748                
POS_SEARCHWORDS 5896                
POS_KEYWORDS 6048                
POS_MISC 2335                
POS_ERRORS 6107                
POS_CLUSTER 3425                
POS_SIDER_404 6215                
END_MAP

# LastLine    = Date of last record processed - Last record line number in last log - Last record offset in last log - Last record signature value
# FirstTime   = Date of first visit for history file
# LastTime    = Date of last visit for history file
# LastUpdate  = Date of last update - Nb of parsed records - Nb of parsed old records - Nb of parsed new records - Nb of parsed corrupted - Nb of parsed dropped
# TotalVisits = Number of visits
# TotalUnique = Number of unique visitors
# MonthHostsKnown   = Number of hosts known
# MonthHostsUnKnown = Number of hosts unknown
BEGIN_GENERAL 8
LastLine 20180201063255 1 0 9471851534929
FirstTime 0
LastTime 20180131121451
LastUpdate 20180202081628 1 0 0 0 0
TotalVisits 20                  
TotalUnique 8                   
MonthHostsKnown 0                   
MonthHostsUnknown 8                   
END_GENERAL

# Misc ID - Pages - Hits - Bandwidth
BEGIN_MISC 10
RealPlayerSupport 0 0 0
QuickTimeSupport 0 0 0
DirectorSupport 0 0 0
FlashSupport 0 0 0
JavascriptDisabled 0 0 0
PDFSupport 0 0 0
JavaEnabled 0 0 0
WindowsMediaPlayerSupport 0 0 0
AddToFavourites 0 4 0
TotalMisc 0 0 0
END_MISC

# Hour - Pages - Hits - Bandwidth - Not viewed Pages - Not viewed Hits - Not viewed Bandwidth
BEGIN_TIME 24
0 1 1 9661 9 13 78075
1 0 0 0 7 14 449685
2 0 0 0 6 8 20275
3 2 2 19321 4 4 39935
4 0 0 0 6 10 42000
5 0 0 0 4 8 30640
6 0 0 0 4 28 218320
7 0 0 0 3 3 31447
8 1 1 9659 4 69 1198835
9 0 0 0 8 10 53667
10 1 1 9658 8 14 60401
11 1 1 9662 2 4 19482
12 2 2 19324 7 39 845809
13 0 0 0 8 14 71951
14 0 0 0 9 9 152878
15 6 43 592178 4 11 21312
16 1 38 543858 3 72 1674947
17 0 0 0 3 39 1411435
18 0 0 0 3 28 207197
19 3 3 53535 5 7 44940
20 2 76 1087734 0 2 2300
21 3 3 29019 4 51 1303173
22 0 0 0 8 8 54996
23 8 8 77246 10 37 327578
END_TIME

# Domain - Pages - Hits - Bandwidth
# The 25 first Pages must be first (order not required for others)
BEGIN_DOMAIN 2
us 19 19 208085
de 12 160 2252770
END_DOMAIN

# Cluster ID - Pages - Hits - Bandwidth
BEGIN_CLUSTER 0
END_CLUSTER

# Login - Pages - Hits - Bandwidth - Last visit
# The 10 first Pages must be first (order not required for others)
BEGIN_LOGIN 0
END_LOGIN

# Robot ID - Hits - Bandwidth - Last visit - Hits on robots.txt
# The 25 first Hits must be first (order not required for others)
BEGIN_ROBOT 4
bingpreview 329 7329703 20180126162119 0
bingbot/ 79 681140 20180131162816 24
bot[\s_+:,\.\;\/\\-] 49 308207 20180111230244 16
netcraft 1 9659 20180109090846 0
END_ROBOT

# Worm ID - Hits - Bandwidth - Last visit
# The 5 first Hits must be first (order not required for others)
BEGIN_WORMS 0
END_WORMS

# EMail - Hits - Bandwidth - Last visit
# The 20 first Hits must be first (order not required for others)
BEGIN_EMAILSENDER 0
END_EMAILSENDER

# EMail - Hits - Bandwidth - Last visit
# The 20 first hits must be first (order not required for others)
BEGIN_EMAILRECEIVER 0
END_EMAILRECEIVER

# Files type - Hits - Bandwidth - Bandwidth without compression - Bandwidth after compression
BEGIN_FILETYPES 7
css 64 94940 0 0
jpg 12 1134984 0 0
php 7 67568 0 0
js 48 877308 0 0
html 24 256499 0 0
png 20 26852 0 0
gif 4 2704 0 0
END_FILETYPES

# Downloads - Hits - Bandwidth
BEGIN_DOWNLOADS 0
END_DOWNLOADS

# OS ID - Hits
BEGIN_OS ID - Hits - Pages 4
macosx 3 3
Unknown 8 8
macosx12 7 7
linux 161 13
END_OS

# Browser ID - Hits - Pages
BEGIN_BROWSER 6
chrome61.0.3163.100 10 10
netscape5.0 6 6
chrome41.0.2227.0 8 8
firefox50.0 152 4
mozilla 2 2
chrome34.0.1847.137 1 1
END_BROWSER

# Screen size - Hits
BEGIN_SCREENSIZE 0
END_SCREENSIZE

# Unknown referer OS - Last visit date
BEGIN_UNKNOWNREFERER 3
Mozilla/5.0_zgrab/0.x_(compatible;_Researchscan/t12l;__http://researchscan.comsys.rwth-aachen.de) 20180125152805
Mozilla/5.0_zgrab/0.x_--_We_are_scanning_for_research,_further_information_at_http://researchscan.comsys.rwth-aachen.de/_-- 20180118195948
Mozilla/5.0_zgrab/0.x 20180111155433
END_UNKNOWNREFERER

# Unknown referer Browser - Last visit date
BEGIN_UNKNOWNREFERERBROWSER 0
END_UNKNOWNREFERERBROWSER

# Origin - Pages - Hits 
BEGIN_ORIGIN 6
From0 31 179
From1 0 0
From2 0 0
From3 0 0
From4 0 0
From5 0 0
END_ORIGIN

# Search engine referers ID - Pages - Hits
BEGIN_SEREFERRALS 0
END_SEREFERRALS

# External page referers - Pages - Hits
# The 25 first Pages must be first (order not required for others)
BEGIN_PAGEREFS 0
END_PAGEREFS

# Search keyphrases - Number of search
# The 10 first number of search must be first (order not required for others)
BEGIN_SEARCHWORDS 0
END_SEARCHWORDS

# Search keywords - Number of search
# The 25 first number of search must be first (order not required for others)
BEGIN_KEYWORDS 0
END_KEYWORDS

# Errors - Hits - Bandwidth
BEGIN_ERRORS 3
401 3 23913
303 31 0
404 6 4056
END_ERRORS

# URL with 404 errors - Hits - Last URL referrer
BEGIN_SIDER_404 3
/modules/mod_jtagmembersdirectory_category/mod_jtagmembersdirectory_category.xml 2 -
/components/com_jtagmembersdirectory/assets/images/address_icon.png 2 -
/index.php 2 -
END_SIDER_404

# Host - Pages - Hits - Bandwidth - Last visit date - [Start date of last visit] - [Last page of last visit]
# [Start date of last visit] and [Last page of last visit] are saved only if session is not finished
# The 25 first Hits must be first (order not required for others)
BEGIN_VISITOR 8
54.183.130.127 10 10 96624 20180131121451
52.209.138.0 8 8 77246 20180103231234
137.226.113.27 4 4 38678 20180118195948
137.226.113.23 3 114 1631592 20180125161352
137.226.113.28 2 2 19318 20180125152805
137.226.113.26 2 2 19324 20180111155433
137.226.113.22 1 38 543858 20180111151140
66.240.236.119 1 1 34215 20180114195459
END_VISITOR

# Date - Pages - Hits - Bandwidth - Visits
BEGIN_DAY 14
20180103 9 9 86924 2
20180104 3 40 563232 2
20180106 1 1 9661 1
20180110 1 1 9661 1
20180111 3 40 563182 2
20180113 1 1 9663 1
20180114 1 1 34215 1
20180115 1 1 9662 1
20180117 1 1 9662 1
20180118 3 40 563180 2
20180122 1 1 9658 1
20180125 4 41 572835 3
20180128 1 1 9658 1
20180131 1 1 9662 1
END_DAY

# Session range - Number of visits
BEGIN_SESSION 1
0s-30s 20
END_SESSION

# URL - Pages - Bandwidth - Entry - Exit
# The 25 first Pages must be first (order not required for others)
BEGIN_SIDER 2
/ 24 256499 20 19
/index.php 7 67568 0 1
END_SIDER
