AWSTATS DATA FILE 7.4 (build 20140726)
# If you remove this file, all statistics for date 201508 will be lost/reset.
# Last config file used to build this data file was /home/cepeniel/tmp/awstats/awstats.cepeniel.org.conf.

# Position (offset in bytes) in this file for beginning of each section for
# direct I/O access. If you made changes somewhere in this file, you should
# also remove completely the MAP section (AWStats will rewrite it at next
# update).
BEGIN_MAP 28
POS_GENERAL 2009                
POS_TIME 2708                
POS_VISITOR 3954                
POS_DAY 47221               
POS_DOMAIN 48273               
POS_LOGIN 49416               
POS_ROBOT 49571               
POS_WORMS 50227               
POS_EMAILSENDER 50358               
POS_EMAILRECEIVER 50501               
POS_SESSION 50577               
POS_SIDER 50793               
POS_FILETYPES 52090               
POS_DOWNLOADS 52381               
POS_OS 52429               
POS_BROWSER 52916               
POS_SCREENSIZE 56956               
POS_UNKNOWNREFERER 57030               
POS_UNKNOWNREFERERBROWSER 59289               
POS_ORIGIN 60053               
POS_SEREFERRALS 60205               
POS_PAGEREFS 60403               
POS_SEARCHWORDS 62836               
POS_KEYWORDS 65367               
POS_MISC 2370                
POS_ERRORS 66788               
POS_CLUSTER 49272               
POS_SIDER_404 66971               
END_MAP

# LastLine    = Date of last record processed - Last record line number in last log - Last record offset in last log - Last record signature value
# FirstTime   = Date of first visit for history file
# LastTime    = Date of last visit for history file
# LastUpdate  = Date of last update - Nb of parsed records - Nb of parsed old records - Nb of parsed new records - Nb of parsed corrupted - Nb of parsed dropped
# TotalVisits = Number of visits
# TotalUnique = Number of unique visitors
# MonthHostsKnown   = Number of hosts known
# MonthHostsUnKnown = Number of hosts unknown
BEGIN_GENERAL 8
LastLine 20150901000049 436626 109601392 16192512914104
FirstTime 20150801002324
LastTime 20150831232447
LastUpdate 20170608094454 436626 0 436491 134 0
TotalVisits 2117                
TotalUnique 1016                
MonthHostsKnown 0                   
MonthHostsUnknown 1044                
END_GENERAL

# Misc ID - Pages - Hits - Bandwidth
BEGIN_MISC 10
PDFSupport 0 0 0
WindowsMediaPlayerSupport 0 0 0
DirectorSupport 0 0 0
FlashSupport 0 0 0
QuickTimeSupport 0 0 0
JavaEnabled 0 0 0
RealPlayerSupport 0 0 0
TotalMisc 0 0 0
AddToFavourites 0 684 0
JavascriptDisabled 0 0 0
END_MISC

# Hour - Pages - Hits - Bandwidth - Not viewed Pages - Not viewed Hits - Not viewed Bandwidth
BEGIN_TIME 24
0 193 891 12666266 2402 2606 23676036
1 176 815 12707894 3306 3393 34572104
2 179 732 10065842 3531 3605 33099020
3 61 321 7867859 3198 3263 33312267
4 61 1105 26044671 3098 3199 32145138
5 138 1649 32587308 3443 3536 31071388
6 117 2074 41303624 2498 2684 25380259
7 190 4943 102659458 2365 2492 22925421
8 356 7865 145327351 3253 3618 27858176
9 301 6489 121815208 4429 4732 39575844
10 265 4835 88052493 3635 3853 27145092
11 242 4686 82684342 3381 3668 26601194
12 274 2851 53219331 4120 4213 30284950
13 255 3823 74019869 4202 4393 30949768
14 226 3302 58060169 3924 4173 32579526
15 228 3044 55360065 3933 4070 30762652
16 510 3602 59625671 2752 2902 33417085
17 474 3824 62096638 1939 2058 19379216
18 341 4379 69080707 2855 3127 30017937
19 534 4182 77191030 3872 4102 40098182
20 370 4945 96799597 2266 2375 21904878
21 334 3418 59391197 2750 2937 29482233
22 384 2805 49849379 6456 6605 29994797
23 249 1274 22287913 3732 3849 20060990
END_TIME

# Host - Pages - Hits - Bandwidth - Last visit date - [Start date of last visit] - [Last page of last visit]
# [Start date of last visit] and [Last page of last visit] are saved only if session is not finished
# The 25 first Hits must be first (order not required for others)
BEGIN_VISITOR 1044
190.201.1.113 958 1097 1125716 20150809025414
138.36.34.89 431 431 1295772 20150815170046
38.109.219.105 147 147 442920 20150802193309
209.85.238.64 141 141 4867051 20150831210147
209.85.238.61 132 132 4764793 20150831224657
179.179.2.41 112 112 339294 20150814183526
190.205.126.52 100 706 11110323 20150818102137
190.142.20.27 99 233 1001015 20150803223001
209.85.238.72 96 96 3565631 20150831151457
187.59.42.173 88 88 265743 20150810170829
187.40.18.244 78 78 235713 20150811170634
45.63.107.69 78 78 235713 20150814195716
190.201.240.247 61 420 9804549 20150823194525
179.179.2.48 56 56 169647 20150812222343
66.249.91.160 53 53 1845218 20150820120452
66.249.91.164 52 52 1756875 20150820025834
190.153.67.78 49 1097 27633575 20150830000528
186.90.94.153 47 409 7805213 20150825132522
5.45.64.205 46 46 77689 20150821041200
66.249.90.25 45 45 1609679 20150827030204
190.79.64.75 44 615 14206444 20150828024057
190.39.99.155 44 193 1182004 20150826153841
186.89.121.108 42 257 4522622 20150819092344
66.249.90.23 42 42 1458041 20150827043928
66.249.91.156 41 41 1481266 20150820082922
200.84.160.174 1 53 444542 20150821170231
200.8.249.6 1 74 1891058 20150816080840
201.209.46.64 1 57 455105 20150806110517
95.69.233.98 1 73 1890236 20150824045847
49.145.93.14 1 23 141760 20150821235048
37.228.105.189 2 2 10538 20150802132350
186.26.195.200 1 21 101307 20150806220657
187.189.58.119 1 75 1894133 20150814183330
158.222.12.228 1 1 19704 20150819074550
186.93.175.140 1 58 666989 20150830154019
200.93.48.143 4 142 1598726 20150820074929
190.212.64.128 1 74 1891056 20150823084822
189.147.101.37 1 73 1328342 20150816150526
186.95.209.198 2 51 161588 20150822201427
190.205.105.123 5 174 3915360 20150818193205
83.43.79.241 1 59 676915 20150825062946
62.212.73.49 1 1 11987 20150826083906
200.84.162.124 1 1 11988 20150808203525
189.0.46.49 1 57 933076 20150801212706
190.205.64.219 3 72 801836 20150816084622
72.14.199.86 15 15 536541 20150808062044
179.52.9.196 2 75 1515721 20150817181431
190.198.228.19 5 90 1966296 20150812213611
190.206.17.49 2 2 23976 20150824185901
95.180.247.166 1 74 1891058 20150824043515
186.94.118.136 2 2 22838 20150827184827
186.124.231.23 1 74 1891055 20150823164556
54.219.117.34 1 74 1891049 20150814130313
186.95.34.84 1 46 1291790 20150811150310
177.45.199.40 1 75 1980023 20150822122843
190.203.65.59 2 2 24095 20150802114325
185.92.73.98 1 1 11988 20150810002830
122.96.59.105 1 1 42635 20150804012413
107.167.108.30 2 74 796297 20150827115303
186.92.231.55 4 90 1571981 20150817170235
107.167.109.126 2 2 19490 20150803091207
186.90.88.77 1 27 202454 20150826201117
190.53.56.194 1 87 1794074 20150808210619
190.142.12.36 4 184 2104174 20150810170818
186.166.132.12 1 73 1890294 20150801182948
161.140.228.223 1 74 1891058 20150809083108
181.108.7.147 1 32 399383 20150809170736
66.249.83.167 14 141 1176889 20150823173102
186.95.73.239 2 73 1899370 20150819162945
79.165.121.158 3 91 1261401 20150816182730
68.171.247.34 2 135 3365137 20150819115211
190.207.76.110 2 77 1242569 20150811125225
68.171.247.42 3 142 1760766 20150827135529
89.33.43.136 1 1 7952 20150808072955
181.14.119.106 1 74 1891119 20150801202035
198.229.1.177 1 33 323309 20150824105147
201.210.4.174 1 61 697285 20150810144635
189.58.41.210 1 87 2972689 20150808131601
177.220.255.10 1 50 705938 20150820014749
186.95.198.239 2 46 1124478 20150816085144
200.229.218.2 5 87 1474748 20150803015418
186.158.136.10 1 73 1888623 20150817203509
167.114.172.203 1 1 42414 20150814123048
176.97.116.150 1 1 12046 20150805034628
201.9.129.81 0 22 1127984 
190.90.193.30 1 72 1887422 20150824202015
190.201.101.163 3 3 61027 20150806084314
190.239.25.26 2 46 637789 20150825102622
181.91.37.242 2 75 1811130 20150816181004
130.211.155.207 1 1 42421 20150826101942
200.84.189.42 1 72 1887421 20150831155517
190.75.69.217 3 76 1915029 20150809214843
181.208.177.200 1 73 1749241 20150808091613
144.76.71.83 8 8 230911 20150824090546
177.192.45.209 1 77 2153999 20150809081822
190.37.196.80 2 59 694378 20150814102051
188.43.10.154 1 1 55171 20150828052656
177.73.160.226 1 73 1563507 20150820131805
66.249.85.173 1 17 192937 20150821195749
186.177.149.190 1 60 688154 20150825092841
150.70.173.11 0 1 3336 
190.142.106.172 1 34 522082 20150825094549
85.25.197.18 30 30 412377 20150809132219
201.210.6.202 6 379 5492605 20150828112411
104.197.84.113 1 1 42635 20150803101507
201.210.8.88 1 61 697300 20150816102942
200.81.44.58 3 79 1595974 20150823181542
190.78.116.100 2 77 2025035 20150828221932
117.78.13.55 1 1 12048 20150802135910
200.84.177.137 25 1146 20968855 20150830100859
186.95.214.45 6 87 212352 20150827201134
186.91.75.214 1 54 784418 20150828033538
178.37.200.99 1 75 1973692 20150825074644
186.94.99.223 2 80 1909063 20150802090546
190.204.231.95 8 114 2340368 20150810082419
190.201.230.109 7 157 1665460 20150819051934
142.255.255.140 1 57 682452 20150810135303
186.109.196.55 1 74 1891057 20150822140706
148.245.238.254 1 62 655793 20150801195031
186.92.114.170 1 74 1891058 20150830071509
190.37.117.139 1 74 1891112 20150805200931
107.167.107.64 1 1 9745 20150808120456
68.171.247.46 4 170 4545725 20150826055130
91.185.194.122 1 1 11984 20150822071514
190.200.238.34 1 74 1891054 20150821173409
177.254.236.136 1 54 659838 20150822184458
99.111.121.240 2 75 1903022 20150814141144
93.71.154.222 1 74 1891060 20150824055720
200.84.182.194 2 2 23479 20150828171629
186.92.247.86 4 65 1040261 20150803145100
217.69.133.169 3 3 35949 20150823110208
190.205.209.61 6 94 3529085 20150803115344
177.64.65.151 1 72 1702751 20150831194717
200.93.51.87 5 144 1103111 20150822143133
199.87.154.251 1 1 11984 20150821003726
190.72.81.119 4 105 2148821 20150806111635
136.1.1.109 2 81 1932266 20150805073543
181.197.243.137 1 74 1891055 20150828001128
186.90.75.243 29 488 6375986 20150801072606
186.90.85.219 15 175 1102804 20150817121052
200.84.16.100 1 37 12050 20150803200036
186.88.239.111 1 31 233313 20150829152350
76.26.18.253 1 74 1891058 20150806145851
195.38.121.14 1 73 1890236 20150824062821
186.166.238.177 1 31 345773 20150825074148
190.199.195.167 2 75 1903044 20150827134135
8.28.16.254 5 5 197478 20150826132349
201.211.6.11 1 73 1182094 20150805133040
190.206.122.69 1 74 1891058 20150813193253
201.248.247.149 1 53 638651 20150806172431
186.25.254.75 1 62 655738 20150816103931
190.73.118.86 7 119 2490656 20150818112126
190.206.8.102 4 90 2247285 20150802103021
107.167.107.126 1 1 9745 20150803114153
66.249.85.176 2 14 97109 20150821195732
195.154.146.225 1 1 11989 20150827073628
190.200.251.225 1 74 1891060 20150807130944
186.167.241.254 4 143 1947957 20150815190356
201.9.64.92 0 6 475814 
209.135.211.161 1 1 42420 20150806193531
190.219.80.228 1 74 1841523 20150802090808
190.74.35.152 2 64 722791 20150813150634
190.200.10.35 1 74 1891048 20150813132314
190.203.85.119 8 114 2280973 20150812202615
186.166.143.222 2 75 1903040 20150821150526
186.150.128.222 1 47 481418 20150806221101
190.78.9.254 2 59 691813 20150827080037
37.187.56.81 1 1 42420 20150824063152
5.9.145.132 4 4 382711 20150823151507
187.78.19.208 1 87 3030345 20150804132513
179.22.202.157 1 2 9621 20150802092032
181.197.180.151 9 114 2270684 20150817205909
192.196.156.16 1 1 42635 20150803020908
186.167.243.128 1 60 646277 20150817224351
179.214.213.47 1 67 1278993 20150824150503
37.187.129.166 1 1 11967 20150819233554
200.81.44.40 2 32 269539 20150817180631
190.38.33.10 19 183 2311820 20150807205332
186.95.70.4 2 77 1945969 20150822204257
186.94.118.183 3 84 1423877 20150807112614
190.73.106.1 3 80 1977342 20150830102003
68.171.247.47 4 128 2538287 20150824054742
179.46.245.27 14 130 2343016 20150807154518
195.184.208.252 1 73 1890234 20150824065243
186.14.172.104 1 55 739818 20150822134528
68.171.247.40 6 202 4866499 20150820204115
190.202.82.99 6 139 256080 20150824091517
66.249.88.222 6 122 1742431 20150828113443
186.89.51.249 1 74 1891059 20150831165719
190.198.151.180 1 73 1649934 20150826200347
201.210.42.31 1 72 1887434 20150830085452
190.72.196.10 1 55 617886 20150818232124
186.89.2.22 1 73 1357930 20150807205419
64.74.215.113 5 5 0 20150829014025
186.167.243.63 3 68 662107 20150809212527
190.77.156.17 1 74 1891058 20150829211424
178.140.127.72 1 30 255679 20150803023631
198.229.1.153 11 131 1910023 20150826223411
107.167.109.98 3 193 2680015 20150829112447
186.166.247.211 1 74 1891049 20150814070006
107.167.108.120 1 84 1906187 20150829095118
74.82.68.160 2 54 696559 20150828105446
186.167.243.139 6 107 1644367 20150824201548
190.207.128.197 8 147 1095265 20150815125612
5.170.164.193 1 30 255681 20150804130313
186.166.238.32 1 19 11552 20150802090358
66.249.88.212 4 121 2613869 20150823085240
188.40.112.210 3 3 130623 20150829004433
186.166.132.56 5 99 3182277 20150809090151
190.8.168.68 27 1258 30584591 20150831073538
107.189.38.85 1 30 255604 20150812192623
190.200.236.190 4 86 2223372 20150827145238
201.247.216.192 2 79 1933283 20150818171557
66.87.132.172 1 62 727327 20150814082410
104.197.125.41 1 1 42635 20150804101615
189.125.26.226 1 17 35711 20150814083540
186.95.29.4 1 59 635954 20150806144743
190.142.152.61 1 74 1891058 20150829104155
185.13.202.132 1 78 1919913 20150824044124
107.167.108.34 2 2 19490 20150808135818
200.8.248.44 1 74 1891058 20150830112159
190.206.1.154 8 173 2274135 20150813103836
188.215.22.130 11 11 82956 20150812131541
186.90.91.202 8 163 2700320 20150816080419
66.249.92.40 17 17 622722 20150811055024
201.248.71.123 3 66 197105 20150819132256
190.202.223.5 2 147 3228435 20150811151814
190.203.252.131 2 69 792117 20150816213441
186.166.153.53 2 80 1908946 20150809083456
31.14.69.7 2 2 15012 20150806214942
201.14.242.219 1 60 1334881 20150819111725
190.6.194.183 10 60 1377533 20150822144548
190.199.115.193 1 74 1891056 20150808215039
200.84.10.21 4 140 1106278 20150823161136
107.202.253.43 5 81 2151971 20150807232752
177.189.224.93 1 75 1981200 20150814175236
188.165.206.188 1 1 11986 20150828140800
181.10.34.12 3 83 1963860 20150808182908
78.46.156.169 4 4 353132 20150822205924
186.167.242.197 1 29 870090 20150810141102
199.30.228.128 1 74 1891039 20150820022842
193.201.227.163 1 1 42419 20150806211624
200.35.64.106 3 98 2082681 20150805221915
201.205.88.222 1 57 621751 20150820092625
201.210.48.211 1 1 11998 20150830192854
5.55.80.109 1 75 1973693 20150815222804
190.200.224.127 11 123 2564273 20150826062237
181.194.140.117 1 74 1891057 20150823101919
208.31.49.22 2 2 20510 20150831092813
83.26.179.215 1 72 1887421 20150824053738
191.67.204.158 6 145 1095209 20150830161259
186.6.168.77 1 54 1000383 20150818222332
186.166.158.152 3 81 1921140 20150803191131
186.95.14.121 1 74 1891056 20150830082934
107.167.109.123 1 1 9745 20150802132357
200.8.52.20 1 73 12045 20150802082012
190.95.234.140 1 74 1891039 20150817123433
189.214.13.151 2 73 654433 20150829171130
5.9.17.118 3 3 124770 20150830034006
83.77.140.67 1 1 11968 20150818054119
68.171.247.41 3 103 2327781 20150823155631
190.36.92.40 6 76 534536 20150811223248
201.211.92.129 2 74 1274693 20150807151514
179.49.7.54 1 74 1891056 20150821171115
148.251.54.44 2 2 56440 20150828040551
186.88.250.84 2 146 3780468 20150809172446
186.235.70.10 1 42 328602 20150827084332
190.131.55.243 2 62 762705 20150828120919
190.200.145.158 1 32 270841 20150803210737
201.210.26.66 3 76 1915036 20150816201437
83.28.213.109 1 73 1890234 20150824054207
161.202.17.70 1 1 42601 20150820110656
152.236.51.131 1 84 2725786 20150805201834
204.74.211.29 1 1 11989 20150825120557
190.142.6.45 2 80 1908946 20150823093855
190.199.214.194 21 180 3282327 20150811202420
186.212.84.196 1 99 4021824 20150803113645
190.200.241.204 1 74 1891060 20150816065811
41.185.8.114 1 1 42419 20150808175221
186.94.63.88 1 57 622787 20150821094617
66.249.83.173 20 173 783770 20150825185721
190.205.206.4 1 74 1891118 20150801203126
190.205.221.188 7 167 3827826 20150813125226
186.93.100.102 2 74 1785868 20150803075948
95.132.100.142 1 73 1890234 20150824043121
190.114.240.241 2 62 709562 20150814184935
66.249.83.170 13 187 2343726 20150827131549
190.200.248.38 1 74 1891061 20150816100925
190.60.51.41 1 1 11986 20150828204905
186.166.234.217 1 75 805634 20150823123951
189.215.150.203 1 42 380442 20150815111830
190.200.225.37 3 148 3212796 20150830084154
190.77.2.136 1 74 1891119 20150802081414
190.205.106.4 5 161 3829883 20150830083935
37.139.47.248 1 1 503 20150814124330
181.34.233.79 1 74 1891059 20150829203248
66.249.90.61 1 1 65121 20150825073452
186.79.224.174 1 74 1891041 20150818194550
161.140.62.23 1 74 1891117 20150805181321
201.92.170.14 1 18 52775 20150830161032
190.198.160.10 3 88 1948155 20150806115554
187.121.128.191 20 20 61539 20150809122530
186.184.184.220 3 63 721864 20150830092137
186.95.218.158 22 242 5271898 20150812050143
190.38.214.242 1 74 1891120 20150802062648
93.127.146.205 6 6 52015 20150806214952
89.217.75.58 1 84 2788144 20150830113903
188.163.110.111 3 3 13446 20150806223825
200.8.218.207 2 42 1128604 20150821215040
177.134.16.174 1 77 2096398 20150812203151
190.79.70.137 1 74 1891057 20150810220036
157.55.80.72 0 73 1879070 
190.204.143.140 18 380 5798223 20150824095611
179.20.194.139 3 102 3073696 20150823091300
200.82.132.81 1 58 631939 20150803113236
200.45.102.140 1 74 1891058 20150816172701
37.228.104.62 1 64 798779 20150803074818
186.92.45.229 8 144 1001601 20150814180431
54.191.244.153 1 2 119864 20150805110727
72.9.153.118 1 1 42635 20150804000630
190.129.34.212 2 79 1928488 20150815084426
190.152.179.177 3 87 1974924 20150807155238
190.73.245.215 1 57 687930 20150823201532
190.201.13.95 2 64 689326 20150818062136
62.210.215.109 23 23 1974619 20150831183428
177.82.64.105 1 77 2146977 20150823212411
190.216.236.174 5 229 5704287 20150821112410
190.199.52.157 4 85 2077119 20150825203906
217.160.108.64 1 1 42635 20150804022454
201.210.56.159 9 187 3233737 20150823142400
186.138.89.178 1 74 1891057 20150830121628
191.251.251.158 1 75 2002011 20150821194813
190.233.59.223 5 165 1100704 20150805193507
190.72.249.96 3 68 762037 20150826105456
200.140.37.165 1 100 4054325 20150829221004
190.142.107.10 1 74 1891119 20150802175933
5.9.94.207 5 5 404629 20150819083251
205.250.56.11 1 1 42635 20150804024751
190.155.109.223 1 74 1891060 20150816080814
190.203.88.32 13 109 2307973 20150827121803
200.84.22.219 1 74 1891039 20150817215456
190.204.224.159 3 76 1550459 20150806190628
201.210.34.172 1 72 1887432 20150809085218
87.206.221.219 3 3 127905 20150802113253
190.75.137.156 1 73 1890215 20150818165851
186.25.65.63 6 349 1951364 20150802092006
107.167.107.228 1 1 9745 20150802182654
188.163.109.83 3 3 13446 20150805214115
190.0.134.30 1 55 679308 20150817130535
113.183.197.72 1 73 1890235 20150824043229
181.232.58.171 1 64 652894 20150806202029
109.184.204.241 1 75 2002003 20150814150803
188.163.109.85 3 3 13446 20150801014911
189.107.240.61 1 1 11989 20150828075118
200.35.64.107 2 104 2149056 20150805214451
190.205.198.139 4 88 1943365 20150806120638
200.84.28.19 25 317 300044 20150831092849
187.155.178.37 1 58 768223 20150824140241
200.31.134.30 1 1 11493 20150809160125
68.171.247.45 8 163 2967912 20150821065555
201.211.123.178 9 82 1237886 20150816115558
200.84.189.54 1 1 11985 20150820203445
190.214.73.245 1 75 1894139 20150821233137
200.71.167.239 3 120 1068068 20150809095932
190.37.106.148 1 73 1890235 20150824184142
190.38.70.233 3 88 1950548 20150816113530
5.23.12.100 1 74 1891119 20150804132120
186.167.242.4 1 22 194415 20150801100730
186.25.164.200 1 74 1891119 20150802092142
107.152.143.90 1 1 42419 20150807013959
186.89.126.58 10 466 3800694 20150805140816
186.166.142.165 8 112 2136333 20150817223723
181.208.51.242 1 58 702890 20150825000511
93.127.145.173 5 5 39235 20150812183357
186.141.198.61 1 7 108619 20150820155224
201.210.50.37 5 96 2130694 20150805110032
186.89.109.78 1 74 1891073 20150827210344
190.207.45.214 6 104 2090838 20150829221651
37.228.105.112 1 1 9745 20150801200805
186.74.163.234 1 57 768576 20150813084715
200.98.147.8 36 36 109587 20150823230626
107.167.109.8 3 3 29235 20150804113125
200.71.130.227 1 59 635954 20150822182710
89.67.166.46 3 3 127830 20150801141751
190.38.6.135 1 53 367982 20150827210100
190.87.83.198 1 57 621675 20150831113717
190.201.34.168 4 47 461344 20150831095433
179.52.16.131 1 74 1891040 20150818200750
38.100.21.171 2 10 113575 20150819185956
190.79.139.130 1 58 666990 20150829194956
177.11.92.46 1 30 255601 20150817185512
188.215.22.14 4 4 30299 20150806220529
200.84.163.50 1 75 659956 20150817124841
190.212.71.86 1 1 11970 20150817092108
190.37.72.38 1 57 622784 20150824111943
190.207.51.144 1 57 622753 20150827113317
190.77.171.134 1 55 739816 20150821083836
104.197.130.118 1 1 42420 20150831100257
201.242.54.169 3 145 3609087 20150828060114
104.197.128.55 1 1 42421 20150828101830
190.211.92.5 1 7 171686 20150816215646
186.166.247.204 1 51 1673715 20150818134516
91.200.12.91 5 5 238121 20150829202908
187.44.62.108 1 91 3367392 20150821195915
179.20.6.164 1 1 11493 20150811100631
190.201.43.4 8 238 5797807 20150830084014
186.166.234.238 1 1 11493 20150821064514
189.187.11.193 1 1 11988 20150831131139
37.228.105.165 1 1 9745 20150802165910
201.249.204.194 5 77 1253807 20150811063952
190.78.245.243 5 30 66000 20150816081825
200.84.20.167 1 74 1891115 20150805193636
200.84.169.93 1 74 1891120 20150804045006
190.39.119.120 6 143 1212014 20150801083029
186.24.41.130 0 68 0 
190.205.208.86 5 141 1411815 20150831143540
186.184.35.132 0 24 191743 
190.73.161.65 1 46 657241 20150802155057
200.229.218.6 10 244 3856082 20150831132838
181.117.5.212 1 75 1891058 20150808202202
89.32.123.162 1 1 7005 20150808235304
190.205.111.211 5 152 3818707 20150830081933
190.206.85.17 3 81 1920434 20150827112538
186.15.77.194 1 15 34527 20150820125848
201.220.244.244 2 61 914262 20150805154824
181.208.6.182 1 60 792597 20150829163745
104.197.118.144 1 1 42407 20150817103215
65.36.110.234 1 80 2375904 20150819124755
87.19.136.36 1 53 988538 20150831094501
186.7.236.181 1 72 1887483 20150806080357
181.198.3.227 5 140 1001300 20150831183211
190.142.13.71 1 74 1891055 20150821212928
217.73.208.27 1 1 42430 20150815194815
190.142.156.176 1 34 409300 20150825220738
201.9.227.226 1 25 254472 20150813084703
198.229.1.130 1 34 309974 20150823184940
186.46.225.104 1 68 893221 20150813180555
190.203.114.106 1 7 171686 20150820164053
200.121.251.4 1 58 660593 20150815160751
200.71.178.45 1 70 11990 20150816081357
190.204.135.118 14 174 2797369 20150815101405
190.142.72.191 1 74 1891060 20150811130508
201.210.36.226 6 68 209500 20150820113939
107.167.107.201 2 2 19490 20150803090044
186.92.167.234 8 337 3472031 20150823121947
201.77.34.131 1 12 27856 20150817234333
186.166.155.205 1 1 11492 20150824093828
182.187.120.166 1 73 1582679 20150806102330
24.237.210.243 3 137 929477 20150806022749
201.209.101.215 7 112 2331294 20150825215230
190.199.211.59 4 91 1962583 20150813093505
144.76.201.69 5 5 292023 20150829072828
91.200.12.60 1 1 14002 20150825063007
62.43.214.133 4 93 1995950 20150824040822
190.37.102.113 3 143 2855610 20150814084922
107.167.107.212 5 5 48725 20150812230108
200.84.144.252 10 178 3958102 20150813142652
187.112.13.248 1 75 1603748 20150830202731
201.210.16.167 8 315 6945043 20150830082003
186.166.237.196 1 1 11988 20150824102404
200.164.154.243 1 56 1157020 20150817081015
200.8.252.242 3 99 1531295 20150810234104
74.82.68.144 1 42 1381039 20150828105437
88.198.227.103 2 2 84826 20150816233722
186.14.44.192 1 60 792651 20150803002153
186.75.36.242 0 19 1193106 
190.202.184.187 12 113 2297449 20150819102113
190.142.245.58 1 74 1891057 20150821141345
190.38.58.120 2 57 638138 20150806112217
190.142.5.33 1 74 1891057 20150809090800
186.166.142.44 3 80 1976804 20150812215704
186.167.242.194 4 96 889219 20150802112936
200.8.222.198 2 77 2024973 20150814213638
181.164.223.225 9 9 80976 20150831145728
186.89.96.229 8 112 2226960 20150828124652
190.206.108.248 6 108 2077442 20150823085445
38.99.62.91 1 1 12046 20150805043845
68.171.247.32 1 109 949993 20150808153224
5.9.112.6 6 6 657537 20150830133114
190.142.162.10 1 74 1891056 20150807074210
150.70.173.10 0 1 4784 
190.201.224.135 4 139 1606149 20150802091101
200.45.205.203 2 59 643112 20150815113813
193.201.224.170 2 2 53548 20150818100206
190.201.37.27 1 62 727326 20150814172332
200.35.75.210 1 29 255109 20150806140342
186.94.230.109 1 73 1260115 20150818132225
69.162.127.250 17 17 721817 20150824041136
190.79.25.64 1 71 1708901 20150810142604
200.93.109.1 2 72 615483 20150811220131
190.205.197.156 2 75 1903168 20150802083518
104.182.188.43 6 95 2019315 20150830110626
190.204.255.152 1 1 11986 20150829213300
93.159.230.28 1 41 438543 20150818012353
221.232.53.228 1 1 11971 20150819023213
136.2.1.112 11 104 2183464 20150803143338
190.206.110.35 2 70 910310 20150809084713
190.207.202.29 1 58 667042 20150805080609
190.201.14.88 2 110 1413642 20150821185028
107.167.108.152 2 2 10538 20150812174059
179.24.171.62 1 73 1890230 20150822105128
186.77.204.140 5 141 935825 20150801133211
186.95.29.213 1 74 1891042 20150819212023
89.76.124.106 18 18 216962 20150804224911
107.167.107.162 1 79 1898553 20150802204014
186.166.141.181 1 75 1894144 20150816091241
190.80.76.65 1 75 1973693 20150811094853
171.43.255.99 1 1 11987 20150807162955
150.70.173.58 0 1 16417 
37.228.104.223 6 95 1989870 20150809104940
66.102.6.164 0 38 347233 
186.91.224.207 5 144 1094218 20150817155551
186.167.242.182 3 40 759039 20150823011556
181.197.93.126 1 58 667044 20150803161424
186.95.215.45 1 74 1891060 20150806192050
186.166.155.146 1 1 11493 20150824032338
201.211.125.106 2 32 99344 20150823193353
148.251.75.46 7 7 344001 20150829072830
201.191.254.14 1 57 621598 20150804004058
200.84.160.10 9 101 2257904 20150831112136
200.84.167.58 4 84 2033005 20150825172741
150.70.173.5 0 1 12704 
201.242.21.254 1 61 697284 20150823082521
211.21.113.206 6 6 23982 20150812160152
201.209.107.151 1 74 1891116 20150820144113
200.84.14.251 2 75 1903042 20150809074101
190.205.96.247 7 104 2122310 20150803151445
69.58.178.59 12 12 593069 20150802185134
201.210.15.76 2 144 2670127 20150826081210
190.202.89.195 14 169 2339273 20150813104217
190.216.234.20 9 99 2234858 20150811125645
23.236.54.125 1 1 42419 20150809103225
107.167.109.210 3 153 1062361 20150817210120
190.200.35.10 5 80 2062580 20150819085541
200.93.2.138 4 151 3806921 20150828075442
190.203.75.231 2 75 1903049 20150816085330
201.209.100.97 1 74 1891058 20150815230719
199.217.117.90 1 1 11992 20150807024520
201.242.208.153 3 149 3794063 20150820203123
181.109.107.57 1 59 635948 20150814205255
172.56.4.166 1 74 1891054 20150809230307
186.166.156.216 1 39 463696 20150820065742
190.198.4.200 3 3 53046 20150808103202
91.200.12.65 6 6 170962 20150812184510
201.210.0.149 9 108 1834168 20150805162310
130.211.190.202 1 1 42421 20150825101948
190.198.23.186 4 90 2109167 20150804132503
179.20.137.146 1 61 697282 20150830094450
186.120.45.147 1 69 1301942 20150824185816
194.135.152.157 1 74 1891063 20150824064614
186.166.249.204 0 15 391773 
190.75.78.216 5 91 1609875 20150812101826
190.149.146.119 1 56 626638 20150813195531
190.206.9.176 25 149 2689403 20150829111857
31.220.28.151 1 1 7953 20150810164722
66.249.90.60 1 1 21116 20150826025304
200.126.155.88 3 132 2764844 20150816180918
186.120.44.126 1 73 1773077 20150824164520
190.198.232.196 2 85 1582720 20150824033924
204.69.221.1 4 4 0 20150825054340
186.167.243.226 1 43 580927 20150822224621
75.74.120.165 2 59 643113 20150813110300
150.70.173.41 0 1 12201 
196.196.28.19 1 1 11987 20150806152419
186.89.88.209 1 1 12049 20150820124846
79.110.19.26 4 4 6760 20150826121313
186.95.205.163 4 144 3118929 20150802091554
64.246.165.210 2 2 19490 20150829055054
5.39.85.81 2 2 84839 20150812020402
200.84.151.149 4 92 1520642 20150802150409
188.163.110.100 3 3 13446 20150801140413
190.137.172.250 5 90 1972034 20150831132939
200.91.48.6 1 39 1026935 20150802203253
191.251.80.168 1 78 2236637 20150824132758
190.199.87.45 7 117 2313866 20150831232447
104.193.9.6 1 1 31570 20150809194204
186.93.175.241 1 32 302835 20150810092858
190.201.107.113 9 228 3866072 20150824082435
181.93.25.194 1 58 630279 20150827113527
190.201.40.105 3 150 3884440 20150802084152
190.206.2.233 1 53 635313 20150810160843
72.50.84.233 1 61 693508 20150822214056
201.252.250.61 1 59 635953 20150825154413
161.140.212.195 6 97 2050045 20150802091934
64.246.165.160 1 1 9745 20150802034609
186.89.99.109 2 80 1933368 20150818100859
190.105.56.233 1 74 1891056 20150823183156
200.80.239.34 1 74 1891055 20150824124007
190.104.18.148 1 59 635953 20150822112948
186.68.190.2 1 74 1891117 20150820105704
177.235.244.65 1 78 2228249 20150802220434
190.200.45.12 1 59 459142 20150809205334
190.80.8.9 1 73 1890235 20150824103641
186.90.96.11 1 74 1891118 20150820090801
190.204.27.125 1 58 630189 20150827160730
190.201.126.94 6 145 1094341 20150805193501
201.242.195.174 20 252 5293562 20150816054616
201.78.95.109 1 49 825294 20150821091456
181.208.16.179 20 147 2757262 20150817092301
201.209.189.29 9 173 3733008 20150831172223
190.203.72.142 4 101 2023432 20150811114532
190.206.4.90 3 216 5662247 20150826071530
186.166.154.218 1 1 11494 20150811031811
190.76.244.50 10 242 5437283 20150806082732
200.84.160.242 1 1 10704 20150817180743
27.44.241.201 1 68 1206215 20150822081321
188.162.64.20 1 72 1887422 20150824032029
190.203.208.23 2 86 1822902 20150820161712
186.93.123.55 9 148 1095278 20150821205532
190.206.152.87 1 74 1891056 20150831221912
94.190.34.74 31 31 138942 20150821201324
66.249.92.43 12 12 429244 20150811013454
107.167.107.190 1 1 9745 20150802152359
109.234.158.245 1 1 42420 20150823211301
73.184.106.155 1 58 631875 20150828145656
201.211.84.230 1 74 1891141 20150803065652
190.151.156.173 2 78 2431207 20150816173644
37.228.105.207 1 1 9745 20150804192611
84.10.161.210 4 4 35648 20150805195925
190.43.99.26 1 57 682330 20150815004935
201.209.106.103 9 199 2633131 20150802171316
186.89.147.57 1 38 606945 20150805093115
200.84.26.84 8 107 2135703 20150816205713
68.171.247.33 4 187 3607615 20150812201220
186.6.81.69 1 74 1891041 20150818184032
190.221.151.2 1 73 1803063 20150815194243
187.22.7.73 1 48 994626 20150816093511
117.204.44.147 1 73 1890234 20150824052549
190.142.13.43 1 74 1891059 20150816095859
190.204.243.222 8 118 2320325 20150816082711
186.167.242.153 1 73 1151780 20150806171640
190.36.151.159 1 57 682331 20150814213547
184.174.155.240 1 58 630278 20150806203830
23.251.147.185 1 1 42601 20150820102114
200.77.193.25 1 61 696298 20150830021339
190.199.131.84 5 73 717792 20150823063523
52.0.89.236 1 1 42420 20150823160432
190.121.228.84 1 1 11991 20150831151519
190.78.254.83 1 15 34470 20150815145755
186.94.0.14 1 59 635999 20150801233042
186.94.248.153 1 39 533666 20150831081638
181.208.186.79 1 54 659837 20150826142915
68.171.247.37 2 152 3311810 20150824205942
117.199.166.192 1 1 11990 20150816085402
190.36.89.24 1 60 792597 20150828092744
190.153.81.250 8 244 4320434 20150817124730
151.237.238.22 1 1 11972 20150817161053
186.85.85.96 5 140 930647 20150803084143
186.178.121.115 1 74 1891048 20150815004920
190.73.88.191 2 76 1765953 20150819075210
184.173.183.174 2 2 22222 20150830130712
2.80.244.67 1 75 1981213 20150825042733
190.142.16.157 5 106 2221712 20150816093000
46.119.77.86 1 1 7954 20150823062116
201.211.110.177 2 2 24116 20150801194007
186.95.197.158 22 320 6209570 20150830141506
186.166.152.228 1 1 11547 20150805201956
200.229.218.5 16 559 14471076 20150825190904
200.84.1.193 2 75 23972 20150831201554
92.56.197.144 1 74 1891039 20150817062931
190.77.194.94 1 74 1891117 20150806115942
198.23.200.244 0 2 1248 
146.148.41.253 1 1 42407 20150819102138
190.219.176.164 17 112 2589720 20150823091918
190.74.78.127 1 8 42025 20150817005639
188.163.109.94 6 6 26892 20150804101758
200.3.1.7 1 60 731632 20150812134225
190.72.32.114 1 74 1891057 20150821093223
190.76.2.202 1 35 259609 20150807094607
190.38.88.39 1 73 1890296 20150803164128
152.166.114.1 1 74 1891039 20150819023137
186.86.42.45 1 61 697298 20150816101147
79.156.146.242 1 1 17336 20150824023546
201.210.1.249 4 77 1927271 20150802095123
66.249.92.37 16 16 601550 20150811042454
107.167.108.33 1 81 1899874 20150830093410
72.14.199.80 18 18 643726 20150808025035
186.188.78.171 2 77 2024985 20150822112200
190.205.123.90 15 104 2127088 20150802081820
190.200.241.219 1 74 1891056 20150823101557
186.14.48.134 1 7 171686 20150811160513
190.206.107.29 2 75 1903044 20150810092119
150.70.173.7 0 1 136091 
190.79.92.217 3 75 1914164 20150813202216
189.115.106.234 13 13 40518 20150824131433
190.79.71.146 12 228 3661591 20150830080556
172.8.237.65 1 57 683308 20150813180220
185.93.187.65 1 1 4482 20150801235007
186.89.117.56 1 75 1894123 20150820073402
190.205.123.180 12 112 2311604 20150803143520
190.205.218.181 1 46 1291780 20150814155123
69.163.47.119 1 1 11988 20150824022308
188.208.219.79 6 6 35075 20150806215925
104.197.55.183 1 1 42420 20150830101727
190.153.71.89 2 84 1937968 20150820195000
187.185.170.252 1 59 635953 20150828221436
186.92.138.117 1 62 705594 20150805214539
201.211.121.209 5 65 746472 20150809104013
144.76.155.8 9 9 370746 20150828192923
79.158.42.70 1 73 2005027 20150825163811
190.201.230.230 7 147 1174066 20150821141511
104.197.127.242 1 1 42420 20150829101821
186.167.243.173 1 1 11986 20150809093130
200.82.190.195 1 56 663352 20150830044809
212.12.7.210 1 70 1010048 20150824052051
150.70.173.42 0 1 238331 
190.199.59.54 5 142 1090682 20150806193627
107.167.108.205 2 75 848334 20150802155226
186.90.68.1 14 194 2628223 20150831151027
82.211.23.44 1 1 7950 20150828145018
186.88.55.34 1 73 1088939 20150804150035
186.95.69.175 1 62 847402 20150811101405
201.210.45.218 12 186 4253796 20150829194208
181.28.193.128 2 75 1903044 20150826212239
190.204.252.16 1 63 657369 20150810225803
31.178.116.241 11 11 163566 20150803103214
144.76.185.173 6 6 215727 20150815223921
150.70.173.8 0 3 200670 
63.141.232.154 1 1 11985 20150823012623
85.136.73.175 1 74 1891060 20150824044011
190.206.109.141 4 143 2678883 20150811223117
46.119.77.101 3 3 23969 20150822112653
138.121.80.1 2 154 4105563 20150826161058
201.210.14.117 4 163 1419520 20150803112304
201.249.174.160 1 59 676911 20150824112242
177.97.172.191 1 78 2236696 20150820094915
181.211.235.19 1 74 1891118 20150801144526
189.18.68.167 1 7 22888 20150831175301
89.107.249.65 1 1 42635 20150802150151
186.92.169.84 1 73 1553087 20150811144838
190.198.178.205 4 117 914995 20150814071807
186.166.152.6 0 1 342941 
186.167.243.87 1 57 389164 20150819213506
144.76.153.198 6 6 214478 20150822090246
195.154.194.117 1 1 12047 20150806121000
200.71.129.121 3 172 1652268 20150801181740
68.171.247.36 2 144 2091868 20150825201939
190.142.22.8 1 2 11986 20150822171519
54.207.206.244 1 74 1891059 20150824183940
186.90.208.226 1 61 697284 20150827073925
173.49.24.119 1 1 42635 20150803195633
72.226.42.221 7 234 5749370 20150820130625
201.102.255.231 2 77 2024993 20150816013757
190.205.125.14 6 105 2026440 20150804210245
190.77.193.199 1 74 1891056 20150823110037
200.62.17.244 1 71 1883776 20150828204919
189.62.159.181 1 79 2001500 20150824080012
190.201.13.25 1 73 1470240 20150803103024
181.103.25.206 4 220 4344825 20150817012420
74.112.131.242 1 1 10271 20150809131411
188.163.110.32 3 3 13446 20150806101632
186.24.10.190 1 56 628221 20150819102158
190.78.164.77 1 74 1891116 20150802085413
186.166.142.215 1 57 621541 20150816112401
181.36.1.49 3 76 1124843 20150823095152
190.142.7.86 1 72 1887481 20150802091246
82.211.23.146 3 3 15045 20150807001333
186.149.253.212 1 74 1891039 20150818153439
85.25.12.33 1 1 42419 20150812133059
190.203.41.191 11 276 6330933 20150823074010
190.212.64.254 1 74 1891061 20150816101022
188.165.196.25 1 1 42421 20150826012420
95.126.87.129 1 74 1891058 20150807235840
173.224.126.253 1 1 10853 20150813183749
69.30.253.2 1 1 12697 20150817004254
201.210.5.175 1 74 1891056 20150823084448
193.152.89.30 1 74 1891064 20150831171632
189.101.177.208 1 97 3507094 20150818155331
186.167.243.201 1 25 241119 20150825132144
190.36.89.59 1 74 1891058 20150828162335
93.186.202.239 3 3 112954 20150828165544
186.91.110.115 1 60 654424 20150825230631
190.199.48.9 1 71 1711824 20150831142450
201.210.233.223 4 143 1094232 20150808172158
136.243.17.161 7 7 280066 20150824064146
201.208.168.220 3 59 702943 20150828085821
190.28.75.53 4 80 877007 20150806141611
190.204.246.218 5 91 2163374 20150826101623
95.29.239.75 1 1 11968 20150818075207
201.210.53.153 4 162 2561542 20150809202913
195.154.181.168 3 3 689193 20150826021349
5.9.106.81 4 4 163677 20150830133114
186.90.237.248 1 69 1149651 20150824080630
194.28.51.139 1 1 3834 20150831204003
186.91.212.180 1 34 353247 20150825084419
186.26.215.112 11 170 3684863 20150807202555
191.250.217.67 1 75 1973675 20150819165700
200.8.52.27 4 84 2054196 20150823100225
66.249.90.62 4 4 128413 20150826073757
186.14.160.34 1 78 2232402 20150809092529
200.109.230.138 1 57 682333 20150823194618
186.166.134.30 0 2 1386 
190.53.231.108 1 50 1372867 20150810124852
200.31.154.192 2 82 30175 20150816082029
150.70.97.120 0 1 0 
190.153.76.254 1 74 1891117 20150803201541
68.171.247.38 4 175 3930492 20150822071525
93.45.166.187 1 74 1891057 20150824045322
190.198.146.219 1 7 171686 20150822162313
200.84.23.62 5 96 1883812 20150816203500
186.89.71.211 2 68 706599 20150805140313
186.95.226.23 2 59 684068 20150803234106
107.167.107.74 3 3 29235 20150813152308
204.17.56.42 1 1 11984 20150820193940
68.171.247.35 1 86 1379722 20150807061043
186.166.157.215 0 56 0 
89.154.123.203 1 78 2228249 20150805154357
186.92.44.158 10 180 1240029 20150805182245
46.4.189.109 13 13 296820 20150830100435
190.203.247.219 1 74 1891056 20150822202209
104.154.66.1 1 1 42420 20150822101915
81.19.95.205 1 1 11986 20150811003552
186.89.102.124 3 82 1921250 20150825191721
181.182.20.190 1 57 683367 20150804112858
186.25.166.149 1 22 193926 20150802191443
107.167.104.10 1 1 9745 20150828185506
150.187.110.250 1 62 655796 20150805133002
177.94.221.173 1 23 115586 20150827091245
173.49.24.118 2 2 84841 20150822042925
186.93.105.253 4 84 1960944 20150818131220
78.46.83.7 2 2 16014 20150803235515
183.60.243.189 10 29 80386 20150829080722
176.109.195.36 1 73 1890234 20150824043246
181.161.223.43 1 57 625592 20150818132714
186.166.158.112 1 2 39512 20150802194848
201.210.80.157 1 7 171686 20150807125958
146.148.73.45 1 1 42420 20150823101842
5.45.79.4 3 3 25895 20150817132414
190.32.167.72 6 65 761577 20150811144654
200.8.147.17 1 72 1887401 20150819064720
107.167.107.195 3 143 2659337 20150807200936
190.38.86.14 4 79 2048965 20150821212420
190.198.194.212 14 255 1386729 20150810170348
122.169.196.141 1 73 1890234 20150824063049
190.201.32.128 6 82 1951842 20150831092318
107.167.109.200 1 1 9745 20150802171126
201.248.65.178 1 74 1891058 20150827165201
176.10.104.234 20 20 900660 20150812165903
201.209.163.93 3 63 721862 20150823082541
186.89.126.170 3 87 1978216 20150802092947
200.84.211.1 4 91 2021389 20150825074417
148.251.124.42 11 11 355422 20150830093831
181.208.17.3 3 185 3899947 20150801072023
190.142.163.67 2 75 1903022 20150814153850
107.167.107.70 1 1 9745 20150805172141
190.203.80.216 1 73 1252491 20150815120829
186.92.196.118 1 74 1891039 20150818192106
93.186.202.241 1 1 3262 20150826111537
200.71.175.36 1 54 659838 20150810203000
105.103.74.81 1 73 1389284 20150824075155
201.230.30.10 1 62 735265 20150815144142
72.14.199.74 17 17 622666 20150808045014
66.201.163.179 1 30 146900 20150807121248
89.66.76.227 2 2 85200 20150806122827
179.184.171.144 1 43 805334 20150816010755
186.167.242.187 1 30 255619 20150810140707
190.15.179.2 1 74 1891066 20150810110303
186.88.60.80 1 57 768585 20150827180744
200.71.177.198 4 85 2221032 20150820201822
212.120.228.137 1 36 350420 20150819181304
186.170.84.236 1 57 682835 20150815171315
179.43.231.141 1 73 1686942 20150824195826
190.202.175.90 6 98 2208996 20150801121315
200.84.17.27 5 100 2192185 20150817094932
186.96.78.98 19 252 3374150 20150812235023
5.231.76.94 1 1 18075 20150806093242
186.167.243.53 1 72 1579939 20150802173926
190.79.211.250 1 63 1441531 20150809164115
189.76.0.234 1 1 4482 20150831165407
186.91.72.10 5 144 1095186 20150812101008
186.167.243.71 11 368 2453288 20150820174104
108.58.149.246 3 78 1957908 20150818165753
104.197.26.199 1 1 42421 20150827101920
201.210.20.227 1 32 325061 20150802085946
201.248.246.165 1 36 568624 20150809161502
186.25.21.61 1 27 204517 20150820065330
186.89.127.92 2 75 23954 20150813200514
190.153.57.22 4 67 156464 20150811125918
187.34.8.248 1 31 281042 20150820100828
201.243.179.200 1 33 371147 20150824095050
107.167.107.12 1 1 9745 20150803175316
188.215.22.252 5 5 40026 20150807001340
179.183.206.108 1 29 253489 20150827004023
187.152.78.149 1 74 1891039 20150818203116
31.14.69.94 9 9 68023 20150808235357
108.58.161.26 1 1 11944 20150814024126
190.77.221.201 1 59 628655 20150817144708
123.49.52.202 1 71 1303025 20150824041525
190.142.17.247 9 213 5516457 20150812140406
107.167.108.41 1 1 9745 20150807204434
201.211.175.23 5 92 1751535 20150806190214
201.242.9.124 1 74 1891057 20150807053511
177.243.229.237 1 53 638651 20150823204201
65.52.240.20 1 1 11491 20150827112535
201.230.135.159 1 45 404025 20150817185930
190.199.253.57 0 73 1879070 
66.249.90.63 1 1 65121 20150823215533
190.201.49.157 4 61 1867553 20150831095411
181.108.90.156 2 2 23969 20150822093255
150.70.173.48 0 1 729 
200.84.11.246 3 99 1807625 20150809135421
179.20.160.40 2 2 23975 20150808142846
84.0.249.8 1 46 1291792 20150824033317
200.84.203.134 2 54 1024291 20150828075100
200.8.90.125 1 74 1891055 20150810151623
188.143.232.24 21 21 842582 20150810034709
66.249.90.27 36 36 1287340 20150827043223
190.200.236.171 2 75 1903166 20150802163548
190.207.168.127 1 57 620482 20150801174110
190.75.136.101 1 73 1742065 20150808180219
107.167.109.191 2 2 19490 20150803194135
190.202.177.254 9 109 2144198 20150817061449
191.35.199.97 1 75 2002015 20150831175106
190.78.162.199 38 682 5047473 20150825180133
200.97.48.52 1 73 1596027 20150824231713
200.84.164.61 14 259 5882437 20150823155739
200.11.208.125 5 98 445027 20150817175344
190.202.168.135 2 2 23938 20150819200041
186.14.162.174 1 72 1875050 20150802090004
175.101.16.105 1 73 1890233 20150824072553
186.89.66.227 8 147 1094466 20150809115747
190.78.104.42 10 120 2342452 20150827223605
190.206.48.92 2 117 2344815 20150822002726
107.167.107.44 1 1 9745 20150807215347
130.211.130.139 1 1 42635 20150801101828
161.140.66.128 8 9 90559 20150818091618
186.42.104.92 1 73 1574973 20150819094811
79.98.107.90 1 1 11970 20150818140357
190.130.132.96 6 73 852843 20150812170011
179.215.139.137 1 30 255619 20150830231845
186.88.116.54 1 55 617895 20150814095636
209.85.238.25 1 1 65121 20150828020633
186.138.227.183 2 85 1965240 20150815205334
190.39.66.56 2 81 1948535 20150816101821
200.84.189.148 1 53 638640 20150818100240
186.25.44.128 2 82 2077448 20150811070006
200.222.237.131 1 100 4148372 20150824103244
181.211.112.2 2 75 1899540 20150828143534
200.31.132.91 1 1 11494 20150809131609
186.184.118.136 1 1 11493 20150811094727
186.188.0.75 1 44 1252922 20150806160355
201.4.215.138 0 2 165270 
190.38.229.100 1 38 565549 20150802172526
89.33.43.237 1 1 7953 20150812113840
190.207.8.206 3 46 614759 20150802081717
66.249.85.170 0 8 101277 
200.192.211.170 1 30 194085 20150819164403
200.90.25.91 13 110 2301957 20150817140554
190.203.83.57 7 174 4049954 20150830092218
190.200.244.35 1 74 1891058 20150809093918
190.37.241.237 1 24 195418 20150804111159
58.97.205.196 1 73 1890234 20150824033043
190.201.46.201 10 163 2346305 20150817213835
188.163.110.123 9 9 40338 20150803070518
186.166.251.214 3 82 1943653 20150828192051
190.36.82.29 1 59 676961 20150803163246
24.115.232.109 1 74 1891055 20150820191038
190.201.49.135 1 72 1887479 20150804192053
112.196.164.227 14 156 1593223 20150805054608
187.189.58.17 5 179 3994534 20150810122609
181.109.34.175 1 74 1839986 20150823180423
138.122.7.11 3 58 984334 20150825085826
177.70.122.30 29 29 88566 20150823153936
201.209.107.154 4 79 2010115 20150831095404
181.208.5.226 1 74 1891039 20150819102814
186.166.143.109 6 105 2140381 20150803101503
190.17.168.179 1 36 508212 20150830114703
94.73.155.10 1 1 12046 20150801204647
104.197.64.67 1 1 42420 20150821102019
188.143.232.15 21 21 828103 20150808124725
62.212.68.156 1 1 11977 20150815043010
93.127.145.65 1 1 7950 20150812105634
200.71.180.12 1 41 1637774 20150812110906
186.90.66.155 2 169 1886787 20150823091551
200.88.251.172 4 143 1094238 20150825104451
107.167.107.174 1 1 9745 20150812174105
190.201.240.220 13 509 7458610 20150816085420
201.211.115.251 1 1 11987 20150807205929
200.8.248.151 2 75 1903168 20150804075432
201.242.1.78 2 73 1648681 20150817114003
186.167.242.33 3 98 1029318 20150823011013
107.167.108.180 9 9 87705 20150810181534
186.92.242.212 1 56 626652 20150815101257
181.28.214.40 1 74 1891116 20150806071837
200.109.205.68 1 73 1849202 20150824175337
23.241.154.142 1 59 743539 20150814181450
190.38.26.63 3 99 2013519 20150808193736
201.209.165.97 1 2 13517 20150828013305
186.93.107.131 1 33 318168 20150807131404
199.102.193.176 1 62 857363 20150802112931
186.6.86.62 1 73 1773408 20150818210453
190.200.190.153 17 113 2638363 20150816225658
187.123.182.41 1 30 255600 20150818193248
66.102.6.156 2 47 1200723 20150830160447
190.28.77.190 8 201 2166707 20150824162058
190.180.161.143 1 74 1891055 20150811135854
190.201.32.85 4 89 1961295 20150808104833
107.167.109.4 1 1 9745 20150804200530
91.200.81.62 4 4 6760 20150812193935
186.166.142.211 1 61 697306 20150830115146
181.208.167.178 7 100 2090179 20150816121257
200.8.52.175 6 224 3742656 20150816151627
186.89.28.94 2 69 794334 20150812184504
200.8.232.177 1 46 786140 20150831143442
201.209.110.200 11 165 2229246 20150830162545
190.205.204.52 18 406 8056170 20150830102119
190.205.247.199 1 1 11986 20150812132058
190.140.0.243 1 74 1891057 20150820190749
209.50.96.166 1 57 621532 20150822162009
200.31.156.253 8 147 1095246 20150822224844
157.55.80.246 0 1 570 
66.249.88.217 4 116 1185744 20150823152307
200.81.44.14 2 15 46020 20150817180243
37.228.104.126 1 1 9745 20150804093514
198.229.1.231 1 7 171686 20150819154736
193.201.227.106 12 12 41339 20150818112708
66.102.6.160 0 38 686012 
190.198.191.164 3 76 1915007 20150815085053
200.31.133.158 1 57 622755 20150824074616
190.77.192.203 1 74 1891039 20150818224451
106.120.173.118 0 3 4214 
130.75.152.106 1 1 33665 20150804060012
190.198.221.198 5 133 1564797 20150823090520
37.228.106.72 2 2 10538 20150828185505
201.210.46.112 28 221 2469290 20150817073548
186.94.124.189 8 113 2346843 20150826225937
67.229.126.186 1 1 11988 20150827111509
190.203.11.196 1 58 630278 20150827182334
188.143.232.21 1 1 34473 20150810100516
93.127.146.105 2 2 15149 20150807001458
190.200.243.88 8 196 4083697 20150809081540
68.171.247.39 3 120 1618739 20150825063826
186.188.238.187 5 89 2009474 20150801094701
181.208.169.183 2 75 1447941 20150828164538
54.205.53.38 1 1 42420 20150824172847
37.228.105.175 1 1 9745 20150809170323
190.79.95.247 2 77 2025158 20150801095826
68.171.247.43 5 70 1645252 20150824060337
68.171.247.44 4 126 1924519 20150828100336
186.93.188.124 3 111 1350092 20150815134608
190.203.39.177 2 75 24092 20150805200225
181.1.138.138 1 45 810277 20150808105212
54.79.108.118 1 1 11987 20150831163502
146.148.54.72 1 1 42419 20150811103049
END_VISITOR

# Date - Pages - Hits - Bandwidth - Visits
BEGIN_DAY 31
20150801 146 2644 44037805 60
20150802 391 5215 95316663 104
20150803 247 2411 42892900 69
20150804 94 1330 28996477 54
20150805 136 2848 42603376 67
20150806 139 2584 45197402 76
20150807 138 1693 32880903 68
20150808 737 2092 30334009 55
20150809 527 4016 64187842 82
20150810 235 2471 41656534 71
20150811 241 2407 46021815 66
20150812 204 1724 32037021 62
20150813 123 1886 34178900 60
20150814 335 2415 39235838 74
20150815 560 3003 39512189 59
20150816 228 4602 91924098 99
20150817 202 3330 57262251 76
20150818 156 2354 49518676 79
20150819 146 1895 38915118 77
20150820 117 2313 41724810 70
20150821 93 1817 34451812 54
20150822 104 1825 31828746 61
20150823 229 3699 72194008 83
20150824 128 4017 89024982 96
20150825 137 2289 42521442 55
20150826 142 1574 29201349 53
20150827 92 1608 27213205 56
20150828 84 1523 32394437 60
20150829 104 1327 27680693 46
20150830 132 2968 59004501 68
20150831 111 1974 36814080 57
END_DAY

# Domain - Pages - Hits - Bandwidth
# The 25 first Pages must be first (order not required for others)
BEGIN_DOMAIN 55
ve 3340 53085 926020021
us 1260 5368 102612234
br 911 3680 75984701
de 164 164 5785237
ru 139 510 8960777
ar 80 2812 63058446
ua 75 363 8317760
ca 62 2311 45006748
pl 45 262 6512292
pa 41 662 13992761
fr 34 34 2881481
co 29 875 9661843
vg 29 29 211266
ec 27 1097 22200083
ch 22 105 3700772
do 20 1051 21203614
mx 19 887 15574822
in 18 376 7275914
no 16 168 2858450
cn 15 104 1369456
es 12 600 14179362
hn 12 197 4544474
ro 11 11 83035
pe 11 433 4220706
ni 8 290 4729912
si 1 1 11984
eu 1 74 1891119
cr 6 270 4028773
tr 1 1 12046
sv 3 136 2554958
pk 1 73 1582679
dz 1 73 1389284
gy 2 148 3863928
hu 3 120 3224663
it 5 232 5068766
az 1 74 1891063
jp 0 12 625263
sc 1 1 11987
pr 1 61 693508
cl 4 192 3430895
gb 1 1 11972
gi 1 36 350420
pt 2 153 4209462
gr 1 75 1973693
tw 6 6 23982
nl 3 3 35952
bo 3 138 2564441
gt 1 56 626638
bg 1 1 11970
vn 1 73 1890235
za 1 1 42419
bd 2 144 3193259
mk 1 74 1891058
uy 2 128 2569538
ph 1 23 141760
END_DOMAIN

# Cluster ID - Pages - Hits - Bandwidth
BEGIN_CLUSTER 0
END_CLUSTER

# Login - Pages - Hits - Bandwidth - Last visit
# The 10 first Pages must be first (order not required for others)
BEGIN_LOGIN 0
END_LOGIN

# Robot ID - Hits - Bandwidth - Last visit - Hits on robots.txt
# The 25 first Hits must be first (order not required for others)
BEGIN_ROBOT 13
bot[\s_+:,\.\;\/\\-] 31577 335689676 20150831230957 426
robot 22958 220737699 20150831234444 10
googlebot 5977 61126121 20150831234216 66
bingpreview 781 11790531 20150831083101 0
php 663 41873089 20150831112737 0
google[_+\s]web[_+\s]preview 374 5853856 20150825080247 0
spider 231 1971499 20150831232057 28
slurp 187 1795845 20150831190105 31
no_user_agent 71 803004 20150831211758 5
unknown 37 32005 20150830130712 37
crawl 28 854118 20150831224935 6
curl 11 265218 20150831124455 0
ia_archiver 2 43285 20150829024216 1
END_ROBOT

# Worm ID - Hits - Bandwidth - Last visit
# The 5 first Hits must be first (order not required for others)
BEGIN_WORMS 0
END_WORMS

# EMail - Hits - Bandwidth - Last visit
# The 20 first Hits must be first (order not required for others)
BEGIN_EMAILSENDER 0
END_EMAILSENDER

# EMail - Hits - Bandwidth - Last visit
# The 20 first hits must be first (order not required for others)
BEGIN_EMAILRECEIVER 0
END_EMAILRECEIVER

# Session range - Number of visits
BEGIN_SESSION 7
2mn-5mn 85
15mn-30mn 75
0s-30s 1626
30mn-1h 109
1h+ 22
5mn-15mn 95
30s-2mn 105
END_SESSION

# URL - Pages - Bandwidth - Entry - Exit
# The 25 first Pages must be first (order not required for others)
BEGIN_SIDER 30
/index.php 4011 72574856 1192 1335
/administrator/index.php 1198 3674988 47 66
/ 1175 15975763 843 691
/administrator/ 24 46962 21 2
/index.php/component/users/profile 18 216143 1 8
//index.php 5 212959 5 5
/modules/mod_bt_login/ajax.php 3 150 0 1
/webmail/ 2 5883 1 0
/index.php/component/k2/itemlist/user/210.html 1 42600 0 1
/webmail/admin/index.php 1 2934 0 0
/google276bd62fdd7ea648.html 1 53 0 1
/index.php/option=com_user&view=register 1 42635 0 1
/webmail/auth/login 1 2932 0 0
/index.php/component/user/ 1 42560 1 0
/index.php/registration-page 1 42635 0 0
/index.php/view=registration 1 42635 0 0
/index.php/component/k2/itemlist/user/210 1 42600 1 0
/webmail/helpnew/faq/faq_simple_zh_CN.jsp 1 2961 0 0
/includes/ 1 31 0 1
/administrator/index.php/administrator/ 1 1957 0 1
/index.php/component/user/register 1 42635 1 0
/administrator/index.php/wp-login.php 1 1957 1 0
http://www.cepeniel.org/ 1 42635 1 1
/index.php/view=register 1 42635 0 1
/webmail/maintlogin.jsp 1 2924 0 0
/administrator/components/com_admin/admin.xml 1 503 1 1
/webmail/cgi/index.cgi 1 2932 0 0
// 1 42601 1 1
/administrator/manifests/files/joomla.xml 1 717 0 0
/webmail/index.cgi 1 2922 0 0
END_SIDER

# Files type - Hits - Bandwidth - Bandwidth without compression - Bandwidth after compression
BEGIN_FILETYPES 11
html 1208 16201045 0 0
cgi 2 5854 0 0
jpg 7387 273926492 0 0
png 29852 809627203 0 0
js 14473 214279254 0 0
Unknown 25 474850 0 0
jsp 2 5885 0 0
css 17202 26301946 0 0
xml 2 1220 0 0
php 5219 76467844 0 0
gif 2482 3472289 0 0
END_FILETYPES

# Downloads - Hits - Bandwidth
BEGIN_DOWNLOADS 0
END_DOWNLOADS

# OS ID - Hits
BEGIN_OS ID - Hits - Pages 29
linux 2042 384
macosx9 178 13
java 1 1
winxp 10907 678
macosx 442 27
linuxandroid 14348 495
ios_iphone 1447 53
macosx6 11 11
unix 874 35
win8 949 131
ios_ipad 1577 63
win8.1 4968 1135
linuxubuntu 14 14
winnt 2168 985
win7 30734 1357
Unknown 2778 859
macosx8 6 6
win2003 86 5
j2me 365 6
winlong 610 26
psp 78 2
blackberry 2697 77
macosx7 85 10
bsdfreebsd 3 3
win98 57 57
macosx5 7 7
winphone 363 13
win16 1 1
win2000 58 4
END_OS

# Browser ID - Hits - Pages
BEGIN_BROWSER 188
firefox29.0 77 12
chrome12.0.742.105 1 1
chrome13.0.748.0 2 2
chrome37.0.0.0 57 1
safari5.0.6 2 2
chrome12.0.742.100 2 2
chrome11.0.697.0 2 2
sonyericsson 74 1
chrome46.0.2461.0 74 1
chrome43.0.2357.134 586 27
chrome39.0.2171.95 197 51
chrome26.0.1410.43 1 1
chrome37.0.2062.120 4 4
chrome28.0.1500.94 615 23
chrome45.0.2420.0 113 17
chrome25.0.1364.152 1 1
chrome44.0.2403.89 219 8
chrome36.0.1985.143 3055 53
chrome25.0.1364.169 1 1
chrome39.0.2171.93 64 3
alcatel 116 2
chrome39.0.2171.99 36 36
firefox24.0 2 0
safari8.0.3 137 3
opera31.0.1889.99 177 8
chrome38.0.1025.166 123 2
iphone 74 1
firefox13.0.1 1 1
chrome17.0.963.56 1 1
chrome46.0.2490.4 89 8
opera8.50 1 1
chrome34.0.1788.0 1 1
firefox10.0.2 1 1
msie9.0 127 9
mozilla 1310 1110
firefox40.0 2262 112
firefox8.0 679 24
chrome30.0.1599.66 23 23
chrome10.0.648.134 2 2
chrome27.0.1453.90 2 2
safari6.0.2 1 1
firefox6.0 1 1
chrome32.0.1700.107 667 9
safari6.0.0.600 143 4
chrome14.0.815.10913 1 1
firefox34.0 93 17
chrome12.0.742.124 75 2
chrome12.0.742.91 76 4
msie10.0 314 46
chrome46.0.2486.0 82 3
firefox39.0 2476 207
chrome35.0.1916.153 275 5
safari6.0.4 1 1
chrome33.0.1750.152 1 1
chrome45.0.2454.78 120 10
chrome44.0.2403.155 9939 479
safari6.0.0.756 301 12
safari8.0 1770 72
firefox3.6.13 527 38
chrome44.0.2403.107 239 6
opera31.0.1889.174 194 4
chrome42.0.2311.111 184 17
firefox21.0 22 22
chrome26.0.1410.64 1 1
firefox3.0.19 55 1
chrome30.0.0.0 637 29
chrome10.0.648.204 1 1
chrome32.0.1700.76 1 1
chrome12.0.742.112 6 6
chrome23.0.1271.17 2 2
safari5.0.2 4 4
android 4701 147
chrome27.0.1453.93 6 6
firefox33.0 213 3
chrome29.0.1547.76 1 1
chrome45.0.2454.46 107 6
chrome27.0.1453.110 1 1
chrome46.0.2490.6 2 2
chrome35.0.1916.114 60 1
chrome31.0.1650.59 228 5
firefox1.0 1 1
chrome13.0.782.220 1 1
firefox12.0 7 7
firefox3.0.8 148 2
chrome27.0.1453.94 1 1
chrome34.0.1847.76 7 1
chrome41.0.2228.0 2 2
chrome44.0.2403.156 108 2
firefox37.0 306 22
chrome44.0.2403.130 8174 1211
chrome40.0.2214.93 105 8
safari6.1.6 78 3
chrome6.0.495.0 255 14
chrome42.0.2311.135 149 3
chrome43.0.2357.124 149 3
firefox7.0.1 1 1
chrome37.0.2062.124 74 1
msie7.0 36 6
chrome19.0.1084.9 2 2
chrome25.0.1364.172 1 1
chrome44.0.2403.125 6257 228
netscape5.0 1 1
chrome14.0.813.0 2 2
firefox15.0.1 2 2
samsung 111 3
safari10.3.1.2576 153 3
firefox19.0 3 3
firefox30.0 109 9
chrome36.0.1985.125 91 72
firefox31.0 3 3
firefox20.0 54 54
chrome40.0.2214.109 316 7
chrome41.0.2272.101 8 8
chrome41.0.2272.96 62 1
chrome39.0.2171.71 4 4
chrome14.0.835.186 2 2
safari7.1.0.336 96 3
chrome38.0.2125.111 115 2
chrome38.0.2125.104 529 23
chrome10.0.648.0 2 2
chrome23.0.1271.97 1 1
firefox3.0.3 6 6
chrome32.0.1700.99 74 1
chrome11.0.672.2 3 3
opera10.00 56 56
chrome43.0.2357.92 144 5
opera30.0.1835.125 3 3
libwww 19 19
msie5.5 1 1
chrome11.0.694.0 2 2
msie8.0 394 23
chrome30.0.1573.2 164 9
safari5.1 4 4
chrome42.0.2311.109 58 1
firefox17.0 3 3
firefox26.0 2 2
chrome9.0.597 196 5
chrome18.0.1025.142 2 2
safari5.1.9 1 1
chrome14.0.810.0 2 2
chrome10.0.648.11 1 1
chrome43.0.2357.65 174 14
chrome31.0.1650.57 1 1
chrome45.0.2454.37 117 4
Unknown 1575 807
chrome45.0.2454.6 73 1
msie11.0 1594 60
blackberry 2065 55
chrome26.0.1410.58 378 25
chrome11.0.696.3 2 2
chrome43.0.2357.130 431 13
safari7.0 247 9
firefox27.0 182 19
safari 1028 35
chrome41.0.2272.94 349 6
firefox3.6.3 1 1
firefox16.0 6 6
chrome18.0.1025.151 2 2
safari6.0.3 1 1
chrome18.0.1025.166 224 13
firefox14.0.1 16 16
chrome15.0.864.0 2 2
firefox35.0 16 16
safari7.2.1.0 76 2
chrome26.0.1410.65 3 3
chrome44.0.2403.133 2906 92
opera12.16 1039 21
chrome17.0.963.65 3 3
chrome10.0.649.0 2 2
chrome13.0.782.215 4 4
firefox9.0.1 1 1
msie6.0 76 75
lg\- 616 13
firefox38.0 455 17
chrome10.0.648.133 2 2
firefox11.0 9 9
firefox18.0 4 4
chrome42.0.2311.152 61 3
chrome34.0.1847.137 11 11
chrome18.0.1025.308 756 39
chrome44.0.2403.157 8905 352
opera12.15 1 1
chrome42.0.2311.90 375 8
firefox36.0 8 8
chrome43.0.2357.93 1551 61
chrome13.0.782.41 3 3
safari6.0 2 2
chrome21.0.1180.83 1 1
END_BROWSER

# Screen size - Hits
BEGIN_SCREENSIZE 0
END_SCREENSIZE

# Unknown referer OS - Last visit date
BEGIN_UNKNOWNREFERER 29
Feedfetcher-Google;_(_http://www.google.com/feedfetcher.html;_1_subscribers;_feed-id=17210911081176051355) 20150831210147
Mozilla/5.0_(compatible;_evc-batch/2.0) 20150805043845
Mozilla/5.0_(PlayBook;_U;_RIM_Tablet_OS_2.1.0;_en-US)_AppleWebKit/536.2__(KHTML,_like_Gecko)_Version/7.2.1.0_Safari/536.2_ 20150822171519
Mozilla/5.0_(compatible;_Google-Site-Verification/1.0) 20150806031803
AddThis.com_(http://support.addthis.com/) 20150830130712
Opera/9.80_(MAUI_Runtime;_Opera_Mini/4.4.31998/37.6334;_U;_es)_Presto/2.12.423_Version/12.16 20150830093412
Google_favicon 20150827131549
VB-Tec:INET 20150814083529
LibreOffice 20150805190813
Mozilla/5.0_() 20150809131411
LWP::Simple/6.00_libwww-perl/6.08 20150823211301
Feedfetcher-Google;_(_http://www.google.com/feedfetcher.html;_1_subscribers;_feed-id=9213715099056081262) 20150831205443
NokiaC2-01/5.0_(11.20)_Profile/MIDP-2.1_Configuration/CLDC-1.1_Mozilla/5.0_AppleWebKit/420__(KHTML,_like_Gecko)_Safari/420_ 20150801100813
Mozilla/5.0_(BB10;_Touch)_AppleWebKit/537.35__(KHTML,_like_Gecko)_Version/10.3.1.2576_Mobile_Safari/537.35_ 20150824185822
nutch-1.4/Nutch-1.4 20150802135910
LWP::Simple/5.827_libwww-perl/5.833 20150824041136
Mozilla/4.0_(compatible;) 20150825085223
Mozilla/5.0_(Android;_Mobile;_rv:39.0)_Gecko/39.0_Firefox/39.0 20150824044129
Opera/9.80_(Android;_Opera_Mini/7.6.40234/37.6334;_U;_es)_Presto/2.12.423_Version/12.16 20150827115304
Mozilla/5.0_(compatible;_Genieo/1.0_http://www.genieo.com/webfilter.html) 20150822144548
Opera/9.80_(MAUI_Runtime;_Opera_Mini/4.4.34272/37.6283;_U;_es)_Presto/2.12.423_Version/12.16 20150817210120
Mozilla/5.0_(en-us)_AppleWebKit/534.14_(KHTML,_like_Gecko;_Google_Wireless_Transcoder)_Chrome/9.0.597_Safari/534.14 20150828113443
aboutthedomain 20150822071514
Mnogosearch-3.1.21 20150822042925
Opera/9.80_(Android;_Opera_Mini/10.0.1884/37.6334;_U;_es)_Presto/2.12.423_Version/12.16 20150829112451
Feedfetcher-Google;_(_http://www.google.com/feedfetcher.html;_1_subscribers;_feed-id=5223073339734004264) 20150831224657
NerdyBot 20150831100257
Opera/9.80_(Android;_Opera_Mini/7.5.33361/37.6116;_U;_es)_Presto/2.12.423_Version/12.16 20150802204017
'firefox 20150804024751
END_UNKNOWNREFERER

# Unknown referer Browser - Last visit date
BEGIN_UNKNOWNREFERERBROWSER 13
AddThis.com_(http://support.addthis.com/) 20150830130712
Feedfetcher-Google;_(_http://www.google.com/feedfetcher.html;_1_subscribers;_feed-id=17210911081176051355) 20150831210147
nutch-1.4/Nutch-1.4 20150802135910
'firefox 20150804024751
Java/1.7.0_85 20150804060012
Feedfetcher-Google;_(_http://www.google.com/feedfetcher.html;_1_subscribers;_feed-id=9213715099056081262) 20150831205443
NerdyBot 20150831100257
LibreOffice 20150805190813
Feedfetcher-Google;_(_http://www.google.com/feedfetcher.html;_1_subscribers;_feed-id=5223073339734004264) 20150831224657
VB-Tec:INET 20150814083529
Google_favicon 20150827131549
Mnogosearch-3.1.21 20150822042925
aboutthedomain 20150822071514
END_UNKNOWNREFERERBROWSER

# Origin - Pages - Hits 
BEGIN_ORIGIN 6
From0 2829 3727
From1 0 0
From2 973 1916
From3 118 118
From4 2538 72093
From5 0 0
END_ORIGIN

# Search engine referers ID - Pages - Hits
BEGIN_SEREFERRALS 5
ask 7 7
bing 6 6
yahoo 4 4
yandex 4 4
google 952 1895
END_SEREFERRALS

# External page referers - Pages - Hits
# The 25 first Pages must be first (order not required for others)
BEGIN_PAGEREFS 43
http://success-seo.com/try.php 46 46
http://buttons-for-website.com 12 12
https://www.facebook.com 7 7
http://video--production.com 6 6
https://www.facebook.com 6 6
http://l.facebook.com/lsr.php 2 2
http://www1.ask-tb.com/search/GGmain.jhtml 2 2
http://videos-for-your-business.com 2 2
http://www.paidverts.com/member/paid_ads_view_2780597262.html 1 1
http://www.paidverts.com/member/paid_ads_view_2780771707.html 1 1
http://www.paidverts.com/member/paid_ads_view_2781470562.html 1 1
http://m.facebook.com 1 1
http://REDUCTAN-BG.ORG 1 1
http://www.paidverts.com/member/paid_ads_view_2781034277.html 1 1
http://www.paidverts.com/member/paid_ads_view_2780623252.html 1 1
http://www.hostingned.net/clients/admin/clientsservices.php 1 1
http://www.paidverts.com/member/paid_ads_view_2780927882.html 1 1
http://hundejo.com 1 1
http://www.paidverts.com/member/paid_ads_view_2780610337.html 1 1
http://www.paidverts.com/member/paid_ads_view_2781135597.html 1 1
http://www.paidverts.com/member/paid_ads_view_2781892437.html 1 1
http://www.paidverts.com/member/paid_ads_view_2780928397.html 1 1
http://hostingned.com/stream/index.php/nuestros-clientes/radios 1 1
http://www.paidverts.com/member/paid_ads_view_2780609607.html 1 1
http://www.paidverts.com/member/paid_ads_view_2781729267.html 1 1
http://www.paidverts.com/member/paid_ads_view_2780174052.html 1 1
http://www.paidverts.com/member/paid_ads_view_2781441977.html 1 1
http://lm.facebook.com/lsr.php 1 1
http://www.paidverts.com/member/paid_ads_view_2780995772.html 1 1
http://burger-imperia.com 1 1
http://www.paidverts.com/member/paid_ads_view_2780789382.html 1 1
http://m.facebook.com 1 1
http://www.paidverts.com/member/paid_ads_view_2780665782.html 1 1
http://hvd-store.com 1 1
http://pizza-imperia.com 1 1
http://www.paidverts.com/member/paid_ads_view_2779905717.html 1 1
http://www.paidverts.com/member/paid_ads_view_2781341302.html 1 1
http://www.paidverts.com/member/paid_ads_view_2781329767.html 1 1
http://www.paidverts.com/member/paid_ads_view_2780589737.html 1 1
http://www.paidverts.com/member/paid_ads_view_2780457487.html 1 1
http://www.paidverts.com/member/paid_ads_view_2781990532.html 1 1
http://view.contextualyield.com/scjs/tb/ctxjs/topBar.php 1 1
http://www.paidverts.com/member/paid_ads_view_2780169742.html 1 1
END_PAGEREFS

# Search keyphrases - Number of search
# The 10 first number of search must be first (order not required for others)
BEGIN_SEARCHWORDS 69
cepeniel.org 38
centro+evangelistico+peniel 11
cepeniel 9
iglesia+peniel 7
ciudad+online 7
iglesia+peniel+valencia 6
peniel 4
centro+peniel 4
congreso+de+la+peniel+2015 4
iglesia+peniel+de+valencia+horario+la+que+queda+cerca+el+cuerpo+de+bomberos 4
peniel+iglesia+que+horario+los+domingo 3
oracion+por+mi+amado+pastor 2
www.cepeniel.org 2
peticiones+de+oracion 2
peniel+valencia 2
concilio+evangelistico+misionero+internacional+peniel 2
iglesia+peniel+valencia+venezuela 2
iglesia+peniel+av.+las+ferias 2
cepeniel+org+ve 2
ciudad+oonline 2
jose+hernandez+iglesia+peniel+valencia 2
origen+del+centro+de+estudios+peniel 1
centro+evangelisto+iglesia+pe%c3%b1iel+5k+de+marathon 1
iglessia+peniel+venesuela 1
iglesia+peniel+maracay 1
m%c3%a9todo+evangelist%c3%adco+con+los+10+mandamientos 1
complejo+evangelistico+peniel+campana 1
cepeniel+rss 1
predicas+iglesia+peniel 1
centro+cristiano+evangelico+misionero+peniel 1
nombres+de+evangelismo 1
complejo+peniel+predica+de+domingo 1
psicologo+alvaro+rea 1
iglesia+peniel+guayaquil 1
en+que+fecha+se+fundo+el+centro+de+estudio+peniel 1
planilla+del+concilio+evangelistico+peniel 1
pedro+alos+corintios+el+amor+inmutable 1
horario+de+iglesia+penil 1
consejos+de+alvaro+rea 1
http+//www.cepeniel.org/index.php%3foption%3dcom_content%26view%3darticle%26id%3d1+conocenos%26catid%3d2+informacion%26itemid%3d103 1
calabozo+venezuela+centro+evangelistico 1
apostata+ali+pacheco 1
leyes+del+matrimonio 1
dias+de+servicio+en+la+iglesia+peniel 1
iglesia+peniel+iglesia+de+la+ciudad 1
horarios+del+complejo+evangelistico+peniel 1
peniel+complejo+en+vivo+en+campana 1
cuando+se+fund%c3%b3+centro+de+estudio+peniel 1
http+//www.cepeniel.org/ 1
iglesia+buenas+nuevas+pastor+alvaro 1
pastor+jose+hernandez 1
peniel+complejo+en+vivo 1
servicios+de+la+iglesia+peniel+en+valencia 1
cepenielorg 1
desde+este+d%c3%ada+comenzar%c3%a9+a+engrandecer+te+delante+de+los+ojos+de+tus+hermanos 1
centro+evangelistico+peniel+venezuela 1
oracionporvivienda 1
predicas+en+el+centro+evangelistico+peniel+guayaquil 1
complejo+peniel+campana+en+vivo 1
youtube+complejo+evangelistico+peniel+culto+en+vivo 1
ciudad+on+line 1
iglesia+peniel+av.+las+ferias+mapa 1
en+vivo+complejo+envagelistico 1
psicologos+de+las+buenas+nuevas+del+este 1
tripartita+jesus 1
iglesia+profeti+peniel 1
radio+on+line+cep 1
origen+de+centro+de+estudios+peniel 1
complejo+evangelistico+peniel 1
END_SEARCHWORDS

# Search keywords - Number of search
# The 25 first number of search must be first (order not required for others)
BEGIN_KEYWORDS 127
peniel 78
cepeniel.org 38
iglesia 38
de 30
centro 24
evangelistico 21
valencia 17
cepeniel 12
la 11
ciudad 11
en 10
complejo 9
que 8
horario 8
el 7
online 7
vivo 5
los 5
del 5
cuerpo 4
2015 4
queda 4
venezuela 4
domingo 4
pastor 4
guayaquil 2
internacional 2
leyes 1
hernandez 3
alvaro 3
org 2
fecha 1
oracionporvivienda 1
//www.cepeniel.org/index.php%3foption%3dcom_content%26view%3darticle%26id%3d1 1
penil 1
origen 2
nuevas 2
pacheco 1
dias 1
pedro 1
mapa 1
estudios 2
informacion%26itemid%3d103 1
cristiano 1
ojos 1
tripartita 1
//www.cepeniel.org/ 1
cep 1
http 2
av. 3
hermanos 1
envagelistico 1
inmutable 1
delante 1
marathon 1
engrandecer 1
evangelismo 1
servicio 1
ali 1
maracay 1
fundo 1
horarios 1
matrimonio 1
line 2
jesus 1
www.cepeniel.org 2
campana 3
culto 1
oonline 2
rea 2
se 2
rss 1
pe%c3%b1iel 1
desde 1
concilio 3
amado 2
psicologo 1
congreso 4
oracion 4
evangelico 1
cepenielorg 1
predica 1
por 2
consejos 1
estudio 2
d%c3%ada 1
ve 2
comenzar%c3%a9 1
alos 1
conocenos%26catid%3d2 1
m%c3%a9todo 1
iglessia 1
mandamientos 1
predicas 2
a 1
servicios 1
planilla 1
10 1
corintios 1
nombres 1
tus 1
buenas 2
5k 1
cerca 4
misionero 3
evangelist%c3%adco 1
con 1
radio 1
ferias 3
amor 1
youtube 1
bomberos 4
fund%c3%b3 1
evangelisto 1
apostata 1
calabozo 1
venesuela 1
te 1
psicologos 1
cuando 1
jose 3
las 4
peticiones 2
este 2
profeti 1
on 2
mi 2
END_KEYWORDS

# Errors - Hits - Bandwidth
BEGIN_ERRORS 8
404 1438 1021220
406 20 280
416 1 686
503 2 1258
500 2186 13832
301 8 4936
206 458 21626501
303 17670 2271
END_ERRORS

# URL with 404 errors - Hits - Last URL referrer
BEGIN_SIDER_404 457
/system/Login.aspx 1 -
/common/common.js 1 -
/fckeditor.js 1 -
/wcm/ 1 -
/wp-admin/admin-ajax.php 5 -
/images/hwem.css 1 -
/images/stories/xxu.php 2 -
/images/inc.php 1 -
/Admin/Common/HelpLinks.xml 1 -
/function.require 1 -
/ckeditor/ckfinder/ckfinder.html 1 -
/m/index.php 1 -
/tpl/login/user/images/login_bg_1.jpg 1 -
/images/acoleceptes.jpg 1 -
/administrator/www./www. 1 -
//images/jdownloads/screenshots/has.php.j 5 -
/modules/mod_sexycontactform/mod_sexycontactform.xml 1 http://www.cepeniel.org/modules/mod_sexycontactform/mod_sexycontactform.xml
/utility/convert/index.php 1 -
/fengoffice/readme.txt 5 -
//admin.php 1 -
/jxcms/ 1 -
/admin/includes/ 1 -
/admin 1 -
/common/help/images/helplogo_zh.gif 1 -
/metinfo/ 1 -
/espiral//index.php 1 -
/Error.aspx 1 -
/feng/readme.txt 5 -
/whir_system/login.aspx 1 -
/API/DW/Dwplugin/ThirdPartyTags/SiteFactory.xml 1 -
//images/jdownloads/screenshots/flashgallery.php.j 5 -
/includes/general.js 1 -
//images/jdownloads/screenshots/roin.php.j 5 -
/admin/wp-login.php 3 -
/phpmyadmin/ 1 -
/admin/SouthidcEditor/Dialog/dialog.js 1 -
/API/DW/Dwplugin/TemplateManage/save_template.htm 1 -
/stylesheet.css 1 -
/function.require-once 1 -
/new_gb/help/images/usage/3.3.gif 1 -
/administrator/components/com_redmystic/chart/php-ofc-library/ofc_upload_image.php 1 http://www.cepeniel.org/administrator/components/com_redmystic/chart/php-ofc-library/ofc_upload_image.php
//images/jdownloads/screenshots/cool.php.j 5 -
/kesion/ 1 -
/components/com_community/jomsocial_rule.xml 1 -
/2011/plugins/system/rokbox/themes/mynxx/ 1 -
//images/jdownloads/screenshots/m.libs.up.php.j 5 -
/manager/status 2 -
/lang/en.js 1 -
/admin/SouthidcEditor/ewebeditor.asp 1 -
/archive/archive.css 1 -
//images/jdownloads/screenshots/petx.php.j 5 -
/includes/ckfinder/ckfinder.html 1 -
/fckeditor/fckeditor.js 1 -
/wp-includes/SimplePie/theme-options.php 1 -
/tmp/.jindex.php 1 -
/core_main/editor/editor/filemanager/connectors/uploadtest.html 1 http://www.cepeniel.org/core_main/editor/editor/filemanager/connectors/uploadtest.html
/mail/ 3 -
/ecshop/ 1 -
/plugins/anchor/anchor.js 1 -
/wp-admin/ 3 -
/mall/ 2 -
/README.md 1 -
/console/include/not_login.htm 1 -
/editor/ 3 -
/web2/login_template/1.files/Logo1.jpg 1 -
/admin/inc/xml.xslt 1 -
/guatemala/wp-admin/admin-ajax.php 1 -
/tmp/xmlrpc.php 1 -
/e/master/login.aspx 1 -
/examples/readonly.html 1 -
/system/ 2 -
/eWebEditor/ 1 -
/phpwind/ 1 -
/coremail/ 1 -
/wp-admin/includes/image-import.php 1 http://www.cepeniel.org/wp-admin/includes/image-import.php
/manage/ 2 -
/portal//index.php 1 -
/xmlrpc.php 2 http://cepeniel.org/xmlrpc.php
/admin/login.aspx 1 -
/app/images/login/logo.png 1 -
/espiral/wp-admin/admin-ajax.php 1 -
/tools/rss.aspx 1 -
/images/login/eyoumail.gif 1 -
/webedit/ 1 -
/max-templates/classic/styles/app.css 1 -
/%7B%22auto_hd%22:false,%22autoplay_reason%22:%22unknown%22,%22default_hd%22:true,%22disable_native_controls%22:false,%22inline_player%22:false,%22pixel_ratio%22:1,%22preload%22:false,%22start_muted%22:false,%22video_data%22:[%7B%22hd_src%22:%22https:%5C/% 5 -
/bbs/ 3 -
//images/stories/xxu.php 1 -
/plugins/editors/tinymce/jscripts/tiny_mce/plugins/tinybrowser/upload.php 1 http://cepeniel.org/
/docs.css 1 -
/tmp/a.php 1 -
/ids/admin/login.jsp 1 -
/wp-content 1 -
/ycportal/webpublish/module.main 1 -
/fckeditor/editor/js/fckeditorcode_ie.js 2 -
/view=register 1 -
/modules/wp-login.php 3 -
/readme.html 1 -
/nyet.gif 20 -
/license.txt 1 -
/FCKeditor/editor/filemanager/connectors/test.html 4 -
/auth/login 2 -
/component/users/ 1 http://www.cepeniel.org/component/users/
/wp-content/plugins/dzs-videogallery/admin/upload.php 1 -
//images/jdownloads/screenshots/libs.up.php.j 5 -
/helpnew/faq/faq_simple_zh_CN.jsp 1 -
/adminsoft/templates/images/login_bg_top.jpg 1 -
/Template/Default/Skin/user/images/login_back.jpg 1 -
/administrator/components/com_jinc/classes/graphics/php-ofc-library/ofc_upload_image.php 1 http://www.cepeniel.org/administrator/components/com_jinc/classes/graphics/php-ofc-library/ofc_upload_image.php
/media/wp-login.php 3 -
/default/images/logo.gif 1 -
/includes/ckeditor/ckfinder/ckfinder.html 1 -
/member/space/company/info.txt 1 -
/administrator/components/com_extplorer/style/style.css 1 -
/templates/wp-login.php 3 -
/fckeditor/editor/filemanager/connectors/uploadtest.html 2 http://www.cepeniel.org/fckeditor/editor/filemanager/connectors/uploadtest.html
/phpmyadmin/docs.css 1 -
/system/language/zh-cn.xml 1 -
/images/sampledata/themes.php 1 -
/extman/default/images/logo.gif 2 -
/site/wp-login.php 3 -
/history.txt 1 -
/portal//wp-admin/admin-ajax.php 1 -
/images/zh-CN/logo.ico 1 -
/este/wp-admin/admin-ajax.php 1 -
/images/BiogenFarma/defines.php 1 -
/images/branding/logo.gif 1 -
/doku.php 1 -
/fckeditor/_samples/asp/sample01.asp 1 http://www.cepeniel.org/fckeditor/_samples/asp/sample01.asp
/2011/images/stories/francis.png 4 -
/components/wp-login.php 3 -
/admin-console 1 -
/libs/ 1 -
/index.php%3Foption%3Dcom_content%26view%3Dfeatured 1 -
/manager/html 1 -
/components/com_contushdvideoshare/js/commentappend.js 1 -
/oecms/ 1 -
/tmp/index_old.php 1 -
/admin/js/IdSUtil.js 1 -
/License.txt 3 -
/plus/heightsearch.php 1 -
/bbs/convert/index.php 1 -
/images/Grufarma/xml.php 1 -
/extern.php 1 -
/CuteSoft_Client/CuteEditor/Help/default.htm 1 -
/images/stories/user.php 1 -
/cgi-mod/header_logo.cgi 1 -
/cepenielorg/videos/943897178986115/ 19 http://www.cepeniel.org/
/images/pestanasotc/plugin.php 1 -
/plus/sitemap.html 1 -
/console/js/CWCMDialogHead.js 1 -
/help/ch_gb/images/help-title.gif 1 -
/animali//index.php 1 -
/ckfinder/ckfinder.html 1 -
/images/presentacion/Ayuno%20Banner%20Ago%202014.jpg 1 http://www.cepeniel.org/index.php
/cms/wp-login.php 3 -
/images/xxu.php 6 -
/animali/wp-admin/admin-ajax.php 1 -
/component/user/register 2 -
/administrator/wp-login.php 3 -
/wordpress/ 1 -
/wp/wp-login.php 3 -
/images/x.php 7 -
/guatemala//wp-admin/admin-ajax.php 1 -
/modules/mod_articless/mod_articless.php 1 -
/fckeditor/editor/dtd/fck_dtd_test.html 1 -
/app/images/login/toplogo.gif 1 -
/guatemala//index.php 1 -
/admin/ 3 -
/examples/index.html 1 -
/cli/wp-login.php 3 -
/wp-content/plugins/revslider/js/settings.js 1 -
/%edit_profile_url% 1 http://www.cepeniel.org/
/lazycms/ 1 -
/components/com_acymailing/inc/openflash/php-ofc-library/ofc_upload_image.php 1 http://www.cepeniel.org/components/com_acymailing/inc/openflash/php-ofc-library/ofc_upload_image.php
/discuz/ 2 -
/includes/ckeditor/ckfinder/install.txt 1 -
//images/stories/3xp.php 16 -
/wp-login.php 15 -
/cmseasy/ 1 -
/language/wp-login.php 3 -
/administrator/components/com_jnewsletter/includes/openflashchart/php-ofc-library/ofc_upload_image.php 2 http://www.cepeniel.org/administrator/components/com_jnewsletter/includes/openflashchart/php-ofc-library/ofc_upload_image.php
/inc/Templates/rss.xslt 1 -
/images/login-page.gif 1 -
/plus/rssmap.html 1 -
/install/index.php 1 -
//modules/mod_creativecontactform/mod_creativecontactform.xml 1 http://www.cepeniel.org//modules/mod_creativecontactform/mod_creativecontactform.xml
/components/com_community/index.html 5 -
/app/js/source/wcmlib/WCMConstants.js 1 -
/dialog/dialog.js 1 -
/includes/fckeditor/editor/filemanager/connectors/uploadtest.html 1 http://www.cepeniel.org/includes/fckeditor/editor/filemanager/connectors/uploadtest.html
/files/filebox/File/fileUpload.Html 1 http://www.cepeniel.org/files/filebox/File/fileUpload.Html
/common/help/images/helplogo.gif 1 -
/includes/wp-login.php 3 -
/cepenielorg/videos/916171071758726/ 1 -
/component/k2/ 1 -
/statics/ 1 -
/message_for_oss.pdf 1 -
/UserCenter/css/admin/bgimg/admin_all_bg.png 1 -
/plugins/system/plugin_googlemap2/plugin_googlemap2_proxy.php 9 -
/administrator/components/com_xcloner-backupandrestore/ 1 -
/leadbbs/ 1 -
/wp-login/ 3 -
/siteserver/upgrade/default.aspx 1 -
/admin/start/index.php 1 -
/images/jdownloads/screenshots/nyet.gif 5 -
/Editor/editor/filemanager/connectors/test.html 4 -
/images/wp-login.php 3 -
/admin/template/article_more/config.htm 1 -
/js/ajax_x.js 1 -
/login/Jeecms.do 1 -
//images/stories/x.php 1 -
/deptWebsiteAction.do 1 -
/whir_system/module/security/login.aspx 1 -
/Admin/Images/LoginImages/admin_text.gif 1 -
/ch/ 1 -
/themes/default/default.css 1 -
/wp-admin/wp-login.php 3 -
/wp-content/uploads/gravity_forms/_input_1_.php5 1 -
/component/k2/itemlist/user/210.html 1 -
/kindeditor.js 1 -
/console/js/CTRSRequestParam.js 1 -
/includes/ckfinder/install.txt 1 -
/dvbbs/ 1 -
/wp-content/plugins/showbiz/js/admin.js 1 -
/Editor.js 1 -
/zblog/ 1 -
/changelog.txt 1 -
/kingcms/ 1 -
/Admin/fCKeditor/editor/filemanager/connectors/test.html 4 -
/images/stories/dir.php 1 -
/wp/ 1 -
//images/xxu.php 29 -
/examples/file-manager.html 1 -
/skin/frontend/default/modern/css/styles.css 1 -
/images/zh-CN/winisp.gif 1 -
/addons/theme/stv2/_static/ts2/layout.css 1 -
//images/stories/0d4y.php 16 -
/Admin/Images/LoginImages/admin_top.gif 1 -
/administrator/components/com_simplephotogallery/simplephotogallery.xml 1 -
/wordpress/wp-login.php 3 -
/editor/js/fckeditorcode_ie.js 1 -
/User/Login.aspx 1 -
//images/jdownloads/screenshots/gelo.php.j 5 -
/coremail/common/help/images/helplogo.gif 2 -
/images/login/logo.gif 1 -
/section/wp-login.php 3 -
/images/login/icon-up.gif 1 -
/Images/login/mainlogo.gif 1 -
/wp-cron.php 1 -
/dede/ 1 -
/kindeditor-min.js 1 -
/Images/login/biaoti.jpg 1 -
/este//wp-admin/admin-ajax.php 1 -
/tpl/user/tpl1/css/skins/blue.css 1 -
/images/login_03.gif 1 -
/siteserver/login.aspx 1 -
/jcms/index_jcms.jsp 1 -
/components/index.inc.php 19 -
/alimail/ 1 -
/admin.php 7 -
/ckfinder/install.txt 1 -
/template/home.htm 1 -
/app/login.jsp 1 -
/install/templates/main_page/stylesheet.css 2 -
/admin/eWebEditor/ 1 -
/archiver 3 -
/issmall 1 -
/coremail/common/help/images/helplogo_zh.gif 2 -
/components/com_foxcontact/lib/file-uploader.php 1 -
//images/jdownloads/screenshots/libs.php.j 10 -
/administrator/components/com_maian15/charts/php-ofc-library/ofc_upload_image.php 1 http://www.cepeniel.org/administrator/components/com_maian15/charts/php-ofc-library/ofc_upload_image.php
/kindeditor/ 1 -
/apple-touch-icon-precomposed.png 140 -
//images/x.php 1 -
/tmp/wp-login.php 3 -
/administrator/components/com_civicrm/civicrm/packages/OpenFlashChart/php-ofc-library/ofc_upload_image.php 1 http://www.cepeniel.org/administrator/components/com_civicrm/civicrm/packages/OpenFlashChart/php-ofc-library/ofc_upload_image.php
//images/jdownloads/screenshots/imc.php.j 5 -
//images/jdownloads/screenshots/1.php.j 5 -
/API/DW/Dwplugin/TemplateManage/login_site.htm 1 -
/Help 1 -
/CuteSoft_Client/CuteEditor/Images/log.gif 1 -
//images/jdownloads/screenshots/jalang.php.j 5 -
//images/jdownloads/screenshots/index.php.j 5 -
/addons/theme/stv1/_static/ts2/layout.css 1 -
/installation/wp-login.php 3 -
/user 1 -
/master/login.aspx 1 -
/js/buttons.js 1 -
/system/skins/default/system.login.htm 1 -
/CuteSoft_Client/CuteEditor/ImageEditor/listfiles.aspx 1 -
/ymail/images/index_r1_c4.jpg 1 -
/images/xx.php 1 -
/administrator/components/com_jnews/includes/openflashchart/php-ofc-library/ofc_upload_image.php 1 http://www.cepeniel.org/administrator/components/com_jnews/includes/openflashchart/php-ofc-library/ofc_upload_image.php
/templates/webcore_beginning/css/template.css 16 http://www.cepeniel.org/index.php
//plugins/editors/tinymce/jscripts/tiny_mce/plugins/tinybrowser/upload.php 1 -
/animali//wp-admin/admin-ajax.php 1 -
/bencandy.php 1 -
/ids/admin/userhome/forgetPwd.jsp 1 -
/js/fckeditor/editor/filemanager/connectors/uploadtest.html 1 http://www.cepeniel.org/js/fckeditor/editor/filemanager/connectors/uploadtest.html
/modules/mod_ariimageslidersa/mod_ariimageslidersa.php 1 -
/fckeditor/fckconfig.js 1 -
/6kbbs/ 1 -
/tmp/sfx.php 1 -
//wp-admin/admin-ajax.php 5 -
/Search.html 1 -
/old/wp-admin/ 3 -
/lib/fckeditor/editor/filemanager/connectors/uploadtest.html 1 http://www.cepeniel.org/lib/fckeditor/editor/filemanager/connectors/uploadtest.html
/previous.html 6 -
/espiral//wp-admin/admin-ajax.php 1 -
/2011/index.php 26 -
/modules/mod_araticlws/mod_araticlws.php 2 -
/ewebeditor/ 1 -
/fangmail/ 1 -
/user/ 1 -
/install/ 2 -
/components/com_jdownloads/jdownloads.js 1 -
/rss.aspx 1 -
/images/phocadownload/file.php 1 -
/eweb/ 1 -
/administrator/components/com_jinc/config.xml 1 -
/admin/fckeditor/editor/filemanager/connectors/uploadtest.html 1 http://www.cepeniel.org/admin/fckeditor/editor/filemanager/connectors/uploadtest.html
/cepenielorg/videos/943897178986115 1 -
/verycms/ 1 -
/plugins/wp-login.php 3 -
/FCK/editor/js/fckeditorcode_ie.js 1 -
/digg.php 1 -
/portal/wp-admin/admin-ajax.php 1 -
/licence.txt 1 -
/shop/ 3 -
/forum/ 3 -
/asp.net/README.txt 1 -
/administrator/components/com_creativecontactform/creativecontactform.xml 1 http://www.cepeniel.org/administrator/components/com_creativecontactform/creativecontactform.xml
/assets/fckeditor/editor/filemanager/connectors/uploadtest.html 1 http://www.cepeniel.org/assets/fckeditor/editor/filemanager/connectors/uploadtest.html
/stories/xxu.php 1 -
/wp/wp-admin/ 3 -
/components/com_maianmedia/utilities/charts/php-ofc-library/ofc_upload_image.php 1 http://www.cepeniel.org/components/com_maianmedia/utilities/charts/php-ofc-library/ofc_upload_image.php
/m 2 -
/foosun/ 1 -
/admin/SouthidcEditor/ButtonImage/standard/componentmenu.gif 1 -
/Install/logo.gif 1 -
/Fckeditor/editor/filemanager/browser/default/connectors/test.html 4 -
/plugins/fckeditor/editor/filemanager/connectors/uploadtest.html 1 http://www.cepeniel.org/plugins/fckeditor/editor/filemanager/connectors/uploadtest.html
/API/DW/Dwplugin/TemplateManage/manage_site.htm 1 -
/inc/rsd.php 1 -
/addons/fckeditor/editor/filemanager/connectors/uploadtest.html 1 http://www.cepeniel.org/addons/fckeditor/editor/filemanager/connectors/uploadtest.html
/logs/wp-login.php 3 -
/maxcms/ 1 -
/office/readme.txt 5 -
/app/home/skins/default/style.css 1 -
/readme.txt 5 -
/images/powered_by.gif 1 -
/admin/fckeditor/editor/filemanager/connectors/test.html 1 http://www.cepeniel.org/admin/fckeditor/editor/filemanager/connectors/test.html
/wp-admin/wp-admin.css 1 -
/shops/ 2 -
/drupal/ 1 -
/empirecms/ 1 -
/files/fckeditor/editor/filemanager/connectors/uploadtest.html 1 http://www.cepeniel.org/files/fckeditor/editor/filemanager/connectors/uploadtest.html
/cgi/index.cgi 1 -
/libraries/wp-login.php 3 -
/modules/mod_araticlhess/mod_araticlhess.php 2 -
/CuteSoft_Client/CuteEditor/Style/IE.css 1 -
/KEdit/ 1 -
/Admin/Login.aspx 1 -
/x.php 4 -
/next/img/logo.gif 1 -
/cms/ 3 -
/install 1 -
/extmail/ 1 -
/convert/index.php 1 -
/Prompt/images/P_Wrong.gif 1 -
/weblog/ 3 -
/plug/publish 1 -
/api/api_user.xml 1 -
/zcms/ 1 -
/archiver/ 1 -
/default/css/em_css.css 1 -
/images/pestanasotc/sql.php 1 -
/index.php 189 -
/plugins/filemanager/filemanager/js 1 -
/wp-includes/js/tinymce/tiny_mce_popup.js 1 -
/list.php 1 -
/fckeditor/editor/filemanager/browser/default/connectors/test.html 2 http://www.cepeniel.org/fckeditor/editor/filemanager/browser/default/connectors/test.html
/administrator/components/com_acymailing/inc/openflash/php-ofc-library/ofc_upload_image.php 1 http://www.cepeniel.org/administrator/components/com_acymailing/inc/openflash/php-ofc-library/ofc_upload_image.php
/admin/fckeditor/editor/filemanager/browser/default/connectors/test.html 1 http://www.cepeniel.org/admin/fckeditor/editor/filemanager/browser/default/connectors/test.html
/ckeditor/ckeditor.js 1 -
/catalog/install/templates/main_page/stylesheet.css 2 -
/Editor/editor/filemanager/browser/default/connectors/test.html 4 -
/includes/xml.php 1 http://cepeniel.org/includes/xml.php
/phpcms/ 1 -
/tmp/JoomFish_2.1.7/test.php 1 -
/images/presentacion/Banner%20VIIICECI.jpg 4 http://www.cepeniel.org/index.php
/cache/wp-login.php 3 -
/tmp/j.php 1 -
/apple-touch-icon.png 113 -
/dedecms/ 1 -
/plug// 1 -
/ckeditor/samples/plugins/htmlwriter/outputhtml.html 1 http://www.cepeniel.org/ckeditor/samples/plugins/htmlwriter/outputhtml.html
/automne/fckeditor/editor/filemanager/connectors/uploadtest.html 1 http://www.cepeniel.org/automne/fckeditor/editor/filemanager/connectors/uploadtest.html
/blog/ 3 -
/images/.jindex.php 1 -
/images/banners/logocep3.png 6 -
/images/default/post_bt.gif 1 -
/clientscript/vbulletin_ajax_htmlloader.js 1 -
/components/com_hdflvplayer/hdflvplayer/download.php 1 http://www.cepeniel.org/components/com_hdflvplayer/hdflvplayer/download.php
/data/admin/ver.txt 1 -
/phpbb/ 1 -
/maintlogin.jsp 1 -
/docs/ 1 -
/ckeditor/ckfinder/install.txt 1 -
/files.php 19 -
/apps/admin/_static/image/login_box_bg.png 1 -
/images/pestanasotc/article.php 1 -
/component/k2/itemlist/user/210 1 -
/index.cgi 1 -
/ycportal/js/wbTextBox/showimg.jsp 1 -
/API/DW/Dwplugin/SystemLabel/SiteConfig.htm 1 -
/ 16 -
/%7B%22auto_hd%22:false,%22autoplay_reason%22:%22unknown%22,%22default_hd%22:true,%22disable_native_controls%22:true,%22inline_player%22:false,%22pixel_ratio%22:1,%22preload%22:false,%22start_muted%22:false,%22video_data%22:[%7B%22hd_src%22:%22https:%5C/%5 6 -
/este//index.php 1 -
/images/2_11.gif 1 -
/images/stories/x.php 2 -
/inc/fckeditor/editor/filemanager/connectors/uploadtest.html 1 http://www.cepeniel.org/inc/fckeditor/editor/filemanager/connectors/uploadtest.html
/editor/filemanager/browser/default/connectors/test.html 1 http://www.cepeniel.org/editor/filemanager/browser/default/connectors/test.html
/2011/images/stories/esther.png 4 -
/editor/dtd/ 2 -
/rss.php 2 -
/components/com_jnews/includes/openflashchart/php-ofc-library/ofc_upload_image.php 1 http://www.cepeniel.org/components/com_jnews/includes/openflashchart/php-ofc-library/ofc_upload_image.php
/bbs/utility/convert/index.php 1 -
/images/stories/story.php 1 -
/FCK/fckeditor.js 1 -
/bbsmax/ 1 -
/Images/login/lefttu.jpg 1 -
/test/wp-admin/ 3 -
/blog/wp-login.php 4 -
/xxu.php 3 -
/inc/playerKinds.xml 1 -
/console/auth/reg_newuser.jsp 1 -
/eshop/ 3 -
//images/stories/0day.php 16 -
/wordpress/wp-admin/ 2 -
/feed.asp 1 -
/CHANGELOG.txt 1 -
/admin/index.php 1 -
/images/login9/login_33.jpg 1 -
//index.php 34 -
/jcms/index.jsp 1 -
/aspcms/ 1 -
/web-console 1 -
/fluxbb/ 1 -
/Ntalker/lawfirm.aspx 1 -
/blog/xmlrpc.php 1 -
/shop/install/templates/main_page/stylesheet.css 2 -
/myluph.php 19 -
/fckeditor/license.txt 1 -
/blog/wp-admin/ 3 -
/Admin/fckeditor/editor/filemanager/browser/default/connectors/test.html 4 -
END_SIDER_404
