AWSTATS DATA FILE 7.4 (build 20140726)
# If you remove this file, all statistics for date 201605 will be lost/reset.
# Last config file used to build this data file was /home/cepeniel/tmp/awstats/awstats.cepeniel.org.conf.

# Position (offset in bytes) in this file for beginning of each section for
# direct I/O access. If you made changes somewhere in this file, you should
# also remove completely the MAP section (AWStats will rewrite it at next
# update).
BEGIN_MAP 28
POS_GENERAL 2009                
POS_TIME 2712                
POS_VISITOR 3940                
POS_DAY 29473               
POS_DOMAIN 30409               
POS_LOGIN 31280               
POS_ROBOT 31435               
POS_WORMS 32259               
POS_EMAILSENDER 32390               
POS_EMAILRECEIVER 32533               
POS_SESSION 32609               
POS_SIDER 32823               
POS_FILETYPES 34324               
POS_DOWNLOADS 34580               
POS_OS 34628               
POS_BROWSER 35088               
POS_SCREENSIZE 38918               
POS_UNKNOWNREFERER 38992               
POS_UNKNOWNREFERERBROWSER 41032               
POS_ORIGIN 41888               
POS_SEREFERRALS 42036               
POS_PAGEREFS 42233               
POS_SEARCHWORDS 42768               
POS_KEYWORDS 43678               
POS_MISC 2374                
POS_ERRORS 44351               
POS_CLUSTER 31136               
POS_SIDER_404 44523               
END_MAP

# LastLine    = Date of last record processed - Last record line number in last log - Last record offset in last log - Last record signature value
# FirstTime   = Date of first visit for history file
# LastTime    = Date of last visit for history file
# LastUpdate  = Date of last update - Nb of parsed records - Nb of parsed old records - Nb of parsed new records - Nb of parsed corrupted - Nb of parsed dropped
# TotalVisits = Number of visits
# TotalUnique = Number of unique visitors
# MonthHostsKnown   = Number of hosts known
# MonthHostsUnKnown = Number of hosts unknown
BEGIN_GENERAL 8
LastLine 20160601000036 1501630 386519119 10879867754659
FirstTime 20160501000355
LastTime 20160531234230
LastUpdate 20170608094454 1501630 0 1500617 1011 1
TotalVisits 1359                
TotalUnique 567                 
MonthHostsKnown 0                   
MonthHostsUnknown 648                 
END_GENERAL

# Misc ID - Pages - Hits - Bandwidth
BEGIN_MISC 10
PDFSupport 0 0 0
WindowsMediaPlayerSupport 0 0 0
DirectorSupport 0 0 0
FlashSupport 0 0 0
QuickTimeSupport 0 0 0
JavaEnabled 0 0 0
RealPlayerSupport 0 0 0
TotalMisc 0 0 0
AddToFavourites 0 336 0
JavascriptDisabled 0 0 0
END_MISC

# Hour - Pages - Hits - Bandwidth - Not viewed Pages - Not viewed Hits - Not viewed Bandwidth
BEGIN_TIME 24
0 70 489 5988948 1493 1523 13729451
1 53 53 725931 2051 2081 17483494
2 104 192 2286722 2546 2567 22756441
3 62 72 495142 2642 2752 22355851
4 37 416 6388768 3474 3596 39019345
5 134 740 12458368 1823 1860 17026253
6 266 1487 22196540 2448 2499 21029447
7 381 3331 47706760 2220 2296 22292826
8 432 4477 69163936 2431 2539 21928269
9 408 3553 44939165 1815 1922 16948314
10 270 1988 25965494 2824 2913 35695721
11 111 1461 21376495 2829 2890 26281367
12 231 1684 25815963 2073 2179 19140515
13 367 1403 17187052 1484 1554 14503000
14 91 1262 17030288 2504 2602 24552145
15 183 1693 21484836 1556 1623 13533502
16 176 1349 20729329 2079 2163 20594859
17 85 1215 16580710 1429 1474 13298993
18 229 1436 17493322 2990 3088 28089831
19 122 1489 21205616 3372 3434 38801162
20 350 2519 35712309 3683 3906 36564515
21 264 1749 23183915 2578 2690 25311800
22 169 1167 13704516 2780 2932 30906839
23 228 915 11218974 3639 3696 34355802
END_TIME

# Host - Pages - Hits - Bandwidth - Last visit date - [Start date of last visit] - [Last page of last visit]
# [Start date of last visit] and [Last page of last visit] are saved only if session is not finished
# The 25 first Hits must be first (order not required for others)
BEGIN_VISITOR 648
136.243.36.68 403 403 3585106 20160508100837
177.92.38.191 255 255 767244 20160513133630
37.59.55.128 242 242 8588878 20160523060755
192.95.29.116 242 242 8588883 20160509083923
66.249.90.23 215 215 441827 20160527005140
177.188.19.26 215 215 647124 20160506071241
66.249.90.25 202 202 403012 20160526192054
66.249.90.27 200 200 397700 20160527010543
179.216.47.241 175 175 528483 20160512184701
212.7.217.50 156 156 263446 20160526115317
138.36.35.27 145 145 436914 20160520205745
187.181.226.62 88 88 265743 20160501225524
189.115.103.225 88 88 265743 20160507214445
201.77.71.108 87 87 262740 20160521204849
200.98.202.150 67 67 202680 20160505211133
201.47.198.129 52 52 157635 20160504234029
142.4.216.172 46 46 645353 20160521161448
85.93.89.74 46 46 646277 20160505024520
190.201.240.220 45 1728 14606758 20160526084036
177.92.57.228 35 35 106584 20160522164621
190.201.237.27 35 1093 16014764 20160531181219
190.200.230.35 30 220 2130339 20160503064848
201.249.48.30 29 137 2191734 20160525131929
95.181.182.105 26 26 43914 20160518123222
198.12.66.226 24 108 1466315 20160504175906
204.79.180.244 0 1 3571 
204.79.180.68 0 1 399 
190.39.93.116 1 1 9896 20160510134058
201.211.88.34 8 96 1328803 20160512192726
186.95.42.98 1 72 1243040 20160515074452
190.201.230.109 14 389 7636543 20160522083605
95.25.11.13 1 31 253927 20160502000840
89.163.237.45 1 1 9896 20160526150228
186.14.164.38 3 115 1770416 20160522120232
54.146.159.57 23 116 774668 20160518153806
77.230.28.155 1 54 659827 20160507044243
23.249.171.13 1 1 2099 20160510011204
77.247.181.163 2 2 19768 20160509164404
66.87.133.88 2 116 1254631 20160507165010
46.229.168.50 1 1 34706 20160512132040
85.25.198.199 4 4 138818 20160522222230
66.249.85.173 2 69 693625 20160522083719
190.60.43.10 3 3 101112 20160509152205
190.206.216.148 1 72 1243044 20160518115716
192.151.159.170 4 4 39580 20160526042911
152.168.223.138 1 72 1243040 20160509220314
93.81.0.208 10 10 332039 20160524235102
138.122.7.61 1 72 1243045 20160515080755
8.28.16.254 1 1 34705 20160520123435
66.249.88.13 1 1 9897 20160525071353
200.84.137.138 8 128 1468424 20160501104642
186.167.16.209 2 62 707189 20160510092157
107.172.203.49 1 1 9896 20160511072337
190.199.240.29 1 72 1243042 20160524075232
200.125.191.22 1 45 441336 20160524075254
204.79.180.97 0 1 80845 
186.95.215.9 2 78 1260941 20160501084232
181.29.214.141 1 72 1243044 20160522163511
68.171.247.195 1 7 169644 20160501205855
181.208.5.59 2 73 1252948 20160501203658
68.171.247.199 0 7 397692 
217.69.133.169 2 2 19795 20160521225322
66.249.84.162 1 1 1974 20160531153043
136.243.67.139 2 73 1252937 20160526180109
186.88.138.66 2 79 1284126 20160522075411
89.234.157.254 1 1 9872 20160506150735
204.79.180.199 0 1 406 
195.245.112.158 1 1 9874 20160507001539
190.199.193.223 1 72 1243020 20160506201029
96.8.122.230 1 1 9894 20160524025128
93.81.23.254 2 2 69556 20160508080031
204.79.180.253 0 1 3315 
178.150.15.194 4 4 114982 20160504180341
96.44.183.26 1 1 34704 20160515172102
204.79.180.106 0 1 399 
98.242.241.209 4 77 1403261 20160512094705
192.187.109.42 2 2 19793 20160510225833
97.103.94.162 2 62 709552 20160508082553
201.209.41.223 1 73 1246132 20160501054716
66.249.65.44 1 1 83433 20160516235823
66.192.165.33 1 72 1243044 20160523110523
190.203.80.10 1 70 1239384 20160508094528
190.199.246.35 1 72 1243043 20160513070852
190.39.95.2 1 72 1243050 20160502233817
200.93.48.143 6 201 2371222 20160517090736
204.79.180.48 0 1 752 
190.79.75.12 3 139 1958233 20160522095514
201.210.2.73 6 105 1610714 20160514051152
190.203.44.193 0 1 624 
144.76.71.83 5 5 93392 20160531234230
204.79.180.228 0 1 327 
204.79.180.35 0 1 0 
138.59.8.10 5 94 1542116 20160502115925
198.229.1.169 2 13 38944 20160517174847
201.234.229.151 1 15 67312 20160506140955
192.42.116.16 1 1 9891 20160520105620
190.206.13.27 2 144 2486081 20160515093159
186.90.105.155 1 15 67339 20160503130042
185.101.69.26 5 5 65044 20160505071648
131.253.26.239 0 15 98751 
177.220.182.254 2 2 8964 20160507174458
190.202.191.222 6 265 2021360 20160515091409
217.73.209.135 1 1 34676 20160507162146
66.248.199.137 1 1 9896 20160517143654
204.79.180.230 0 1 327 
186.14.162.103 2 60 705966 20160501082236
204.79.180.254 0 1 727 
187.133.64.80 1 61 697292 20160531194454
104.196.42.29 0 1 22393 
54.244.49.249 1 2 48683 20160515084545
190.199.244.64 1 61 697291 20160523200223
37.72.190.105 1 1 7015 20160520050545
62.210.152.84 4 4 138820 20160519064034
201.210.90.63 1 72 1243039 20160511121021
190.105.71.57 4 77 1409755 20160509184240
52.35.197.224 1 2 46280 20160517182532
204.79.180.139 0 1 393 
200.109.3.229 6 86 1366155 20160511150646
201.210.1.40 1 57 620262 20160505095228
201.248.6.38 1 72 1243044 20160518222318
177.40.24.198 1 1 4482 20160503021842
181.113.154.225 3 148 1469520 20160516123116
204.79.180.118 0 1 1847 
62.76.74.239 1 1 24576 20160506181951
204.79.180.164 1 1 12302 20160502052329
201.242.118.65 1 71 1194207 20160523134909
188.213.139.207 1 1 7013 20160523113826
62.201.125.85 1 61 697293 20160522072822
200.109.22.119 1 48 654587 20160524113513
190.202.1.10 4 93 995461 20160524092636
191.84.61.21 1 72 1243039 20160514231306
66.249.88.212 1 28 265234 20160513220146
178.32.187.54 2 2 17860 20160517060944
198.229.1.206 1 60 688104 20160511111544
46.229.170.197 4 4 138790 20160520144050
186.185.174.122 3 80 620652 20160505090616
188.40.112.210 4 4 159640 20160519154251
200.90.84.52 1 15 32379 20160515150213
190.202.190.18 14 106 1453349 20160504194319
131.253.26.248 0 15 145274 
190.36.241.74 1 72 1243018 20160506132136
204.79.180.6 0 1 46169 
186.95.78.21 2 73 1252894 20160508082247
186.167.250.150 12 100 1575596 20160509185127
190.199.239.228 1 72 1243043 20160518091124
200.109.19.69 1 43 652691 20160522064157
148.251.54.44 2 2 80331 20160516072121
190.202.179.164 1 72 1243041 20160526060112
176.10.104.240 1 1 9895 20160526150155
5.9.17.118 2 2 41791 20160526104154
190.142.253.87 1 72 1243019 20160508144815
190.199.214.132 3 74 1262893 20160501083446
78.46.156.169 4 4 128285 20160526104155
186.108.111.219 1 69 1238584 20160521125620
204.79.180.188 0 1 425 
181.103.213.5 1 72 1243040 20160510182529
54.205.33.168 1 1 34705 20160510235138
62.210.254.52 0 4 362802 
186.212.20.203 1 1 4482 20160521173934
186.93.248.55 1 31 372313 20160517205000
107.167.109.53 1 64 692024 20160512222705
220.181.51.104 1 1 9897 20160512191158
52.16.211.127 1 30 253504 20160508174317
66.249.88.57 15 119 811805 20160526094103
5.9.145.132 2 2 75869 20160526081518
37.130.227.133 1 1 9908 20160523110809
190.75.113.81 1 72 1243045 20160515094032
204.79.180.108 0 1 957 
190.211.100.85 1 57 682342 20160510152715
186.88.213.6 1 18 49690 20160509174255
62.102.148.67 1 1 9893 20160509164312
190.199.195.87 11 108 1525999 20160518140326
204.79.180.64 0 4 44777 
66.249.85.176 1 75 1110125 20160515085655
206.183.1.74 1 13 229222 20160520074117
195.154.146.225 3 3 29665 20160517215357
78.199.149.20 1 1 34705 20160522075954
190.76.250.29 1 56 679946 20160520052400
186.92.172.216 8 156 1474733 20160501091418
201.242.46.166 10 208 1710904 20160523092356
50.117.45.231 2 62 709548 20160508080258
186.149.41.211 2 65 832210 20160531215110
201.243.249.202 3 183 721830 20160508093843
190.207.160.21 1 55 739829 20160510120357
74.82.68.160 0 44 1053060 
54.144.4.3 1 1 34684 20160502230801
186.185.236.155 4 137 1338147 20160522092619
190.199.66.53 3 85 1320380 20160501200407
201.211.188.119 1 73 1246124 20160522093806
190.142.16.143 18 184 1803876 20160501110550
151.80.103.208 2 2 19789 20160524100943
190.204.131.38 1 72 1243041 20160516174529
64.74.215.113 2 2 0 20160517083010
204.79.180.84 0 1 2132 
204.79.180.16 0 1 1847 
93.81.12.168 1 1 34907 20160510223957
66.249.88.222 2 25 471073 20160513220202
190.142.138.46 1 72 1243042 20160517182307
109.163.234.5 1 30 253503 20160508173749
201.183.69.79 1 72 1243041 20160514102152
68.171.247.197 1 7 40849 20160504180508
104.196.136.20 0 1 1297 
190.142.17.248 2 143 1252111 20160526215917
186.167.243.51 8 112 1612881 20160524131123
201.210.65.112 5 78 1285080 20160509122354
190.203.66.206 1 61 676812 20160524154946
186.139.136.43 3 68 745424 20160526155144
201.209.196.124 1 44 644523 20160504181401
173.208.201.10 1 1 9898 20160525191405
200.93.44.248 2 22 146525 20160506203307
144.76.80.151 5 5 193382 20160510145754
201.249.12.11 1 72 1243043 20160520081413
190.78.188.113 2 73 1252953 20160501072311
186.185.173.42 7 96 1489921 20160515215132
186.185.162.165 2 2 91673 20160518131357
223.74.190.51 2 2 9556 20160513024923
190.202.186.87 15 94 1509571 20160522084152
54.159.127.242 1 1 31241 20160502230803
200.84.175.128 1 8 21127 20160501070203
14.177.59.235 4 4 15226 20160509072145
204.79.180.163 0 1 425 
201.234.236.118 1 19 71863 20160510110008
136.243.48.84 22 22 291362 20160506151132
66.249.88.35 12 132 1268197 20160526094128
186.95.199.49 2 73 1252939 20160515083926
190.39.147.87 1 44 644547 20160516084354
204.79.180.186 0 1 46169 
181.34.41.21 10 14 269036 20160501205753
200.8.167.3 1 57 585346 20160524134513
190.205.219.97 1 1 83432 20160522194223
200.109.251.116 1 72 1243045 20160531140052
149.202.206.195 1 1 9898 20160517083443
186.95.48.135 14 88 846415 20160509142215
200.90.80.124 2 73 1252938 20160515143103
66.249.90.61 3 3 6034 20160519220243
201.242.206.212 1 64 626451 20160513064007
190.205.248.175 3 3 11872 20160531150038
31.184.238.103 3 3 93786 20160516220910
186.89.127.157 18 117 1950398 20160515204950
204.79.180.132 0 1 3490 
190.217.2.102 1 72 1243042 20160520123436
201.210.9.73 1 59 629882 20160514095449
200.106.89.74 0 26 266391 
188.143.232.70 18 18 771918 20160511123442
186.167.248.140 2 79 1281378 20160525130958
190.37.32.43 5 90 1321227 20160526074646
142.4.215.116 1 1 34705 20160511030704
68.171.247.192 0 21 73174 
101.99.22.40 2 2 93056 20160512171605
66.249.91.79 2 2 3944 20160531191134
190.198.137.91 1 72 1243042 20160525184947
188.113.189.1 16 16 499620 20160525010957
190.39.109.155 1 72 1243018 20160504080259
62.210.162.209 1 1 9898 20160525100029
190.73.150.54 3 85 1327949 20160513215500
190.75.103.8 1 72 1243039 20160520213007
5.9.94.207 4 4 134644 20160525210032
62.210.37.82 1 1 9897 20160521225508
195.154.173.103 1 1 9899 20160531181943
62.210.215.109 19 19 1081471 20160525064806
181.165.161.3 2 75 1297971 20160502212828
190.216.236.174 3 145 2495973 20160525082151
201.209.97.180 8 225 3314923 20160522080625
194.150.168.95 1 1 9893 20160520105711
190.199.255.129 1 1 9897 20160523102916
68.171.247.196 0 4 0 
204.79.180.156 0 1 406 
204.79.180.73 0 1 961 
188.138.9.49 1 1 9896 20160517162025
66.249.83.72 5 54 725455 20160526083004
190.205.254.94 2 144 2486084 20160516053841
200.8.69.103 2 77 1317556 20160524210911
190.201.187.98 5 98 1359069 20160505205543
190.79.52.95 1 12 42356 20160512194150
110.168.6.32 1 1 9872 20160507080335
93.85.174.233 3 3 51120 20160503075931
190.79.147.57 1 72 1243044 20160510105536
186.89.118.143 2 122 1394597 20160501082440
200.109.3.190 13 110 1932592 20160519114547
107.167.106.204 1 1 1510 20160504060551
89.47.22.163 1 1 9898 20160512135858
68.171.247.205 0 41 547759 
109.248.32.239 1 1 26812 20160516135308
201.217.135.154 1 1 34705 20160518054212
201.210.95.51 2 63 709581 20160522181929
200.90.78.148 3 118 1429691 20160512174437
68.171.247.206 0 13 410270 
186.185.161.25 4 77 1470357 20160518073214
200.8.22.217 1 2 27418 20160521095548
189.217.178.35 3 88 1424276 20160523200017
158.69.225.34 12 12 570444 20160531124845
201.210.3.143 3 78 1335241 20160501151118
138.186.178.92 19 897 15048959 20160526202143
161.196.38.11 1 72 1243039 20160523164205
216.151.17.11 1 1 34705 20160512210246
5.9.112.6 4 4 79265 20160526081504
190.234.165.205 1 12 489646 20160510215414
50.59.57.211 2 79 1288933 20160512103511
204.79.180.57 0 1 2906 
190.205.192.55 1 72 1243038 20160515064030
190.77.21.93 1 20 137564 20160511140933
208.54.80.247 1 72 1243042 20160531142241
200.44.209.144 5 89 1320040 20160517074344
204.79.180.7 0 1 80845 
104.196.138.203 0 1 22393 
54.166.216.209 1 1 31241 20160502230803
66.249.84.161 1 1 1974 20160531150036
186.88.165.94 1 72 1243043 20160515091835
190.203.176.89 4 82 1463546 20160522203442
186.92.59.182 1 72 1243044 20160512205526
88.198.22.8 5 5 193382 20160510144630
186.185.168.149 1 66 780181 20160502101324
190.205.250.154 1 61 697293 20160515064706
181.66.114.20 0 11 81811 
201.209.107.190 1 72 1243048 20160501074913
200.90.85.106 16 117 1743858 20160519121514
201.249.8.118 6 90 1370562 20160522094242
204.79.180.181 0 1 3490 
190.75.116.220 2 75 1297952 20160522074536
204.79.180.92 0 1 502 
186.92.12.217 1 72 1243048 20160502123035
181.208.12.37 1 72 1243019 20160508083943
181.208.165.207 3 115 1328977 20160525214412
107.172.169.173 1 1 9875 20160508184816
190.206.0.243 9 99 1593525 20160501093641
103.203.209.90 1 70 1239404 20160515003135
204.79.180.80 0 1 570 
190.38.54.44 11 90 1648401 20160531133935
198.229.1.138 1 73 1246126 20160510135848
198.229.1.193 3 83 520113 20160515112021
190.226.78.12 1 72 1243042 20160525193454
68.171.247.202 0 5 261586 
186.24.41.130 0 27 0 
54.80.140.115 1 1 31241 20160502230803
204.79.180.177 0 1 1167 
190.201.35.163 3 82 1339042 20160515074805
104.196.21.104 0 1 888 
190.205.201.198 1 95 1890304 20160519104411
66.249.83.66 4 45 657764 20160531150035
77.59.131.225 3 3 121959 20160510051031
186.96.91.209 2 75 1376939 20160508184233
190.142.181.127 1 72 1243044 20160521044106
200.84.122.2 2 92 1367232 20160510171450
186.14.253.211 2 73 1252938 20160523194855
65.35.147.45 3 89 1345821 20160507020753
186.167.250.24 5 88 1321499 20160520144012
80.25.21.82 2 73 1373347 20160509041812
74.82.68.144 1 29 193068 20160515073540
66.176.221.200 1 72 1243044 20160510172938
201.249.20.222 2 79 1288946 20160513144120
188.240.132.224 1 1 9896 20160510224508
188.143.232.14 17 17 679440 20160512132902
140.117.150.103 4 4 78966 20160520182418
188.32.182.90 1 30 253536 20160503172751
201.210.16.167 12 171 2721153 20160516071931
181.225.58.56 2 68 704186 20160515200341
190.206.112.162 1 72 1243019 20160505104726
68.171.247.193 0 5 0 
189.115.111.80 23 23 70548 20160508125050
204.79.180.183 0 1 3211 
186.94.126.217 1 72 1243049 20160501095207
190.37.106.214 1 72 1243043 20160525203557
204.79.180.26 0 1 2132 
200.84.82.21 1 72 1243019 20160508073022
190.201.16.91 9 109 1617911 20160521152645
186.176.250.15 10 159 2951411 20160511000825
186.90.68.245 1 72 1243041 20160523091617
142.197.136.9 7 78 1571504 20160515083239
190.191.97.215 1 72 1243041 20160522092555
104.196.35.206 0 1 1269 
200.44.216.81 1 57 511263 20160523101653
201.211.109.50 2 127 1726786 20160522073526
117.211.151.29 2 2 7485 20160531160217
144.76.224.111 1 1 9897 20160512120413
51.255.202.66 1 1 9872 20160508025216
89.47.239.119 1 1 7963 20160525090542
204.79.180.214 0 1 333 
181.17.124.49 1 57 683141 20160514203022
217.30.207.223 15 15 464506 20160507163507
107.167.106.175 1 1 1510 20160526133900
162.250.123.81 2 2 19802 20160501135442
177.96.92.47 22 22 67545 20160524191816
198.229.1.137 1 72 1243049 20160501074739
178.137.93.24 1 1 34705 20160517165220
200.84.114.154 1 72 1243039 20160510183253
190.205.244.155 1 72 1243055 20160518085736
186.185.105.198 1 30 343113 20160512223628
190.205.238.74 2 112 1178135 20160515085928
204.79.180.147 0 1 0 
181.210.24.218 1 52 612597 20160526152047
204.79.180.150 0 1 36385 
186.91.221.235 2 72 1186019 20160516211359
190.239.148.163 1 38 599441 20160521235745
190.219.109.74 4 64 734224 20160501090105
201.210.80.55 2 7 27795 20160519095648
66.249.91.76 4 4 8004 20160531154739
181.114.125.152 3 81 1292979 20160506133822
204.79.180.55 0 1 3211 
190.203.43.192 2 144 2486065 20160515075209
204.69.221.1 4 4 0 20160524072702
89.32.195.102 1 1 7013 20160516214820
110.171.227.189 1 1 9896 20160516062724
151.80.41.241 5 5 49483 20160516074601
69.84.207.246 13 13 406105 20160524071920
190.202.165.48 1 30 253531 20160531213645
201.209.178.220 1 7 171686 20160526142415
201.243.152.170 1 71 1218993 20160507205327
195.154.56.44 3 3 29697 20160523110436
204.79.180.241 0 2 6859 
200.8.163.96 13 121 1739524 20160509141631
204.79.180.225 0 1 2906 
23.27.45.111 1 1 12277 20160508083408
212.227.63.234 1 1 9892 20160526190143
213.61.149.100 1 1 9895 20160516073547
204.79.180.43 0 1 1427 
186.14.184.221 1 57 687768 20160505075956
201.208.62.206 2 74 1294934 20160516082525
179.178.100.36 23 23 70548 20160509180928
185.100.86.69 1 1 9897 20160517162115
181.170.18.32 1 71 1242217 20160511192940
52.40.119.132 1 1 9894 20160520160215
198.27.80.144 1 1 34705 20160525011138
190.3.149.68 2 73 1252934 20160522191254
200.0.187.2 1 61 697291 20160518171112
161.10.129.235 1 61 697291 20160524201653
109.110.70.169 2 2 15876 20160505010019
200.44.80.107 1 72 1243013 20160508052155
87.238.192.149 3 3 190259 20160521161430
204.79.180.110 1 1 9899 20160502000444
197.231.221.211 3 3 29668 20160516143802
186.185.253.1 1 61 826098 20160520110425
190.200.244.38 3 79 825008 20160508085334
204.79.180.124 0 1 36385 
104.196.104.62 0 1 888 
45.32.129.1 2 2 69410 20160523054319
190.77.228.10 1 70 1239413 20160502201627
189.217.200.168 1 57 387541 20160519224129
190.201.240.65 1 72 1243046 20160501213934
187.22.27.210 3 147 1386872 20160527001849
74.208.229.58 4 4 39491 20160508055015
144.76.153.198 4 4 79752 20160522182652
38.100.21.67 2 11 125783 20160506073622
190.199.227.87 1 72 1243042 20160510150438
190.201.46.107 1 55 739819 20160501190728
177.237.160.246 1 72 1243042 20160525200245
190.199.210.86 3 63 721890 20160515101101
86.122.244.157 1 1 9894 20160524124956
187.221.139.60 4 122 1406348 20160519215849
190.36.215.137 1 14 64421 20160512171127
188.143.232.72 1 1 14020 20160512191854
186.91.126.132 1 2 27418 20160515094928
5.9.106.81 8 8 261187 20160525210046
190.199.230.84 1 46 663412 20160512083822
95.211.174.70 2 74 1222727 20160512111314
190.199.255.55 3 77 1334612 20160515073635
66.249.91.73 6 6 11948 20160531220813
136.243.17.161 3 3 36593 20160524202521
190.205.98.52 2 73 1252948 20160501085150
81.248.27.204 1 1 9897 20160513213934
69.58.178.57 12 12 557506 20160502231916
201.208.17.140 6 92 1490657 20160509115457
204.79.180.227 0 1 1529 
190.207.90.161 1 7 171686 20160519104720
99.113.84.34 1 72 1243043 20160511162410
200.84.149.117 2 63 743576 20160515075526
181.14.133.83 3 88 1318017 20160522165441
190.74.193.218 1 72 1243044 20160524145853
190.205.98.135 4 93 1467210 20160501090731
190.205.201.181 3 24 104106 20160501204229
201.243.212.114 1 72 1243043 20160509162558
181.1.30.27 3 85 1144837 20160524161557
93.159.230.90 2 82 872916 20160521202911
181.176.41.243 1 49 490211 20160507103044
85.222.44.46 2 2 17813 20160504081625
190.236.254.250 0 6 88999 
185.7.215.95 4 4 65655 20160505083731
5.79.68.161 1 1 9895 20160525014420
93.84.61.176 4 4 111815 20160503222309
190.206.4.191 6 99 1718782 20160503115326
201.208.161.72 1 25 140205 20160512173932
186.93.130.8 1 55 683288 20160525180932
190.205.230.71 4 85 1307430 20160520203925
181.91.41.90 1 1 9513 20160526174649
54.198.65.151 1 1 31241 20160502230803
190.198.49.19 1 31 287127 20160521104336
190.199.251.229 4 92 1439780 20160531213505
85.26.128.252 1 1 34705 20160518202131
178.32.53.94 1 1 9894 20160518222950
190.198.220.23 14 199 3359566 20160518113549
200.44.92.160 3 10 90700 20160508072332
190.153.71.89 2 144 1252941 20160522091654
45.32.129.200 2 2 69410 20160525203319
190.142.30.252 4 91 1382467 20160508094359
201.249.21.133 3 74 1262835 20160520091827
213.239.205.118 6 6 298168 20160508154850
201.249.18.138 2 73 1252938 20160516102908
190.76.43.95 1 28 249543 20160522153625
68.171.247.200 0 7 118437 
68.171.247.198 0 2 1338 
190.205.116.9 2 37 365824 20160516142200
66.249.88.46 16 129 1056988 20160526085941
66.87.120.178 1 54 659831 20160517235654
186.141.197.35 1 72 1243040 20160521173428
181.208.166.29 1 70 1239418 20160517205820
185.101.69.53 3 3 95294 20160502221154
68.171.247.207 1 3 40863 20160501210032
66.249.90.57 1 1 1974 20160509121725
186.185.26.189 2 122 1394588 20160515075513
201.211.100.170 1 72 1243043 20160526194702
190.203.79.62 7 94 1405395 20160501101803
204.79.180.50 0 1 2260 
190.202.24.162 1 52 656194 20160514110008
204.79.180.122 0 1 570 
188.143.232.19 1 1 44091 20160507233032
70.194.76.249 1 72 1243043 20160524173701
204.79.180.184 0 1 961 
201.210.79.122 3 74 1262821 20160519130345
77.218.253.116 1 72 1243043 20160514192021
189.115.75.74 10 10 31509 20160520182536
93.81.23.183 2 2 69579 20160504005552
200.11.208.125 1 61 772417 20160523085712
190.202.1.227 1 58 684474 20160518114858
190.105.101.137 2 79 1288931 20160503163231
181.136.63.192 2 79 1284139 20160513104312
204.79.180.196 0 1 639 
131.253.36.203 1 1 9895 20160525154027
200.44.214.22 20 120 1808534 20160513123938
200.109.4.59 3 76 1386892 20160515082348
190.10.150.210 1 72 1243042 20160509154256
200.109.21.13 1 72 1243044 20160518103045
204.79.180.44 0 1 3315 
66.249.90.63 4 4 7952 20160523041742
177.233.1.138 1 52 612604 20160518100915
186.92.110.209 1 60 688315 20160503131413
186.188.160.186 2 100 1492570 20160525154720
190.200.246.93 1 72 1243049 20160501070819
200.49.206.193 1 72 1243041 20160519215032
190.206.124.88 1 72 727116 20160501081140
190.79.92.105 7 88 1344365 20160501092637
186.95.59.144 1 72 1243040 20160525102138
190.142.22.215 2 62 709589 20160509081751
193.106.31.49 3 3 95288 20160503232832
181.202.247.107 1 7 171686 20160518040751
181.95.17.204 1 72 1243044 20160514191948
190.77.232.207 1 44 644553 20160501170410
190.78.249.138 2 73 1252894 20160505211230
186.24.11.165 1 72 1731220 20160526073723
66.249.90.62 3 3 5970 20160523031647
186.92.137.192 2 73 1373346 20160518220917
188.143.232.35 1 1 30306 20160506205823
117.78.13.18 1 1 9871 20160506032426
190.31.64.149 4 88 1054252 20160520133644
190.199.191.87 1 72 1243042 20160511083819
186.88.7.187 1 1 9898 20160523192931
108.188.169.189 3 73 1046242 20160501081620
186.92.81.0 2 65 789289 20160515091335
200.106.36.208 0 17 316193 
103.238.212.98 3 3 101505 20160522032916
190.72.19.40 5 92 1533895 20160526223601
204.79.180.39 0 2 1760 
201.211.81.56 1 1 9903 20160502113238
24.232.114.237 2 75 1376936 20160508122830
93.115.95.207 1 1 9898 20160511070822
200.44.212.38 2 142 2482448 20160515085720
190.237.183.121 1 72 1243043 20160509082519
204.79.180.234 0 1 2365 
186.241.59.69 3 76 1460343 20160504102304
188.143.232.43 18 18 717008 20160512115702
186.89.94.82 3 81 1509989 20160508232826
77.247.181.165 1 1 9898 20160525014536
186.89.101.196 3 50 441383 20160522090059
66.249.88.217 2 22 148312 20160508202327
68.171.247.203 1 11 98548 20160504170440
190.194.195.104 1 57 687955 20160517063900
190.198.209.129 0 1 624 
200.44.88.147 1 61 697305 20160510070751
190.199.254.152 2 73 1252939 20160523122352
190.206.104.170 1 72 1243044 20160531205644
95.17.129.213 1 66 1231456 20160516004701
181.113.153.9 7 7 69268 20160511095042
193.90.12.86 1 1 9901 20160502000517
186.185.197.137 1 31 343681 20160515092450
203.234.19.63 1 1 34706 20160520203023
204.79.180.133 0 1 38985 
204.79.180.52 0 2 4817 
190.204.234.126 8 84 1561624 20160517202037
186.26.115.242 2 75 1376933 20160504144454
68.171.247.201 0 10 279082 
186.94.113.81 1 72 1243038 20160510200124
85.248.227.164 1 1 9897 20160511071041
181.34.38.8 7 80 1348958 20160501204520
93.115.95.204 1 1 9896 20160514151400
200.84.141.125 5 86 1359077 20160501081446
190.75.147.29 1 3 47785 20160506113037
204.79.180.131 0 1 639 
179.178.98.59 22 22 67545 20160523025615
186.167.248.172 3 77 1427268 20160511180451
186.185.29.99 2 64 709543 20160508082937
200.120.205.248 1 73 1243666 20160519114511
94.176.232.13 4 4 31146 20160516212803
178.18.17.204 1 1 9871 20160505003048
190.203.71.201 2 76 1284482 20160517195710
190.199.240.96 2 74 1253517 20160508082228
181.113.153.54 3 87 1422246 20160521193249
201.248.156.81 1 70 1239409 20160514153147
188.163.110.120 1 1 4482 20160515231436
190.206.23.82 6 307 4034736 20160505103211
190.198.221.198 2 79 1284141 20160501081521
186.185.200.160 2 122 1394584 20160522082146
178.32.52.73 3 3 94341 20160523115817
190.200.161.115 1 72 1243042 20160512214908
5.167.64.18 1 72 1243048 20160501105703
190.198.225.232 1 27 203362 20160511045937
190.202.27.204 3 60 702947 20160520115449
66.249.83.69 4 49 588821 20160531153043
190.73.145.39 1 72 1243016 20160508183458
201.227.226.151 2 64 724766 20160511044909
190.204.41.134 2 72 1293493 20160509150624
190.204.193.176 1 60 688107 20160525134533
190.206.29.221 1 72 1243047 20160502111335
190.205.251.94 2 143 2243698 20160512203309
104.196.7.193 0 1 1297 
175.230.219.178 1 1 34706 20160526013456
73.22.72.104 18 385 1779773 20160531232834
186.185.165.130 1 60 688295 20160502095926
138.186.178.95 3 216 3729130 20160511204129
186.103.197.114 6 141 900884 20160504061304
186.32.142.147 1 62 902448 20160505114041
186.95.2.203 9 105 1379933 20160515095248
204.79.180.66 0 1 3426 
201.249.18.48 1 61 697273 20160508080344
186.143.197.154 1 64 856971 20160512191059
176.226.183.111 4 4 34705 20160517211258
190.189.208.199 5 89 1702208 20160531152039
190.200.246.140 6 93 1463265 20160501094531
181.208.164.244 3 77 1267137 20160508083007
190.200.229.247 2 73 1120490 20160505133235
190.203.242.67 2 77 1221341 20160524224917
190.142.80.165 2 62 709592 20160515084103
186.92.156.121 10 295 1746766 20160525154346
204.79.180.18 0 1 393 
66.249.85.170 2 68 1409821 20160522085302
128.153.145.125 2 2 19762 20160518222742
37.1.201.19 1 1 9896 20160513005700
188.143.232.22 1 1 30907 20160505031434
62.210.152.90 5 5 140778 20160517124128
74.208.47.52 2 2 19795 20160531122021
178.137.87.242 1 1 34705 20160513224552
END_VISITOR

# Date - Pages - Hits - Bandwidth - Visits
BEGIN_DAY 28
20160501 263 3369 45310744 73
20160502 73 854 12538077 48
20160503 91 626 7732792 46
20160504 143 893 10204747 36
20160505 183 1181 15579029 40
20160506 290 605 5747510 45
20160507 168 709 8577001 46
20160508 530 2414 31897745 66
20160509 366 1370 25738762 45
20160510 154 1292 17822185 59
20160511 80 908 14587874 44
20160512 188 1144 16408198 46
20160513 320 848 9246576 40
20160514 48 736 11505979 37
20160515 155 3456 48971019 74
20160516 93 1187 16559133 53
20160517 91 905 12481792 56
20160518 126 1139 15486274 49
20160519 92 970 12365884 46
20160520 231 1019 13363185 49
20160521 192 799 10846249 42
20160522 165 2414 34581771 73
20160523 345 1448 24899907 52
20160524 126 1557 20829247 55
20160525 131 1778 24669310 53
20160526 88 1167 16588027 54
20160527 6 150 1392846 3
20160531 85 1202 15107236 29
END_DAY

# Domain - Pages - Hits - Bandwidth
# The 25 first Pages must be first (order not required for others)
BEGIN_DOMAIN 41
br 1317 1534 6813728
ve 909 22935 323633824
us 893 3709 38387564
de 544 615 8019809
ca 308 519 13569356
fr 294 298 10663799
nl 169 241 1718992
ru 139 349 6355449
ar 50 1958 31692066
cr 37 1479 25165714
ua 28 28 774440
ec 15 386 5447117
mx 11 452 5771103
ro 10 39 332197
vn 9 9 209787
cl 8 221 2316236
it 8 8 103948
pa 8 228 2951560
co 7 204 2779833
by 7 7 162935
vg 4 4 33820
tw 4 4 78966
pe 4 231 3575735
cn 4 4 29324
es 4 193 3264630
hu 1 61 697293
hn 2 114 1515045
se 2 73 1252936
th 2 2 19768
sk 1 1 9897
pl 2 2 17813
kr 2 2 69412
uy 1 1 34705
ee 1 1 7015
gb 2 2 19782
no 1 1 9901
in 3 72 1246889
do 2 65 832210
bo 3 81 1292979
ch 4 4 131854
lr 3 3 29668
END_DOMAIN

# Cluster ID - Pages - Hits - Bandwidth
BEGIN_CLUSTER 0
END_CLUSTER

# Login - Pages - Hits - Bandwidth - Last visit
# The 10 first Pages must be first (order not required for others)
BEGIN_LOGIN 0
END_LOGIN

# Robot ID - Hits - Bandwidth - Last visit - Hits on robots.txt
# The 25 first Hits must be first (order not required for others)
BEGIN_ROBOT 17
bot[\s_+:,\.\;\/\\-] 33859 349372589 20160531212249 510
robot 15662 148561175 20160531233705 18
googlebot 4347 41827211 20160531235315 52
crawl 1033 9712218 20160526211411 11
bingpreview 362 4528355 20160526042806 0
no_user_agent 222 1515592 20160531152214 4
slurp 148 1001834 20160531232939 49
spider 140 1398227 20160529045253 23
googlebot\-image 137 8025835 20160531235401 0
google[_+\s]web[_+\s]preview 72 1243049 20160501204330 0
unknown 28 16434 20160531150034 28
php 14 2153299 20160531210259 0
msnbot\-media 11 103149 20160525214208 0
ia_archiver 5 346151 20160519080336 2
[\s_+:,\.\;\/\\-]bot 4 16370 20160531142904 1
netcraft 1 34704 20160510121933 0
curl 1 34705 20160511194152 0
END_ROBOT

# Worm ID - Hits - Bandwidth - Last visit
# The 5 first Hits must be first (order not required for others)
BEGIN_WORMS 0
END_WORMS

# EMail - Hits - Bandwidth - Last visit
# The 20 first Hits must be first (order not required for others)
BEGIN_EMAILSENDER 0
END_EMAILSENDER

# EMail - Hits - Bandwidth - Last visit
# The 20 first hits must be first (order not required for others)
BEGIN_EMAILRECEIVER 0
END_EMAILRECEIVER

# Session range - Number of visits
BEGIN_SESSION 7
15mn-30mn 51
2mn-5mn 44
1h+ 13
5mn-15mn 74
30mn-1h 68
0s-30s 1041
30s-2mn 68
END_SESSION

# URL - Pages - Bandwidth - Entry - Exit
# The 25 first Pages must be first (order not required for others)
BEGIN_SIDER 28
/index.php 2636 46607957 803 902
/administrator/index.php 1417 4219767 46 102
/ 635 7686925 454 349
/administrator/ 97 201073 56 2
/index.php/login 6 208143 0 0
/index.php/using-joomla/extensions/components/users-component/registration-form 4 138762 0 1
/index.php/component/users/profile 2 17786 0 0
/index.php/register 2 69381 0 0
/index.php/using-joomla/extensions/components/users-component/login-form 2 69381 0 0
/index.php/component/user/register 2 19772 0 2
/index.php/log-out 2 69381 0 0
/index.php/login-form 2 69381 0 0
/google276bd62fdd7ea648.html 1 53 0 0
/media/editors/tinymce/jscripts/tiny_mce/plugins/advimage/image.htm 1 2909 0 0
/index.php/registration/registers 1 9871 0 0
/index.php/blog/item/add/ 1 1385 0 0
/media/editors/tinymce/jscripts/tiny_mce/themes/advanced/color_picker.htm 1 1189 0 0
/index.php/component/user/register.html 1 9871 0 0
/index.php/component/jambook/ 1 9867 0 0
/index.php/component/k2/item/add/ 1 8894 0 0
/modules/mod_bt_login/ajax.php 1 21 0 0
/index.php/guestbook/ 1 9866 0 1
/index.php/joomla/other-components/registration-form 1 9871 0 0
/index.php/sign-in/profile 1 8894 0 0
/plugins/content/extravote/assets/ajax.php 1 26 0 0
/index.php/component/k2/itemlist/user/ 1 9867 0 0
/media/editors/tinymce/jscripts/tiny_mce/plugins/advlink/link.htm 1 3165 0 0
/media/editors/tinymce/jscripts/tiny_mce/plugins/style/props.htm 1 5091 0 0
END_SIDER

# Files type - Hits - Bandwidth - Bandwidth without compression - Bandwidth after compression
BEGIN_FILETYPES 9
gif 1193 1683783 0 0
css 8045 11252377 0 0
php 4055 50827771 0 0
htm 4 12354 0 0
js 5948 96852226 0 0
Unknown 25 690623 0 0
html 739 7937801 0 0
jpg 2675 106017185 0 0
png 13456 225764979 0 0
END_FILETYPES

# Downloads - Hits - Bandwidth
BEGIN_DOWNLOADS 0
END_DOWNLOADS

# OS ID - Hits
BEGIN_OS ID - Hits - Pages 27
win2003 13 4
j2me 64 1
blackberry 104 3
winnt 4254 1451
Unknown 1398 1117
bsdfreebsd 4 4
win98 2 2
linuxandroid 6601 252
winxp 3496 288
linux 570 145
ios_ipad 89 5
macosx8 8 8
winlong 405 30
macosx7 87 14
linuxubuntu 263 263
linuxsuse 2 2
win7 14277 975
winphone 72 1
macosx5 6 6
macosx 228 11
ios_iphone 1035 31
macosx9 30 1
winunknown 1 1
win8.1 2662 136
macosx6 23 23
unix 149 7
win8 297 42
END_OS

# Browser ID - Hits - Pages
BEGIN_BROWSER 182
chrome38.0.1025.166 72 1
iphone 72 1
chrome17.0.963.56 4 4
chrome14.0.794.0 2 2
chrome48.0.2564.116 9 9
chrome12.0.706.0 2 2
chrome46.0.2480.0 86 7
alcatel 64 1
firefox24.0 1 1
firefox41.0 1 1
chrome26.0.1410.43 8 1
opera35.0.2066.37 6 6
chrome28.0.1500.94 137 10
chrome49.0.2623.108 78 5
chrome11.0.696.71 2 2
chrome12.0.742.100 7 7
firefox29.0 309 8
chrome13.0.782.20 6 6
firefox34.0 5 5
chrome28.0.1500.71 2 2
msie10.0 144 44
chrome15.0.860.0 2 2
firefox43.0 9 9
safari6.0.2 1 1
chrome10.0.648.134 2 2
chrome30.0.1599.101 32 3
firefox8.0 236 6
chrome36.0.1985.97 1 1
chrome10.0.648.127 2 2
msie9.0 268 57
chrome27.0.1453.93 3 3
chrome11.0.699.0 4 4
chrome30.0.0.0 352 13
chrome10.0.648.204 8 8
chrome12.0.702.0 2 2
firefox21.0 13 13
chrome47.0.2526.83 160 9
firefox3.6.13 96 27
chrome44.0.2403.155 72 1
opera36.0.2130.32 1 1
firefox13.0 2 2
safari10.3.2.2888 72 1
firefox4.0 119 18
safari5.1.7 1 1
chrome15.0.874.54 2 2
chrome11.0.696.43 6 6
msie7.0 167 18
chrome40.0.2214.93 4 4
safari6.1.6 77 4
chrome41.0.2228.0 36 29
chrome34.0.1847.76 204 5
chrome51.0.2683.0 95 16
chrome11.0.696.34 1 1
firefox32.0 1 1
firefox12.0 2 2
chrome27.0.1453.94 1 1
chrome13.0.782.43 2 2
chrome17.0.963.66 2 2
chrome24.0.1312.70 2 2
chrome46.0.2490.86 179 16
chrome41.0.2272.96 72 2
chrome50.4.2661.78 113 7
chrome47.0.2526.106 108 24
chrome40.0.2214.109 293 9
chrome11.0.678.0 2 2
firefox19.0 1 1
chrome36.0.1985.125 2 2
chrome51.0.2704.28 72 3
chrome14.0.814.0 2 2
firefox15.0.1 1 1
samsung 79 6
chrome14.0.813.0 10 10
chrome49.0.2623.87 151 4
chrome44.0.2403.125 51 27
chrome10.0.626.0 2 2
firefox3.5 2 2
Unknown 1081 1081
firefox25.0 77 6
chrome14.0.810.0 6 6
chrome50.0.2661.89 1724 76
chrome50.0.2661.87 182 11
chrome13.0.766.0 6 6
firefox17.0 3 3
chrome14.0.804.0 2 2
chrome49.0.2623.75 7 7
wap 13 1
msie8.0 113 3
safari5.1 94 6
opera10.00 1 1
chrome11.0.696.0 2 2
msie6.0 63 61
opera37.0.2178.43 86 4
firefox40.1 31 31
chrome17.0.963.65 6 6
firefox14.0.1 15 15
safari6.0.3 1 1
chrome18.0.1025.11 2 2
chrome17.0.1025.133 1 1
firefox3.5.0 1 1
firefox46.0 1810 73
chrome27.0.1453.116 1 1
chrome13.0.782.41 10 10
chrome11.0.660.0 2 2
chrome45.0.2454.101 60 1
chrome42.0.2311.152 1 1
chrome19.0.1063.0 2 2
chrome51.0.2704.63 55 1
firefox13.0.1 1 1
chrome30.0.1599.114 30 1
chrome13.0.782.1 2 2
chrome39.0.2171.99 1 1
chrome37.0.2062.120 25 25
safari7.1.0.398 30 1
chrome39.0.2171.95 1 1
chrome12.0.742.105 2 2
chrome19.0.1042.0 2 2
firefox45.0 546 23
chrome1578.0.1578.133 2 2
chrome30.0.1599.66 19 19
chrome27.0.1453.90 1 1
firefox28.0 3 3
chrome19.0.1041.0 2 2
chrome48.0.2564.109 11 11
chrome12.0.703.0 2 2
mozilla 1486 1354
firefox33.0 1 1
chrome47.0.2526.111 1 1
chrome12.0.724.100 4 4
android 1882 67
firefox44.0 76 6
chrome34.0.1847.116 6 6
chrome12.0.742.112 249 249
opera34.0.2036.50 4 4
chrome11.0.661.0 6 6
firefox3.6.12 1 1
chrome50.0.2661.75 2 1
safari9.1 76 3
chrome45.0.2454.93 1 1
chrome12.0.742.53 2 2
chrome14.0.811.0 2 2
firefox42.0 4 4
chrome14.0.803.0 4 4
firefox5.0 2 2
chrome48.0.2564.97 3 3
chrome19.0.1036.7 2 2
safari9.0 630 25
chrome40.0.2214.115 2 2
chrome49.0.2623.105 547 14
firefox31.0 58 1
firefox22.0 2 2
chrome5.0.371.0 49 1
firefox30.0 6 6
chrome13.0.764.0 2 2
chrome11.0.669.0 2 2
msie11.0 879 19
blackberry 1 1
chrome49.0.2623.112 4388 179
libwww 2 2
safari6.0.0.285 73 1
chrome48.0.2564.95 819 32
firefox47.0 70 1
chrome23.0.1271.97 1 1
chrome50.0.2661.102 8379 274
chrome11.0.672.2 3 3
chrome50.0.2661.94 4986 198
firefox38.0 61 1
chrome10.0.649.0 242 242
opera12.16 65 2
chrome23.0.1271.64 4 0
chrome18.0.1025.151 2 2
chrome18.0.1025.166 61 1
firefox3.6.3 61 4
safari 215 3
chrome11.0.696.3 2 2
safari10.3.2.2876 172 13
safari7.0 115 3
safari6.0 1 1
chrome18.0.1025.308 62 2
chrome14.0.801.0 2 2
firefox18.0 3 3
firefox11.0 3 3
chrome26.0.1410.63 1 1
END_BROWSER

# Screen size - Hits
BEGIN_SCREENSIZE 0
END_SCREENSIZE

# Unknown referer OS - Last visit date
BEGIN_UNKNOWNREFERER 27
WWW-Mechanize/1.73 20160520160215
Python-urllib/2.7 20160520182418
libwww-perl/6.13 20160510011204
Mozilla/5.0_(compatible;_WbSrch/1.1__http://wbsrch.com) 20160512210246
L26_(.)_L26_W101_F4_V03_Open_Release/2015.08.05_WAP_Browser/MAUI_Profile/__Q03C1-2.40_es-ES_Google 20160520135235
Feedfetcher-Google;_(_http://www.google.com/feedfetcher.html;_1_subscribers;_feed-id=9213715099056081262) 20160531214419
Mediapartners-Google 20160516235823
LWP::Simple/6.00_libwww-perl/6.03 20160518054212
Mozilla/5.0_(BB10;_Kbd)_AppleWebKit/537.35__(KHTML,_like_Gecko)_Version/10.3.2.2876_Mobile_Safari/537.35_ 20160509185127
Mozilla/5.0_(compatible;_Dataprovider/6.92;__https://www.dataprovider.com/) 20160531124842
Feedfetcher-Google;_(_http://www.google.com/feedfetcher.html;_1_subscribers;_feed-id=17210911081176051355) 20160531210203
Python-urllib/2.6 20160510051031
}__test|O:21: 20160531122021
Mozilla/5.0_(compatible;_Google-Site-Verification/1.0) 20160504190713
FeedFetcher-Google;_(_http://www.google.com/feedfetcher.html) 20160531153043
Feedfetcher-Google;_(_http://www.google.com/feedfetcher.html;_1_subscribers;_feed-id=5223073339734004264) 20160531220813
MAUI_WAP_Browser 20160512194155
Mozilla/4.0_(compatible;_http://search.thunderstone.com/texis/websearch/about.html) 20160520074119
Feedfetcher-Google;_(_http://www.google.com/feedfetcher.html;_feed-id=5223073339734004264) 20160531153043
Mozilla/5.0_(BB10;_Touch)_AppleWebKit/537.35__(KHTML,_like_Gecko)_Version/10.3.2.2888_Mobile_Safari/537.35_ 20160522091703
vebidoobot 20160512120413
Mozilla/5.0_(BB10;_Touch)_AppleWebKit/537.35__(KHTML,_like_Gecko)_Version/10.3.2.2876_Mobile_Safari/537.35_ 20160515090219
nutch-1.4/Nutch-1.4 20160506032426
Mozilla/3.0_(compatible;_Indy_Library) 20160517211149
Mozilla/4.0_(compatible;) 20160531201431
Mozilla/5.0_(compatible;_Prlog/1.0;__http://prlog.ru/) 20160512132040
Mozilla/5.0_(compatible;_Genieo/1.0_http://www.genieo.com/webfilter.html) 20160531150038
END_UNKNOWNREFERER

# Unknown referer Browser - Last visit date
BEGIN_UNKNOWNREFERERBROWSER 12
Feedfetcher-Google;_(_http://www.google.com/feedfetcher.html;_1_subscribers;_feed-id=17210911081176051355) 20160531210203
nutch-1.4/Nutch-1.4 20160506032426
vebidoobot 20160512120413
FeedFetcher-Google;_(_http://www.google.com/feedfetcher.html) 20160531153043
Python-urllib/2.6 20160510051031
}__test|O:21: 20160531122021
Python-urllib/2.7 20160520182418
WWW-Mechanize/1.73 20160520160215
Feedfetcher-Google;_(_http://www.google.com/feedfetcher.html;_1_subscribers;_feed-id=5223073339734004264) 20160531220813
Feedfetcher-Google;_(_http://www.google.com/feedfetcher.html;_1_subscribers;_feed-id=9213715099056081262) 20160531214419
Mediapartners-Google 20160516235823
Feedfetcher-Google;_(_http://www.google.com/feedfetcher.html;_feed-id=5223073339734004264) 20160531153043
END_UNKNOWNREFERERBROWSER

# Origin - Pages - Hits 
BEGIN_ORIGIN 6
From0 3683 3762
From1 7 7
From2 413 484
From3 18 18
From4 702 31869
From5 0 0
END_ORIGIN

# Search engine referers ID - Pages - Hits
BEGIN_SEREFERRALS 5
yandex 3 3
google 402 473
yahoo 5 5
bing 1 1
ask 2 2
END_SEREFERRALS

# External page referers - Pages - Hits
# The 25 first Pages must be first (order not required for others)
BEGIN_PAGEREFS 11
http://m.facebook.com 7 7
http://burger-imperia.com 2 2
http://kmabiz.org/9WEoRE 1 1
http://hundejo.com 1 1
http://www.hostingned.net/clients/admin/clientsservices.php 1 1
https://t.co/BpeqXh2nbb 1 1
http://prlog.ru/analysis/cepeniel.org 1 1
http://streamingned.com:7086/index.html 1 1
http://interpult.ru 1 1
http://radiomill.tunein.com/StationMill.aspx 1 1
https://m.facebook.com 1 1
END_PAGEREFS

# Search keyphrases - Number of search
# The 10 first number of search must be first (order not required for others)
BEGIN_SEARCHWORDS 21
ciudad+online 7
centro+evangelistico+peniel 5
www.cepeniel.org 4
evangelistica+pentiel 3
peniel 3
oracion+peniel 2
http+//www.cepeniel.org/index.php%3foption%3dcom_content%26view%3darticle%26id%3d90+ciudad-online%26catid%3d2+informacion%26itemid%3d463 2
como+orar+para+que+mi+esposo+quiera+ir+a+un+peniel 1
como+hacer+logos+evangelisticos 1
iglesia+peniel+valenca 1
iglesia+cristiana+peniel 1
centro+evangelistico+peniel+de+valencia 1
ciuda+online 1
oracion+por+los+solteros+en+pdf 1
iglesias+cristianas+de+la+federacion+peniel+de+venezuela 1
nombre+para+ministerio+de+peticion+y+oracion 1
iglesia+cristiana+peniel+barquisimeto 1
centro+evangelistco+peniel 1
iglesia+peniel+valencia 1
iglesia+peniel 1
pedidos+de+oracion+urgente+donde+dejarlos+cristianos 1
END_SEARCHWORDS

# Search keywords - Number of search
# The 25 first number of search must be first (order not required for others)
BEGIN_KEYWORDS 53
peniel 19
online 8
ciudad 7
centro 7
evangelistico 6
iglesia 5
de 5
oracion 5
www.cepeniel.org 4
evangelistica 3
pentiel 3
valencia 2
http 2
ciudad-online%26catid%3d2 2
para 2
como 2
cristiana 2
informacion%26itemid%3d463 2
//www.cepeniel.org/index.php%3foption%3dcom_content%26view%3darticle%26id%3d90 2
a 1
urgente 1
que 1
iglesias 1
los 1
evangelisticos 1
por 1
pedidos 1
mi 1
evangelistco 1
quiera 1
donde 1
federacion 1
nombre 1
la 1
barquisimeto 1
cristianos 1
orar 1
un 1
ir 1
ministerio 1
pdf 1
valenca 1
y 1
venezuela 1
solteros 1
ciuda 1
peticion 1
cristianas 1
dejarlos 1
esposo 1
logos 1
hacer 1
en 1
END_KEYWORDS

# Errors - Hits - Bandwidth
BEGIN_ERRORS 7
404 1750 1446824
406 2 1202
503 1 629
301 20 12340
500 1032 81090
206 141 4378844
303 1401 2666
END_ERRORS

# URL with 404 errors - Hits - Last URL referrer
BEGIN_SIDER_404 156
/contaeect/ 1 -
/administrator/administrator.php 1 -
/administrator/components/com_acymailing/inc/openflash/php-ofc-library/ofc_upload_image.php 1 http://www.cepeniel.org/administrator/components/com_acymailing/inc/openflash/php-ofc-library/ofc_upload_image.php
/administrator/components/com_simpleimageupload/manifest.xml 1 http://www.cepeniel.org/administrator/components/com_simpleimageupload/manifest.xml
/images/mega/opacity-sub.png 1 http://www.cepeniel.org/index.php
/plugins/user/pre.php 1 -
/blog/ 3 -
/apple-touch-icon.png 17 -
/wp-content/plugins/Login-wall-etgFB/login_wall.php 1 www.cepeniel.org
/Log-in/ 2 -
/cepenielorg/videos/943897178986115/ 1 -
//images/stories/magic.php.png 3 -
/hgtcinstall/index.php.bak 1 -
/includes/xml.php 1 -
/components/com_hdflvplayer/hdflvplayer/download.php 1 -
/component/user/register 2 -
/component/users 2 -
/webconfig.txt.php 1 -
/images/xxu.php 4 -
/cepenielorg 1 -
/templates/lol.php 1 -
http://www.cepeniel.org/ilButton.png 1 -
/admin/ 1 -
/component/k2/itemlist/user/ 1 -
/browserconfig.xml 1 -
/wp-cache.php 2 http://www.googlebot.com/bot.html
/user-profile 16 -
/wordpress/ 6 -
/administrator/components/com_jinc/classes/graphics/php-ofc-library/ofc_upload_image.php 1 http://www.cepeniel.org/administrator/components/com_jinc/classes/graphics/php-ofc-library/ofc_upload_image.php
/wp-content/plugins/wp-cache.php 1 http://www.googlebot.com/bot.html
/plus/flink.php 2 -
/components/com_xmap/php-ofc-library/ofc_upload_image.php 1 http://www.cepeniel.org/components/com_xmap/php-ofc-library/ofc_upload_image.php
/wp-content/plugins/revslider/temp/update_extract/wp-cache.php 1 http://www.googlebot.com/bot.html
/images/stories/explore.php 3 -
/administrator/components/com_maianmedia/utilities/charts/php-ofc-library/ofc_upload_image.php 1 http://www.cepeniel.org/administrator/components/com_maianmedia/utilities/charts/php-ofc-library/ofc_upload_image.php
/administrator.php 1 -
/loggin.html 6 -
/component/jambook/ 1 -
/x.php 18 -
/title=%22Cancelar 1 -
//modules/mod_simplefileuploadv1.3/elements/udd.php 1 http://www.cepeniel.org//modules/mod_simplefileuploadv1.3/elements/udd.php
/register-for-access 4 -
/index.php 1287 -
/uploadify/uploadify.css 1 http://www.cepeniel.org/uploadify/uploadify.css
//cachee.php 2 http://www.googlebot.com/bot.html
/templates/css.php 1 -
/login-form 2 -
/components/com_maian15/charts/php-ofc-library/ofc_upload_image.php 1 http://www.cepeniel.org/components/com_maian15/charts/php-ofc-library/ofc_upload_image.php
/components/com_comprofiler/js/menubest.min.js 1 -
/adminis 1 -
/wp-content/uploads/wp-cache.php 1 http://www.googlebot.com/bot.html
/guestbook/ 1 -
/components/com_creativecontactform/fileupload/index.php 1 http://www.cepeniel.org/components/com_creativecontactform/fileupload/index.php
/images/phocagallery/coolguy2004-coalo-zamo-0a69/thumbs/phoca_thumb_l_dscf4468.jpg 1 -
/components/com_redmystic/chart/php-ofc-library/ofc_upload_image.php 1 http://www.cepeniel.org/components/com_redmystic/chart/php-ofc-library/ofc_upload_image.php
/images/defau1t.php 1 -
//index.php 10 -
/wp-content/plugins/revslider/temp/update_extract/resd.php 1 http://www.googlebot.com/bot.html
/profile 6 -
/login 16 -
/registratsiya/registers 1 -
/images/mega/arrow.png 1 http://www.cepeniel.org/index.php
//images/xxu.php 31 -
/wp/ 3 -
/cache/cachee.php 1 -
/libraries/joomla/exporter.php 15 http://cepeniel.org/
/images/star.png 1 http://www.cepeniel.org/index.php
//plugins/simple-forum/editorjs/tiny_mce/plugins/tinybrowser/upload.php 1 -
/wp-login.php 20 -
/administrator/login.php 1 -
/plugins/plugins.php 1 -
/ephxplus/flink.php 1 -
/administrator/components/com_rokdownloads/manifest.xml 1 http://www.cepeniel.org/administrator/components/com_rokdownloads/manifest.xml
/components/com_acymailing/inc/openflash/php-ofc-library/ofc_upload_image.php 1 http://www.cepeniel.org/components/com_acymailing/inc/openflash/php-ofc-library/ofc_upload_image.php
/modules/mod_feed/tmpl/mod_feed.php 1 -
/ 20 -
/media/preachit/mediaplayers/jwskins/glow.zip 1 -
/users/login 2 -
http://www.cepeniel.org/gen2.jpg 1 -
/images/stories/food.php 1 -
/administrator/components/com_jnewsletter/includes/openflashchart/php-ofc-library/ofc_upload_image.php 1 http://www.cepeniel.org/administrator/components/com_jnewsletter/includes/openflashchart/php-ofc-library/ofc_upload_image.php
/wp-content/plugins/formcraft/file-upload/server/content/upload.php 2 http://www.cepeniel.org/wp-content/plugins/formcraft/file-upload/server/content/upload.php
/mobile/index.php 3 -
/administrator/components/com_garyscookbook/garyscookbook.xml 1 http://www.cepeniel.org/administrator/components/com_garyscookbook/garyscookbook.xml
/libraries/joomla/css.php 4 -
/images/stories/petx.php 3 -
/administrator/components/com_simplephotogallery/lib/uploadFile.php 3 http://cepeniel.org/administrator/components/com_simplephotogallery/lib/uploadFile.php
//images/x.php 3 -
/plugins/log.php 1 -
/media/spy.txt 1 -
/apple-touch-icon-precomposed.png 19 -
/includes.php 3 -
/sites/all/libraries/elfinder/php/connector.minimal.php 1 http://www.cepeniel.org/sites/all/libraries/elfinder/php/connector.minimal.php
/editor/assetmanager/assetmanager.php 1 http://www.cepeniel.org/editor/assetmanager/assetmanager.php
//x.php 2 -
/administrator/components/com_redmystic/chart/php-ofc-library/ofc_upload_image.php 1 http://www.cepeniel.org/administrator/components/com_redmystic/chart/php-ofc-library/ofc_upload_image.php
/user 2 -
/Create-an-account/ 4 -
//plugins/editors/tinymce/jscripts/tiny_mce/plugins/tinybrowser/upload.php 3 -
/images/presentacion/serie%20corazon%20de%20atleta%20web.jpg 1 http://www.cepeniel.org/index.php
/templates/webcore_beginning/css/template.css 7 http://www.cepeniel.org/index.php
/magazine/js/mage/cookies.js 1 cepeniel.org/magazine
/component/comprofiler/registers.html 1 -
//images/stories/explore.gif 2 -
/wp-admin/admin-ajax.php 1 http://www.cepeniel.org/wp-admin/admin-ajax.php
/log-out.html 6 -
/login-form.html 2 -
/m/index.php 3 -
/libraries/joomla/lol.php 4 -
/wp-content/plugins/sexy-contact-form/includes/fileupload/index.php 1 http://www.cepeniel.org/wp-content/plugins/sexy-contact-form/includes/fileupload/index.php
/register.html 6 -
/license.php 3 -
/2011/media/mod_vinaora_cu3er/flash/cu3er.swf 1 -
/admin.php 5 -
/administrator/components/com_maian15/charts/php-ofc-library/ofc_upload_image.php 1 http://www.cepeniel.org/administrator/components/com_maian15/charts/php-ofc-library/ofc_upload_image.php
/images/phocagallery/coolguy2004-coalo-zamo-0a69/thumbs/phoca_thumb_l_dscf4534.jpg 1 -
/index.php/index.php 3 -
/components/com_foxcontact/lib/file-uploader.php 1 http://www.cepeniel.org/components/com_foxcontact/lib/file-uploader.php
/libraries/joomla/application/upload.php 1 -
/media/media.php 1 -
/user/login 1 -
/blog/robots.txt 3 -
/wp-content/plugins/revslider/css/tipsy.css 1 -
/sites/all/libraries/elfinder/files/wp-cache.php 1 http://www.googlebot.com/bot.html
/components/com_jnewsletter/includes/openflashchart/php-ofc-library/ofc_upload_image.php 1 http://www.cepeniel.org/components/com_jnewsletter/includes/openflashchart/php-ofc-library/ofc_upload_image.php
/users/registration 4 -
/configurationbak.php 1 -
/images/phocagallery/coolguy2004-coalo-zamo-0a69/thumbs/phoca_thumb_l_dscf4254.jpg 1 -
/media/css.php 1 -
/components/com_maianmedia/utilities/charts/php-ofc-library/ofc_upload_image.php 1 http://www.cepeniel.org/components/com_maianmedia/utilities/charts/php-ofc-library/ofc_upload_image.php
/user/registration 1 -
//administrator/components/com_simplephotogallery/lib/uploadFile.php 1 -
/title= 1 -
/components/com_jinc/classes/graphics/php-ofc-library/ofc_upload_image.php 1 http://www.cepeniel.org/components/com_jinc/classes/graphics/php-ofc-library/ofc_upload_image.php
/wp-config.php~ 1 -
/component/users/ 7 -
/media/xxxx.php 1 -
/registration-form 8 -
/administrator/components/com_civicrm/civicrm.xml 1 http://www.cepeniel.org/administrator/components/com_civicrm/civicrm.xml
/assets/global/plugins/jquery-file-upload/server/php/ 1 http://www.cepeniel.org/assets/global/plugins/jquery-file-upload/server/php/
/install/index.php.bak 2 -
//modules/mod_simplefileuploadv1.3/elements/Simplefileupload.php 1 http://www.googlebot.com/bot.html
/uploadify/uploadify.php 1 http://www.cepeniel.org/uploadify/uploadify.php
/images%5Ciglesia.jpg 8 http://www.cepeniel.org/index.php
/tmp/sfx.php 1 -
/images/mega/menu_vertical.png 1 http://www.cepeniel.org/index.php
/user/ 1 -
/images/phocagallery/coolguy2004-coalo-zamo-0a69/thumbs/phoca_thumb_l_dscf4238.jpg 1 -
/2011/index.php 10 -
/previous.html 8 -
/administrator/components/com_bt_portfolio/helpers/uploadify/uploadify.php 3 http://cepeniel.org/administrator/components/com_bt_portfolio/helpers/uploadify/uploadify.php
/xmlrpc.php 4 -
/%0D/index.php 1 -
/administrator/components/com_xmap/php-ofc-library/ofc_upload_image.php 1 http://www.cepeniel.org/administrator/components/com_xmap/php-ofc-library/ofc_upload_image.php
/media/SS.PhP.txt 1 -
/includes/opts.php 1 http://cepeniel.org/includes/opts.php
END_SIDER_404
