AWSTATS DATA FILE 7.4 (build 20140726)
# If you remove this file, all statistics for date 201711 will be lost/reset.
# Last config file used to build this data file was /home/cepeniel/tmp/awstats/awstats.cepeniel.org.conf.

# Position (offset in bytes) in this file for beginning of each section for
# direct I/O access. If you made changes somewhere in this file, you should
# also remove completely the MAP section (AWStats will rewrite it at next
# update).
BEGIN_MAP 28
POS_GENERAL 2009                
POS_TIME 2697                
POS_VISITOR 32912               
POS_DAY 91526               
POS_DOMAIN 3798                
POS_LOGIN 5185                
POS_ROBOT 5340                
POS_WORMS 5872                
POS_EMAILSENDER 6003                
POS_EMAILRECEIVER 6146                
POS_SESSION 92528               
POS_SIDER 92745               
POS_FILETYPES 6281                
POS_DOWNLOADS 6521                
POS_OS 6569                
POS_BROWSER 7011                
POS_SCREENSIZE 11477               
POS_UNKNOWNREFERER 11551               
POS_UNKNOWNREFERERBROWSER 12858               
POS_ORIGIN 13420               
POS_SEREFERRALS 13575               
POS_PAGEREFS 13764               
POS_SEARCHWORDS 15542               
POS_KEYWORDS 15879               
POS_MISC 2359                
POS_ERRORS 16118               
POS_CLUSTER 5041                
POS_SIDER_404 16274               
END_MAP

# LastLine    = Date of last record processed - Last record line number in last log - Last record offset in last log - Last record signature value
# FirstTime   = Date of first visit for history file
# LastTime    = Date of last visit for history file
# LastUpdate  = Date of last update - Nb of parsed records - Nb of parsed old records - Nb of parsed new records - Nb of parsed corrupted - Nb of parsed dropped
# TotalVisits = Number of visits
# TotalUnique = Number of unique visitors
# MonthHostsKnown   = Number of hosts known
# MonthHostsUnKnown = Number of hosts unknown
BEGIN_GENERAL 8
LastLine 20171201000022 3670 840990 27759249791492
FirstTime 20171101000015
LastTime 20171130235813
LastUpdate 20171201082936 3670 0 3669 0 0
TotalVisits 3042                
TotalUnique 1429                
MonthHostsKnown 0                   
MonthHostsUnknown 1481                
END_GENERAL

# Misc ID - Pages - Hits - Bandwidth
BEGIN_MISC 10
JavascriptDisabled 0 0 0
FlashSupport 0 0 0
TotalMisc 0 0 0
AddToFavourites 0 239 0
RealPlayerSupport 0 0 0
DirectorSupport 0 0 0
WindowsMediaPlayerSupport 0 0 0
JavaEnabled 0 0 0
QuickTimeSupport 0 0 0
PDFSupport 0 0 0
END_MISC

# Hour - Pages - Hits - Bandwidth - Not viewed Pages - Not viewed Hits - Not viewed Bandwidth
BEGIN_TIME 24
0 2512 2586 21178124 3533 3582 36175574
1 2387 2443 14112481 4154 4244 43881400
2 2340 2426 15301094 4404 4555 46040000
3 2181 2375 12461759 2959 3046 29260159
4 2334 2525 16635642 2956 3026 28950636
5 2275 2847 19873386 3480 3656 35794540
6 2309 3408 24975066 3715 3938 38296899
7 2482 6000 64598756 3456 3687 35114227
8 2456 5262 52526046 3660 3745 32101981
9 2311 3378 26601295 3396 3495 34426725
10 2281 3293 26702588 3656 3839 39819512
11 2353 3297 26316799 3273 3339 33467908
12 2310 3003 24269031 3993 4048 40185353
13 2332 3434 30952810 3831 3891 36280805
14 2337 3211 26548629 3241 3324 30760727
15 2556 3164 25554119 4092 4148 40819207
16 2280 2999 23755121 3275 3353 31549251
17 2307 3316 26987093 3145 3230 30747417
18 2285 3041 22011713 4738 4829 45266270
19 2311 3397 30185308 3887 3991 40981657
20 2306 3038 22875774 2955 3051 30950684
21 2291 2781 18652601 3517 3566 35921427
22 2494 2793 24026928 2741 2850 27924115
23 2289 2900 20265698 3552 3653 37909915
END_TIME

# Domain - Pages - Hits - Bandwidth
# The 25 first Pages must be first (order not required for others)
BEGIN_DOMAIN 74
us 45876 49826 110187116
ru 4050 4262 101083379
ua 3283 3283 100471274
fr 578 578 21816797
ve 486 12145 165776421
nl 251 251 7263967
it 135 193 4770619
pl 134 134 4485746
il 134 134 3902416
cz 117 187 4383302
gb 115 115 3209446
pa 94 240 4666367
md 92 92 2552186
by 89 89 2539245
de 70 70 1922550
cn 68 317 5234850
pe 58 296 3332347
ca 52 257 4984062
kh 52 52 1104343
in 49 49 1458485
br 46 46 659704
ro 44 44 1171324
tr 34 34 155601
eu 33 133 2878378
ar 30 883 11523038
af 2 2 3912
at 1 1 34205
dz 1 1 1959
pr 1 60 686741
co 14 262 4124982
lv 19 19 493483
ec 24 488 8165403
ph 3 3 52635
hn 2 70 866176
za 6 6 116741
so 1 1 2051
cr 1 70 1239172
lb 6 6 180996
au 3 3 11853
rs 6 6 27459
eg 2 2 50582
mx 18 667 7698774
pk 1 1 138
sc 1 1 9664
gt 2 59 635431
ps 2 2 4006
qa 1 66 686065
al 12 12 142759
id 22 22 165052
sg 1 1 9657
ni 2 122 1394569
do 9 337 4918184
bo 1 1 2048
cl 18 349 5473251
ee 5 5 154218
bd 6 6 33073
kr 2 2 36257
pt 20 20 580750
ng 1 1 1956
cw 3 3 84789
no 14 14 389093
zz 3 3 84523
sv 7 226 2758805
bg 12 12 355698
es 18 199 3192193
tw 4 4 112600
jp 6 6 27459
hk 2 2 18880
ir 2 2 4003
lu 17 17 107424
ch 1 1 30279
vn 2 2 4007
th 13 13 263662
kz 29 29 397281
END_DOMAIN

# Cluster ID - Pages - Hits - Bandwidth
BEGIN_CLUSTER 0
END_CLUSTER

# Login - Pages - Hits - Bandwidth - Last visit
# The 10 first Pages must be first (order not required for others)
BEGIN_LOGIN 0
END_LOGIN

# Robot ID - Hits - Bandwidth - Last visit - Hits on robots.txt
# The 25 first Hits must be first (order not required for others)
BEGIN_ROBOT 10
robot 38351 368659026 20171130235942 31
bot[\s_+:,\.\;\/\\-] 32422 449779065 20171130235916 901
googlebot 2381 24628562 20171130235612 50
bingpreview 538 9871871 20171130184846 0
spider 206 2161794 20171130232421 26
unknown 51 23047 20171128171336 51
no_user_agent 17 521769 20171119224831 3
php 14 3201000 20171128165808 0
netcraft 1 34205 20171110142356 0
googlebot\-image 1 9667 20171114201539 0
END_ROBOT

# Worm ID - Hits - Bandwidth - Last visit
# The 5 first Hits must be first (order not required for others)
BEGIN_WORMS 0
END_WORMS

# EMail - Hits - Bandwidth - Last visit
# The 20 first Hits must be first (order not required for others)
BEGIN_EMAILSENDER 0
END_EMAILSENDER

# EMail - Hits - Bandwidth - Last visit
# The 20 first hits must be first (order not required for others)
BEGIN_EMAILRECEIVER 0
END_EMAILRECEIVER

# Files type - Hits - Bandwidth - Bandwidth without compression - Bandwidth after compression
BEGIN_FILETYPES 8
php 55078 320573760 0 0
css 5325 7471853 0 0
html 1230 17776222 0 0
jpg 1474 55745463 0 0
gif 804 1068008 0 0
Unknown 11 376245 0 0
png 9192 150192085 0 0
js 3803 64164225 0 0
END_FILETYPES

# Downloads - Hits - Bandwidth
BEGIN_DOWNLOADS 0
END_DOWNLOADS

# OS ID - Hits
BEGIN_OS ID - Hits - Pages 25
Unknown 828 122
linux 387 159
win8.1 3336 1403
macosx7 2 2
macosx4 3 3
blackberry 122 2
win98 8 8
ios_iphone 596 72
macosx6 3 3
macosx5 4 4
win7 10841 3865
unix 61 1
java 45026 45026
linuxubuntu 488 488
ios_ipad 566 14
linuxandroid 6797 225
win2003 28 19
winxp 1773 759
win8 428 315
winnt 3799 2306
winunknown 4 4
macosx 442 373
winphone 144 2
win2000 20 20
winlong 1211 1124
END_OS

# Browser ID - Hits - Pages
BEGIN_BROWSER 206
firefox45.63.16 2 2
msie5.5 3 3
firefox40.0 1 1
chrome57.5.0901.5273 1 1
chrome58.0.3029.110 437 437
mozilla 134 85
safari10.0 393 59
firefox2.0.0.13 1 1
opera11.00 3 3
opera40.6.1161.7433 1 1
opera7.54 3 3
opera42.0.5517.0245 2 2
opera44.0.2510.1449 190 190
chrome57.5.0707.5079 1 1
opera12.16 686 15
chrome5.0.375.99 5 5
firefox54.0 80 8
safari9.0 64 5
opera48.0.2685.35 61 1
chrome40.0.2214.85 1 1
chrome53.6.0198.5826 1 1
opera44.0.2510.857 476 476
opera8.50 1 1
chrome62.0.3202.84 1650 41
chrome22.0.345.333 1 1
safari5.6.1 1 1
opera10.00 1 1
opera44.6.1253.6525 2 2
opera45.0.2552.898 1 1
chrome57.5.1435.6708 2 2
firefox45.70.23 1 1
chrome57.4.9725.5097 1 1
safari5.4.8 1 1
opera9.22 1 1
safari5.5.1 2 2
firefox45.0 124 124
chrome11.0.696.34 1 1
chrome49.0.2623.75 5 5
chrome57.4.9254.4526 2 2
chrome57.4.9949.4676 1 1
safari7.1.0.398 72 1
firefox12.0 3 3
firefox3.5 1 1
opera41.9.4585.8213 1 1
opera40.6.1943.6215 2 2
chrome53.6.1228.7590 2 2
firefox11.0 2 2
chrome51.0.2704.79 178 107
chrome62.0.3202.94 3492 138
msie8.0 160 9
firefox32.0 4 4
firefox38.0 1 1
chrome51.0.2704.103 22 22
safari5.4.9 2 2
chrome39.0.2171.99 1 1
firefox18.0 1 1
chrome32.0.1700.107 1 1
chrome53.7.2426.8798 2 2
opera44.5.0447.5710 2 2
firefox16.0 2 2
chrome56.0.2924.87 1936 1373
firefox52.0 911 911
chrome48.0.2564.116 78 2
chrome59.0.3071.109 6 6
chrome40.0.2214.109 168 10
iphone 147 4
firefox51.0 95 95
msie999.1 4 4
msie6.0 32 32
chrome34.0.1847.11 2 2
chrome58.0.3029.81 683 683
opera40.6.1970.7242 1 1
firefox7.0.1 2 2
safari11.0 117 3
chrome45.0.2454.94 2 2
firefox57.0 544 13
firefox34.0 1023 1023
chrome35.0.1916.141 47 1
chrome58.0.3029.83 77 2
chrome60.0.3112.113 60 1
chrome57.0.2987.110 80 80
android 987 29
chrome55.0.2883.91 169 7
chrome33.0.0.0 89 3
opera6.0 6 6
chrome54.8.3473.8745 2 2
chrome44.0.2403.133 146 4
chrome22.0.345.759 1 1
opera41.9.4973.8601 2 2
firefox17.0 24 24
chrome57.4.9555.4283 2 2
chrome30.0.1599.82 144 2
chrome60.0.3112.107 133 3
chrome62.0.3202.89 258 6
firefox3.5.2 2 2
safari4.7.2 2 2
firefox41.0 160 100
chrome57.4.9432.4704 2 2
firefox3.6.4 242 242
firefox45.68.05 3 3
chrome55.1.6785.0413 2 2
opera11.50 2 2
chrome55.0.2883.75 61 61
chrome61.0.3163.79 146 7
chrome55.1.6747.0474 1 1
seamonkey 2 2
safari8.0 70 4
chrome10.0.648.11 1 1
chrome34.0.1847.131 1 1
safari6.0 4 4
firefox43.0 100 71
chrome62.0.3202.75 266 16
chrome30.0.1599.66 41 41
chrome54.0.2840.68 77 8
chrome62.0.3202.73 73 2
firefox24.0 1 1
chrome58.0.3014.0 125 3
safari5.3.7 2 2
chrome60.0.3112.116 158 3
chrome50.0.2661.89 131 3
firefox3.5.3 1 1
safari5.2.7 4 4
chrome53.6.1793.6065 2 2
firefox53.0 718 718
chrome12.0.742.112 243 243
chrome60.0.3112.90 56 2
chrome36.0.1985.125 30 1
opera46.0.2597.32 1 1
chrome59.0.3071.125 442 14
chrome51.0.2704.106 73 2
chrome61.0.3163.98 817 26
chrome45.0.2454.101 5 5
chrome56.3.7786.2414 1 1
chrome35.0.1916.114 1 1
firefox55.0 3 3
chrome40.0.2214.93 5 5
opera44.5.0393.6665 2 2
chrome46.0.2490.86 1 1
safari7.0 247 5
opera36.0.2130.80 93 93
msie7.0 24 13
Unknown 45058 45052
firefox52.52.09 2 2
opera40.6.2744.7016 2 2
netscape5.0 1 1
firefox47.0 88 88
firefox42.0 57 3
chrome30.0.0.0 446 26
chrome49.0.2623.112 989 137
opera40.6.1877.6049 2 2
firefox52.42.99 2 2
chrome62.0.3202.82 61 1
firefox45.66.03 1 1
safari10.1 21 21
opera12.17 1 1
chrome57.0.2987.133 1046 1046
chrome46.0.2490.80 2 2
firefox52.52.05 2 2
chrome56.2.6331.1068 1 1
chrome58.0.3029.96 344 344
firefox45.79.22 1 1
chrome57.4.9471.4108 1 1
opera44.5.0739.5001 1 1
opera49.0.2725.39 72 1
chrome57.5.9645.4373 2 2
chrome57.4.9050.4788 2 2
chrome54.8.3224.8597 1 1
chrome42.0.2311.111 168 12
chrome21.0.124.547 1 1
chrome53.6.1401.5138 2 2
chrome50.0.2661.102 158 109
safari5.0.5 1 1
chrome26.0.1410.63 1 1
msie9.0 265 178
safari5.3.8 6 6
chrome38.0.1025.166 217 5
chrome59.0.3071.115 95 10
chrome57.5.0397.5025 2 2
firefox56.0 485 19
firefox19.0 1 1
firefox220 1 1
chrome61.0.3163.100 4134 230
opera43.0.2442.1144 791 791
firefox21.0 3 3
chrome52.0.2743.116 228 23
firefox40.1 4 4
msie11.0 290 11
chrome62.0.3202.62 295 5
firefox50.0 215 215
chrome55.0.2883.95 1 1
chrome27.0.1453.93 2 2
chrome55.1.6903.1631 1 1
chrome53.6.1996.5624 2 2
chrome41.0.2228.0 5 5
opera44.5.0699.6961 1 1
netscape 31 2
chrome57.0.2987.98 13 13
opera48.0.2685.52 61 2
safari10.0.3 20 20
msie10.0 5 5
safari4.6.1 1 1
firefox45.63.26 1 1
chrome57.5.0185.5458 2 2
safari 206 17
opera49.0.2725.47 63 4
chrome60.0.3112.101 216 3
END_BROWSER

# Screen size - Hits
BEGIN_SCREENSIZE 0
END_SCREENSIZE

# Unknown referer OS - Last visit date
BEGIN_UNKNOWNREFERER 19
ltx71_-_(http://ltx71.com/) 20171125094940
Ruby 20171129105426
Mozilla/5.0_AppleWebKit/537.36_(KHTML,_like_Gecko)_Chrome/55.0.2883.95_Safari/537.36/Nutch-1.13 20171103202232
Mozilla/5.0_(compatible;_Google-Site-Verification/1.0) 20171130071831
mozilla 20171123194312
CATExplorador/1.0beta_(sistemes_at_domini_dot_cat;_http://domini.cat/catexplorador.html) 20171107221321
Python-urllib/2.6 20171109004759
Mozilla/5.0_(compatible;_GroupHigh/1.0;__http://www.grouphigh.com/) 20171130135851
Mozilla/5.0_(compatible;_Qwantify/2.4w;__https://www.qwant.com/)/2.4w 20171128174438
redback/v0-570-g26f8c96 20171128054219
python-requests/2.12.3 20171123194331
Blackboard_Safeassign 20171128092339
ZTE-Z432/1.0.3_NetFront/4.2_QTV5.1_Profile/MIDP-2.1_Configuration/CLDC-1.1_Google 20171105193130
Mozilla/4.0_(compatible;) 20171124163223
Opera/9.80_(Android;_Opera_Mini/20.0.2254/75.35;_U;_es)_Presto/2.12.423_Version/12.16 20171112080311
Mozilla/5.0_(compatible;_Nmap_Scripting_Engine;_https://nmap.org/book/nse.html) 20171122170830
Mozilla/5.0_(compatible;_Dataprovider.com;) 20171118153727
Opera/9.80_(Android;_Opera_Mini/20.0.2254/76.201;_U;_es)_Presto/2.12.423_Version/12.16 20171126074125
VLC/2.1.2_LibVLC/2.1.2 20171122200321
END_UNKNOWNREFERER

# Unknown referer Browser - Last visit date
BEGIN_UNKNOWNREFERERBROWSER 10
Ruby 20171129105426
ZTE-Z432/1.0.3_NetFront/4.2_QTV5.1_Profile/MIDP-2.1_Configuration/CLDC-1.1_Google 20171105193130
ltx71_-_(http://ltx71.com/) 20171125094940
Python-urllib/2.6 20171109004759
CATExplorador/1.0beta_(sistemes_at_domini_dot_cat;_http://domini.cat/catexplorador.html) 20171107221321
VLC/2.1.2_LibVLC/2.1.2 20171122200321
Blackboard_Safeassign 20171128092339
redback/v0-570-g26f8c96 20171128054219
Java/1.8.0_121 20171130235813
python-requests/2.12.3 20171123194331
END_UNKNOWNREFERERBROWSER

# Origin - Pages - Hits 
BEGIN_ORIGIN 6
From0 46746 46807
From1 20 20
From2 260 262
From3 163 163
From4 9130 29665
From5 0 0
END_ORIGIN

# Search engine referers ID - Pages - Hits
BEGIN_SEREFERRALS 4
live 1 2
yandex 5 5
google 250 251
yahoo 4 4
END_SEREFERRALS

# External page referers - Pages - Hits
# The 25 first Pages must be first (order not required for others)
BEGIN_PAGEREFS 52
http://www.agenreferralpoker.com 22 22
http://l.instagram.com 13 13
http://www.asalqq.net 11 11
http://www.asalqq.com 11 11
http://door.tk 6 6
http://site.ru 5 5
https://gkbe.ru 5 5
https://l.instagram.com 5 5
https://lm.facebook.com 4 4
https://www.facebook.com 4 4
http://zarabotok--doma.ru 4 4
http://pro-tec.kz 3 3
https://all4wap.ru 3 3
https://yrologiya.com 3 3
http://moskva.nodup.ru 3 3
http://multgo.ru 3 3
https://kandidos.com 3 3
http://sexsaoy.com 3 3
http://besthoro.ru 3 3
http://lerporn.info 3 3
http://x-true.info 3 3
https://urengoy.pro/articles/1970-vygodno-li-ispolzovanie-kreditnoi-karty.html 3 3
https://ilmexico.com 3 3
http://www.radios.co.ve/region/valencia/ 2 2
http://huroncon.com/tds/click-here 2 2
http://therugdealers.nl/rx/index.php 1 1
http://www.forum.timeofknight.com/showthread.php 1 1
https://l.facebook.com 1 1
https://yes-com.com 2 2
http://doslidy.kiev.ua 2 2
http://www.radios.co.ve/genero/religion/ 1 1
http://wonderland.uv.ro/forum/viewtopic.php 1 1
http://seientei.info/rx/index.php 1 1
http://m.facebook.com 1 1
http://t.co/wdiwddrFMd 1 1
http://hdxvideos.ru 1 1
http://rosbalt.com.ua 2 2
http://aksonural.ru 2 2
https://small-smile.ru 1 1
http://imk.com.ua 2 2
http://changson.net/showthread.php 1 1
http://faucet.darknets.info 2 2
http://newbp.win 1 1
http://runofilms.ru 1 1
http://mishushinavoq.tumblr.com 1 1
https://sourcedconsulting.com.au 1 1
http://adobereader-free.ru 1 1
http://losswind11.mybjjblog.com/first-person-shooter-rexuiz-free-to-play-game-4178043 1 1
http://iibiyo.info/rx/index.php 1 1
http://www.nbp.pw 1 1
http://seron.top 1 1
http://yangfw.com/rx/index.php 1 1
END_PAGEREFS

# Search keyphrases - Number of search
# The 10 first number of search must be first (order not required for others)
BEGIN_SEARCHWORDS 6
ciudad+online 2
ciudad+on+line 2
peniel 1
lista+de+peticiones+para+orar 1
peniel+iglesia+para+ciudad 1
%6c%6f%67%6f%74%69%70%6f+%64%65+%6c%61+%49%67%6c%65%73%69%61+%50%65%6e%69%65%6c 1
END_SEARCHWORDS

# Search keywords - Number of search
# The 25 first number of search must be first (order not required for others)
BEGIN_KEYWORDS 16
ciudad 5
line 2
online 2
para 2
on 2
peniel 2
%6c%61 1
lista 1
iglesia 1
de 1
orar 1
%49%67%6c%65%73%69%61 1
peticiones 1
%6c%6f%67%6f%74%69%70%6f 1
%50%65%6e%69%65%6c 1
%64%65 1
END_KEYWORDS

# Errors - Hits - Bandwidth
BEGIN_ERRORS 6
206 75 1366003
404 1826 2037844
503 7 4403
500 5182 52330
303 6723 0
301 9 5553
END_ERRORS

# URL with 404 errors - Hits - Last URL referrer
BEGIN_SIDER_404 363
/uaxdadmin/inc/grouplist.txt 1 -
/x.php 18 -
/parseopml/popup-pomo.php 3 http://site.ru
/authorize.php.suspected 2 http://site.ru
/uploads/ 1 -
/webadmin/ 1 -
/includes/editor/ 1 -
//templates/ja_purity/index.php 1 -
/blog/wp-admin/ 2 -
/js/ajax/ 1 -
/control/ 1 -
/blog/wp-includes/wlwmanifest.xml 1 -
/manager/ 1 -
/scripts/ajax/ 1 -
/modules/mod_simplefileuploadv1.3/elements/toor.php 3 http://site.ru
/includes/FCKEditorV2/editor/dialog/fck_about.html 1 -
/modx.php 1 http://site.ru
//images/stories/r57.gif 1 -
//www.cepeniel.org/index.php 13 http://www.cepeniel.org//www.cepeniel.org/index.php
/templates/beez/index.php.suspected 1 http://site.ru
/wp-admin/setup-config.php 1 -
/blog/wp-admin/setup-config.php 1 -
/components/com_comprofiler/images/offline.gif 1 http://www.cepeniel.org/components/com_prayercenter/assets/css/prayercenter.css
/includes/logo_img.php 3 http://site.ru
/modules/mod_custom/tmpl/map.php 2 http://site.ru
/javascripts/ 1 -
/js.php.suspected 2 http://site.ru
/fckedit/editor/dialog/fck_about.html 1 -
/plugins/editors/tinymce/jscripts/tiny_mce/plugins/advimage/images/map.php 2 http://site.ru
/media/spy.txt 1 -
/cache/template/Misfpo.php 1 http://site.ru
/jpcpdede/inc/grouplist.txt 1 -
/searchreplacedb2.php 1 -
/libraries/phputf8/native/gkkcdhs.php 1 http://site.ru
/00.php 2 http://site.ru
/dumper.php 1 -
/webmaster/ 1 -
/wordpress/wp-includes/wlwmanifest.xml 1 -
/administrator/system_info.php 1 http://site.ru
/6c3feced5fe97be15edcefad3cdc76e7.php 1 cepeniel.org
/FCKEditorV2/editor/dialog/fck_about.html 1 -
/feeder/popup-pomo.php 3 http://site.ru
/wp-content/plugins/complete-gallery-manager/frames/upload-images.php 1 http://www.cepeniel.org/wp-content/plugins/complete-gallery-manager/frames/upload-images.php
/images/stories/spy3xp.php 1 -
/tools/popup-pomo.php 2 http://site.ru
/wp-content/plugins/Tevolution/tmplconnector/monetize/templatic-custom_fields/css/jquery.lightbox.css 1 http://www.cepeniel.org/wp-content/plugins/Tevolution/tmplconnector/monetize/templatic-custom_fields/css/jquery.lightbox.css
/images/stories/rokstories/templocep_thumb.png 1 -
/images/xxu.php 7 -
/includes/cache.inc.php 1 http://site.ru
/upholsterynet.com/logo_img.php 2 http://site.ru
/postnew/popup-pomo.php 4 http://site.ru
/xmlrpc.php 2 -
/modules/mod_stat/mod_stat.php 1 http://site.ru
/administrator/components/com_kunena/media/icons/large/htaccess.php 1 http://site.ru
/cms/wp-admin/setup-config.php 1 -
/dumper/dumper.php 1 -
/fck/_whatsnew.html 1 -
/wp-login.php 5 -
/FCKEditorV2/_whatsnew.html 1 -
/login-form.html 1 -
/includes/fckeditor/_whatsnew.html 1 -
/users/registration 1 -
/2011/index.php 8 -
/optionsa/popup-pomo.php 2 http://site.ru
/users/registration.html 2 http://cepeniel.org/users/registration.html
/modules/mod_stats/rfziea.php 2 http://site.ru
/images/temp.php. 3 http://site.ru
/admin/ 1 -
/includes/fckeditor/editor/dialog/fck_about.html 1 -
/modules/mod_articles_category/media-views-rtl.php 1 http://site.ru
/components/admin/bgeiis.php 1 http://site.ru
/fascina/popup-pomo.php 1 http://site.ru
/fck2/editor/dialog/fck_about.html 1 -
/administrator/components/com_akeeba/akeeba/filters/gpbph.php 3 http://site.ru
/admin_area/ 1 -
/bin/logo_img.php 4 http://site.ru
/htaccess.php.suspected 3 http://site.ru
/includes/FCKEditorV2/_whatsnew.html 1 -
/FCK/_whatsnew.html 1 -
/register 2 http://cepeniel.org/register
/plugins/vmpayment/klikandpay/klikandpay/assets/js/htaccess.php 2 http://site.ru
/aspcms_admin/login.asp 1 -
/newsadmin/ 1 -
/modules/mod_itpgads_9722/plugins.php 2 http://site.ru
/utility/convert/index.php 9 -
//templates/rhuk_milkyway/index.php 1 -
/wordpress/wp-admin/ 2 -
/images/M_images/printButton.png 1 http://www.cepeniel.org/components/com_prayercenter/assets/css/prayercenter.css
/html/js/ 1 -
/tmp/headers_img.php 3 http://site.ru
/admin.php 2 http://www.cepeniel.org/admin.php
/wp-includes/wlwmanifest.xml 1 -
/do/reg.php 1 -
/info.php 1 http://site.ru
/zphxdede/inc/grouplist.txt 1 -
/HTMLEditor/ 1 -
/common/ 1 -
/admin_manage_access/ 1 -
//templates/beez/index.php 1 -
/manager/popup-pomo.php 3 http://site.ru
/includes/fck/_whatsnew.html 1 -
/install/chmod.txt 1 -
/default.php.suspected 2 http://site.ru
/admin 1 -
/includes/fckedit/editor/dialog/fck_about.html 1 -
/inc/ 1 -
/plugins/aiudok.php 2 http://site.ru
/modules/mod_fxprev/libraries/tmpl.php 1 cepeniel.org
/util/login.aspx 2 -
/media/cloud.php 1 -
/ 9 -
/cache/search.php 1 cepeniel.org
/wp/wp-admin/setup-config.php 1 -
/wss.php.suspected 1 http://site.ru
/administrator/templates/hathor/html/com_menus/item/htaccess.php 2 http://site.ru
/plugins/editors-xtd/orlkeap.php 1 http://site.ru
/registration.html 2 http://cepeniel.org/registration.html
/Fck/_whatsnew.html 1 -
/components/com_jce/editor/extensions/aggregator/youtube/htaccess.php 2 http://site.ru
/administrator/templates/hathor/html/com_finder/statistics/desua.php 1 http://site.ru
/processlogin/ 1 -
/new/media/akeeba_strapper/css/smoothness/content-post.php 2 http://site.ru
/libraries/joomla/keychain/htaccess.php 3 http://site.ru
/includes/editor/dialog/fck_about.html 1 -
/AdminWeb/ 1 -
/paypalapi/popup-pomo.php 2 http://site.ru
/log-out.html 2 -
/libraries/cms.php:info 2 cepeniel.org
/blogs/wp-admin/setup-config.php 1 -
/sitemap.xml 3 -
/templates/zt_galosa/images/color/blue/module_badges.png 1 http://www.cepeniel.org/templates/zt_galosa/css/modules.css
/components/com_comprofiler/images/online.gif 1 http://www.cepeniel.org/components/com_prayercenter/assets/css/prayercenter.css
/blog/wordpress/wp-admin/setup-config.php 1 -
/admin/inc/grouplist.txt 4 -
/libraries/joomla/template/mark.php.suspected 1 http://site.ru
/sysadm/ 1 -
/templates/atomic/error.php.suspected 1 http://site.ru
/includes/ckeditor/editor/dialog/fck_about.html 1 -
/canadapost/popup-pomo.php 2 http://site.ru
/wp-content/plugins/wp-crm/third-party/uploadify/uploadify.css 1 http://www.cepeniel.org/wp-content/plugins/wp-crm/third-party/uploadify/uploadify.css
/includes/fck2/editor/dialog/fck_about.html 1 -
/inc.php 2 http://site.ru
/Create-an-account/ 1 -
/googlee866df73caba33f3.html 1 -
/components/com_finder/views/htaccess.php 3 http://site.ru
/wp-content/themes/famous/style.css 1 http://www.cepeniel.org/wp-content/themes/famous/style.css
/administrator/components/admins.php 3 http://site.ru
/plugins/editors/yukesw.php 1 http://site.ru
/tplpage.php.suspected 1 http://site.ru
/components/com_search/models/mark.php 4 http://site.ru
/framework.php 1 http://site.ru
/components/com_wrapper/xfracc.php 1 http://site.ru
/templates/index.php 1 cepeniel.org
/ckeditor/_whatsnew.html 1 -
/administrator/templates/hathor/html/com_cache/purge/htaccess.php 1 http://site.ru
/images/logo_img.php 1 -
/Editor/ 1 -
/fck/editor/dialog/fck_about.html 1 -
/permalink/popup-pomo.php 1 http://site.ru
/fckedit/_whatsnew.html 1 -
/Log-in/ 1 -
/components/com_users/auth.class.php 3 http://site.ru
/create-an-account.html 2 http://cepeniel.org/create-an-account.html
/beta/wp-admin/setup-config.php 1 -
/javascripts/ajax/ 1 -
/admin888/ 1 -
/store/asqrvj.php 1 http://site.ru
/administrator/components/com_banners/zwpzz.php 1 http://site.ru
/tmp/x.php 2 http://site.ru
/register-for-access 1 -
/user-profile 5 -
/templates/zt_galosa/images/bullet-list.gif 1 http://www.cepeniel.org/templates/zt_galosa/css/default.css
/old_web/wp-admin/includes/images.php 1 http://site.ru
/stylesa/popup-pomo.php 1 http://site.ru
/profile/popup-pomo.php 3 http://site.ru
/includes/vyxsvwg.php 1 http://site.ru
/sec.php.suspected 4 http://site.ru
/FCKeditor/editor/dialog/fck_about.html 1 -
/fileadmin/ 1 -
/modules/mod_k2_content/media-views-rtl.php 2 http://site.ru
/data/admin/i.txt 1 -
/libraries/qerzztc.php 3 http://site.ru
/images/DiaAmigoMarzo2013/p1110418.jpg 1 -
/test/wp-admin/ 2 -
/includes/fck2/_whatsnew.html 1 -
/media/logo_img.php 2 http://site.ru
/modules/mod_simplefileuploadv1.3/elements/udd.php 1 -
/term/popup-pomo.php 1 http://site.ru
/administrator/logo_img.php 1 -
/phpmail/popup-pomo.php 2 http://site.ru
/wp/wp-admin/ 1 -
/modules/mod_simplefileuploadv1.3/elements/mds_v3.php 1 -
/wp-includes/wp-pages.lib.php 1 cepeniel.org
/plugins/editors-xtd/xhmskkz.php 3 http://site.ru
/wp-admin/admin-ajax.php 4 -
/old/wp-admin/setup-config.php 1 -
/administrator/components/com_banners/views/sun.php 2 http://site.ru
/components/com_banners/helpers/Mdama.php 1 http://site.ru
/wp-content/plugins/revslider/temp/update_extract/Uploader.php 2 -
/templates/webcore_beginning/css/template.css 2 -
/ckeditor/editor/dialog/fck_about.html 1 -
/ssegtj/map.php 2 http://site.ru
//templates/beez3/index.php 1 -
/data/upload/resource/no_photo_male.png 1 -
/plugins/reflex-gallery/admin/scripts/FileUploader/php.php 1 http://www.cepeniel.org/plugins/reflex-gallery/admin/scripts/FileUploader/php.php
/inc/editor/ 1 -
/wp-content/plugins/wp-mailinglist/vendors/uploadify/upload.php 1 http://www.cepeniel.org/wp-content/plugins/wp-mailinglist/vendors/uploadify/upload.php
/site/wp-admin/setup-config.php 1 -
/cmscore/logo_img.php 4 http://site.ru
/http:/ 2 -
/images%5Ciglesia.jpg 1 http://www.cepeniel.org/index.php
/includes/FCKeditor/editor/dialog/fck_about.html 1 -
/login 5 -
/libraries/legacy/log/js.php 2 http://site.ru
/administrator/components/com_categories/ofnna.php.suspected 3 http://site.ru
/toolsa/popup-pomo.php 3 http://site.ru
/logs/avprvmx.php 1 http://site.ru
/baws.php.suspected 2 http://site.ru
/administrator/components/com_joomlaupdate/config.php 1 cepeniel.org
/language/logo_img.php 1 http://site.ru
/components/com_finder/qdedr.php 1 http://site.ru
/images/presentacion/serie%20corazon%20de%20atleta%20web.jpg 2 http://www.cepeniel.org/index.php
/includes/_whatsnew.html 1 -
/wss.php 3 http://site.ru
/js/ 1 -
/templates/t3_blank/images/themes/dark/ico/htaccess.php 6 http://site.ru
/logo_img.php 1 -
/networka/popup-pomo.php 1 http://site.ru
/actions/logo_img.php 2 http://site.ru
/diZPqEAuJM.jsp/ 1 -
/administrator/components/com_redirect/helpers/html/htaccess.php 1 http://site.ru
/info.php.suspected 1 http://site.ru
/images/banners/voyqhvw.php 2 http://site.ru
/libraries/cms/component/htaccess.php 8 http://site.ru
/administrator/ykxoa.php 1 http://site.ru
/index 2 http://www.cepeniel.org/
/templates/beez3/index.php 7 http://site.ru
/xmlrpc/kzeaz.php 1 http://site.ru
/libraries/system_info.php 2 http://site.ru
http://www.cepeniel.org/index.php 2 http://www.cepeniel.org/index.php
/media/system/images/map.php 1 http://site.ru
/administrator/components/com_admin/views/mebug.php 1 http://site.ru
/components/com_newsfeeds/helpers/wp-class.php 2 http://site.ru
/administrator/components/com_installer/views/update/tmpl/htaccess.php 1 http://site.ru
/wp-content/plugins/reflex-gallery/admin/scripts/FileUploader/php.php 1 http://www.cepeniel.org/wp-content/plugins/reflex-gallery/admin/scripts/FileUploader/php.php
/lsn_an.php.suspected 1 http://site.ru
/administrator/templates/hathor/html/com_modules/positions/htaccess.php 4 http://site.ru
/includes/rsq.php 2 http://site.ru
/wp-content/themes/evolve/js/back-end/libraries/fileuploader/upload_handler.php 1 http://www.cepeniel.org/wp-content/themes/evolve/js/back-end/libraries/fileuploader/upload_handler.php
/components/com_djimageslider/Marvins.php 1 http://site.ru
/index.php+[PLM=0][R]+POST+http://www.cepeniel.org/index.php+[R=303][0,0,304]+-%3E+[R]+GET+http://www.cepeniel.org/index.php 3 http://www.cepeniel.org/index.php+[PLM=0][R]+POST+http://www.cepeniel.org/index.php+[R=303][0,0,304]+-%3E+[R]+GET+http://www.cepeniel.org/index.php
/CFIDE/scripts/ajax/ 1 -
/loggin.html 2 -
/wp-content/themes/cameleon/includes/fileuploader/upload_handler.php 1 http://www.cepeniel.org/wp-content/themes/cameleon/includes/fileuploader/upload_handler.php
/component/users/ 4 -
/profile 2 -
/administrator/components/com_banners/helpers/html/1.php 1 http://site.ru
/libraries/joomla/github/package/orgs/svpkmz.php 3 http://site.ru
/scripts/popup-pomo.php 4 http://site.ru
/users/login 1 -
/templates/themza_j15_19/tlwvoa.php 2 http://site.ru
/fckeditor/editor/dialog/fck_about.html 1 -
/register.html 2 -
/network/popup-pomo.php 1 http://site.ru
/phpMyAdmin/index.php 1 -
/site/wp-includes/wlwmanifest.xml 1 -
/Fck/editor/dialog/fck_about.html 1 -
/components/com_jce/editor/tiny_mce/plugins/nonbreaking/htaccess.php 1 http://site.ru
/wp/wp-includes/wlwmanifest.xml 1 -
/modules/mod_kankod_copyrights/ystvq.php 2 http://site.ru
/fckeditor/_whatsnew.html 1 -
/Admin/ 1 -
/FCK/editor/dialog/fck_about.html 1 -
/mrswenvsr.php.suspected 1 http://site.ru
/components/com_content/views/category/.message.php 1 http://site.ru
/old/wp-admin/ 1 -
/libraries/joomla/template/mark.php 1 http://site.ru
/administrator/components/com_modules/helpers/mdexer.php 2 http://site.ru
/test/wp-admin/setup-config.php 1 -
/includes/fck/editor/dialog/fck_about.html 1 -
/images/system_img.php 2 http://site.ru
/js/lib/ 1 -
/joomla_hashes.php 1 -
/.libs.php 1 -
/gcjoadmin/inc/grouplist.txt 1 -
/components/com_jshopping/templates/default/content/Dwsonv.php 4 http://site.ru
/administrator/index.php:info 2 cepeniel.org
/lib/ 1 -
/plugins/installer/webinstaller/css/1.php 1 http://site.ru
/Rjsbgd.php 2 http://site.ru
/adm/ 1 -
/registration-form 2 -
/includes/FCK/editor/dialog/fck_about.html 1 -
/baws.php 2 http://site.ru
/themesa/popup-pomo.php 1 http://site.ru
/wp-content/themes/ut-strange/addpress/css/style.css 1 http://www.cepeniel.org/wp-content/themes/ut-strange/addpress/css/style.css
/marvins.php.suspected 1 http://site.ru
/phpMyAdmin 1 http://www.cepeniel.org/phpMyAdmin
/media/jui/img/bixck.php 2 http://site.ru
/menusa/popup-pomo.php 2 http://site.ru
/administrator/language/xpxty.php 1 http://site.ru
/administrator/components/com_akeeba/bvlaco.php 2 http://site.ru
/administrator/components/com_newsfeeds/models/fields/content-post.php 1 http://site.ru
/ogone/popup-pomo.php 1 http://site.ru
/FCKeditor/_whatsnew.html 1 -
/paypal/popup-pomo.php 2 http://site.ru
/xmlrpc/logo_img.php 6 http://site.ru
/revision/popup-pomo.php 2 http://site.ru
/administrator/components/com_installer/views/languages/tmpl/htaccess.php 1 http://site.ru
/checkadmin/ 1 -
/manage/ 1 -
/registration 2 http://cepeniel.org/registration
/js.php 3 http://site.ru
/includes/FCK/_whatsnew.html 1 -
/htaccess.php 2 http://site.ru
/wp-content/plugins/showbiz/temp/update_extract/Uploader.php 2 -
/component/users 3 -
/system/ 1 -
/wordpress/wp-admin/setup-config.php 1 -
/wp 1 -
//images/xxu.php 3 -
/includes/Fck/_whatsnew.html 1 -
/previous.html 4 -
/search.php 1 cepeniel.org
/app/system/include/static/img/user.jpg 1 -
/includes/ckeditor/_whatsnew.html 1 -
/modules/mod_ariimageslidersa/mod_ariimageslidersa.php 2 http://site.ru
/login-form 1 -
/wp-admin/ 2 -
/images/xcptjk.php 2 http://site.ru
/administrator/components/com_admin/sql/updates/sqlazure/htaccess.php 2 http://site.ru
/libs.php 1 -
/wso.php 4 -
/usi.php.suspected 1 http://site.ru
/wp-content/themes/atom/uploadify/uploadify.css 1 http://www.cepeniel.org/wp-content/themes/atom/uploadify/uploadify.css
/editor/dialog/fck_about.html 1 -
/pressthis/popup-pomo.php 2 http://site.ru
/includes/fckedit/_whatsnew.html 1 -
/includes/Fck/editor/dialog/fck_about.html 1 -
/ekomi/popup-pomo.php 1 http://site.ru
/abc.php 1 cepeniel.org
/dede/inc/grouplist.txt 4 -
/cms/wp-includes/wlwmanifest.xml 1 -
/admin_manage/ 1 -
/components/read.php 1 http://site.ru
/components/com_weblinks/views/category/tmpl/esef.php 1 http://site.ru
/moderator/ 1 -
//www.cepeniel.org/index.php+[R=303][0,0,304]+-%3E+[R]+GET+http://www.cepeniel.org/index.php 2 http://www.cepeniel.org//www.cepeniel.org/index.php+[R=303][0,0,304]+-%3E+[R]+GET+http://www.cepeniel.org/index.php
/components/com_ckeditor/Dnewv.php 1 http://site.ru
/libraries/import.php:info 2 cepeniel.org
/scripts/ 1 -
/includes/FCKeditor/_whatsnew.html 1 -
/index.php 1199 http://www.cepeniel.org/index.php
/plugins/editors/tinymce/jscripts/tiny_mce/plugins/tinybrowser/js/map.php 2 http://site.ru
/sysadmin/ 1 -
/libraries/logo_img.php 1 http://site.ru
/_whatsnew.html 1 -
/scriptsa/popup-pomo.php 2 http://site.ru
/templates/beez3/css/Marvins.php 1 http://site.ru
/menus/popup-pomo.php 2 http://site.ru
/wp-content/plugins/photo-gallery/filemanager/UploadHandler.php 1 http://www.cepeniel.org/wp-content/plugins/photo-gallery/filemanager/UploadHandler.php
/fck2/_whatsnew.html 1 -
//index.php 2 -
END_SIDER_404

# Host - Pages - Hits - Bandwidth - Last visit date - [Start date of last visit] - [Last page of last visit]
# [Start date of last visit] and [Last page of last visit] are saved only if session is not finished
# The 25 first Hits must be first (order not required for others)
BEGIN_VISITOR 1481
130.211.138.158 20224 20224 17879059 20171130235813
104.154.198.228 18631 18631 18290484 20171130235523
146.148.67.171 6171 6171 4498659 20171130235433
37.57.45.247 1194 1194 39834825 20171129024836
185.202.103.8 316 316 9805458 20171130233801
188.165.208.29 243 243 8585278 20171107215613
188.165.233.228 242 242 8551467 20171119230018
35.195.217.174 217 217 2171076 20171105150838
185.202.103.36 170 170 5223328 20171130152816
193.201.224.201 164 164 4924603 20171130204411
109.86.72.163 129 129 3904236 20171127140916
212.86.109.70 128 128 3671815 20171130141228
95.211.134.12 127 127 3761361 20171120134329
178.137.92.61 114 114 3509672 20171116043018
194.247.190.248 113 113 3224792 20171129102833
37.115.155.222 110 110 3348647 20171119063142
178.155.3.206 102 102 3163449 20171103055847
193.201.224.210 96 96 2490344 20171108145938
178.159.37.61 90 90 2700552 20171115100952
84.94.90.197 88 88 2564629 20171129013532
193.201.225.34 86 86 2687248 20171130025902
151.80.203.177 80 80 2570996 20171130050320
89.248.172.38 78 78 2279796 20171114175316
46.118.118.230 76 76 2323976 20171130174731
134.249.52.88 72 72 2216712 20171129075556
95.55.13.96 6 6 170612 20171102090922
84.53.198.106 2 2 9153 20171119092734
85.95.178.45 2 2 9153 20171124111225
185.63.255.201 1 1 30672 20171130082325
142.44.156.128 1 1 34205 20171104041433
204.79.180.12 0 8 48522 
62.210.111.1 6 6 184652 20171129171015
142.252.250.113 6 6 159836 20171106095159
90.150.254.110 2 2 9153 20171122073247
146.185.223.154 14 14 417490 20171123092250
204.79.180.4 0 2 84056 
209.7.140.15 12 12 341237 20171107021954
178.186.72.233 1 1 34205 20171126164230
145.255.2.67 10 10 289998 20171103044841
142.44.163.79 1 1 9662 20171112055613
104.144.183.16 4 4 120015 20171113012705
185.151.131.121 4 4 18306 20171120090614
195.98.68.176 1 1 16384 20171102122238
62.210.80.48 6 6 170616 20171128144959
94.46.13.130 1 1 34184 20171101085418
89.28.167.77 6 6 27459 20171118152708
31.8.80.0 2 2 9153 20171124230748
95.66.204.254 2 2 9153 20171101113820
46.182.28.171 1 1 7958 20171112134000
204.79.180.13 0 5 46851 
31.184.197.6 2 2 68410 20171118173344
206.180.165.147 1 1 9661 20171130133022
94.26.165.201 4 4 18306 20171119153219
181.208.17.118 2 84 1317810 20171102123552
213.87.120.47 6 6 181043 20171103020305
46.148.127.158 1 1 34200 20171117095510
178.71.197.129 3 3 88237 20171124195032
190.199.224.158 2 73 1085286 20171126073752
119.59.104.22 2 2 0 20171101152721
200.90.91.116 1 19 51486 20171126063732
178.159.37.105 6 6 181029 20171126221038
176.125.218.182 2 2 9153 20171105201658
176.214.149.214 11 11 331611 20171116235939
46.147.92.213 6 6 170622 20171125060012
195.22.125.116 1 1 31240 20171130150047
186.92.74.49 6 91 1466547 20171106090018
46.118.158.16 3 3 66973 20171124100916
77.57.42.8 1 1 30279 20171109004759
186.185.154.67 1 73 1243436 20171127203751
176.36.255.47 2 2 9153 20171106135803
190.87.58.9 1 60 686750 20171121212505
179.43.160.165 25 25 717020 20171129171955
182.118.20.151 1 30 253294 20171121194845
46.216.5.171 4 4 120034 20171123211613
176.32.149.62 2 2 9153 20171129140248
190.199.198.104 2 144 2485620 20171119074059
91.107.99.95 2 2 9153 20171122042559
13.57.13.193 1 1 9662 20171114214406
95.70.109.105 1 1 34205 20171120172904
217.23.12.155 2 2 9153 20171129133945
200.44.211.206 2 50 24584 20171119073711
182.253.114.34 1 1 2050 20171122115116
176.15.194.186 1 22 122201 20171101112739
46.158.69.51 4 4 120038 20171105210413
189.172.234.85 1 60 686747 20171112211857
13.82.234.232 44 44 1352290 20171129173843
188.235.141.43 4 4 18306 20171123045058
104.223.79.170 6 6 171149 20171109005549
200.93.8.16 7 102 1101389 20171126090724
217.118.79.42 2 2 9153 20171130211830
42.145.226.174 6 6 27459 20171130061422
178.90.252.166 3 3 85829 20171116152045
185.175.158.219 6 6 181033 20171126214148
51.15.65.43 19 19 565658 20171118165453
37.190.14.213 6 6 27459 20171109063105
201.210.87.209 2 75 1438537 20171108143257
192.241.247.30 1 30 468488 20171124115901
190.199.201.170 7 82 1275251 20171123062617
186.14.244.133 2 2 19320 20171125123703
94.251.118.150 6 6 170628 20171111221939
178.140.90.191 6 6 27459 20171130132647
204.194.29.4 1 1 9403 20171112143559
37.215.138.248 4 4 123621 20171130093145
190.199.247.102 1 1 12289 20171111061021
176.103.62.22 8 8 221525 20171101165406
186.185.187.124 1 72 1242807 20171105072231
109.60.155.212 4 4 18306 20171104014813
195.93.144.120 4 4 18306 20171118022051
92.50.223.91 5 5 139947 20171104011613
200.44.223.146 8 82 1452716 20171104193739
195.154.32.255 1 1 9672 20171113123543
109.187.105.162 2 2 9153 20171116063334
190.205.196.79 2 50 24582 20171112080427
217.126.5.224 1 1 1956 20171123204132
88.200.214.197 2 2 9153 20171122172809
109.106.142.107 1 1 4482 20171105105753
212.92.35.37 11 108 1660430 20171107085515
92.243.182.189 1 1 34205 20171103201503
85.113.138.28 5 5 154242 20171130103433
186.167.249.187 1 5 597269 20171124120421
190.206.23.94 1 72 1242809 20171116103633
5.166.118.199 2 2 9153 20171129204334
93.185.20.25 2 2 9153 20171101100825
176.194.99.236 10 10 290002 20171111074525
201.210.76.34 1 49 12293 20171112071803
185.101.32.75 6 6 171135 20171111182646
94.50.193.172 2 2 9153 20171113083252
185.64.220.113 3 3 83934 20171128072851
88.147.173.53 2 2 9153 20171130141220
178.137.164.252 24 24 738884 20171130204837
31.134.120.106 16 16 500651 20171123171830
95.163.30.33 5 5 139413 20171116232422
94.19.145.11 4 4 18306 20171127065035
5.254.97.83 6 6 27459 20171130232217
93.189.83.85 1 1 1956 20171123225525
190.205.228.32 1 72 933209 20171125173010
178.155.6.246 45 45 1426996 20171107045133
151.249.164.95 10 10 289993 20171110170413
139.59.114.21 2 2 2191 20171124053623
188.115.180.174 1 1 34205 20171106011710
46.147.47.56 1 1 34205 20171128195804
181.179.30.201 1 60 686742 20171108195835
83.149.45.154 2 2 9153 20171103075353
62.210.105.116 3 3 84523 20171124191649
201.232.240.73 7 182 2659366 20171108220308
176.226.133.75 2 2 9153 20171117065500
103.1.210.107 2 2 4007 20171123134631
200.109.31.233 1 45 83467 20171119051544
46.98.65.132 7 7 204839 20171119171818
146.185.223.123 32 32 943995 20171123091837
88.147.174.238 8 8 221654 20171125211542
178.71.198.41 8 8 221634 20171122214911
96.57.109.99 1 60 686743 20171115133229
195.22.126.22 4 4 108999 20171121085505
95.213.136.218 4 4 120038 20171105154000
89.130.82.109 1 1 9664 20171111115504
128.72.62.123 10 10 294195 20171102050419
178.159.37.165 7 7 189974 20171129152813
31.181.221.48 14 14 401285 20171127175217
110.80.1.54 1 1 9662 20171122080125
200.109.169.44 1 72 1242808 20171116102033
64.233.172.178 1 11 86244 20171108170330
46.216.0.54 2 2 50567 20171124152011
145.255.9.222 8 8 247134 20171125224710
31.130.22.140 4 4 110713 20171111083049
163.172.160.182 1 1 1958 20171123193402
178.62.227.93 5 105 2037536 20171123194331
77.127.149.240 10 10 290009 20171113143047
178.137.92.8 42 42 1293106 20171127134010
185.86.13.213 2 2 9153 20171129074355
185.188.182.33 1 1 9660 20171113071142
95.78.45.246 6 6 170626 20171121021320
176.125.218.152 2 2 9153 20171112191610
146.185.223.95 10 10 290547 20171112093910
188.64.174.135 2 2 68400 20171123130740
190.124.88.93 1 60 686735 20171104172837
73.156.225.159 1 60 686747 20171124172913
94.25.171.129 2 2 9153 20171122090827
94.240.187.155 10 10 293322 20171121215110
178.159.37.63 8 8 220161 20171114150534
198.55.113.228 6 6 170619 20171130062909
170.51.92.2 1 72 1242809 20171111113316
190.216.236.74 2 122 1394566 20171112061056
85.17.30.146 1 1 9660 20171109081318
195.22.126.21 12 12 344367 20171104132907
58.248.200.167 1 1 9658 20171127040216
14.215.176.15 0 4 82641 
94.41.148.242 6 6 169114 20171111053749
109.110.93.49 8 8 238241 20171106122225
148.251.54.44 2 2 61302 20171109004215
31.23.61.92 4 4 18306 20171120121512
181.41.204.146 13 13 371344 20171125003525
82.193.131.158 2 2 9153 20171109010226
91.189.181.22 3 3 63734 20171127114030
200.109.1.0 1 72 1242807 20171105070543
217.79.12.29 2 2 9153 20171116221502
94.180.147.3 1 1 34205 20171120231833
195.234.87.211 1 1 26790 20171127043809
178.65.159.131 2 2 9153 20171119110437
66.249.88.18 15 400 6500237 20171129082848
185.85.191.201 2 2 9153 20171122073100
204.79.180.8 0 1 2365 
187.160.245.156 1 1 1955 20171122130905
162.248.46.18 0 29 152780 
185.174.137.249 1 1 34205 20171111094612
204.79.180.14 0 4 6839 
66.249.88.21 1 19 562631 20171104170317
155.4.222.151 1 1 34205 20171130061806
31.47.117.19 2 2 9153 20171116090448
178.159.37.124 1 1 34200 20171104092649
208.104.48.119 1 70 1239172 20171125170428
45.123.0.86 3 3 96672 20171112010148
155.94.222.71 2 2 61328 20171103113536
95.105.26.96 4 4 122264 20171127220146
46.159.239.80 2 2 9153 20171104075107
188.19.201.206 2 2 9153 20171122023426
178.47.93.122 2 2 9153 20171122195302
151.0.39.74 11 11 302144 20171103115435
200.93.20.200 6 90 1459885 20171109083602
200.44.204.77 8 87 1470353 20171120050617
46.242.15.63 2 2 9153 20171105055925
178.207.64.29 2 2 9153 20171102165730
201.249.78.105 1 61 826068 20171117072350
45.32.144.221 1 1 9669 20171107221321
88.147.152.244 2 2 9153 20171106182127
190.15.38.240 2 2 3912 20171123215004
77.243.183.168 6 6 170590 20171120041825
62.183.86.157 2 2 9153 20171129110248
46.148.112.137 1 1 34205 20171120185122
103.242.51.134 2 2 3912 20171124234443
109.195.85.122 17 17 484696 20171130074623
188.18.243.136 2 2 9153 20171117120237
89.208.144.126 2 2 51147 20171116232725
188.138.184.35 48 48 1489753 20171129083318
182.16.175.2 1 1 2050 20171123085421
178.155.6.62 37 37 1154604 20171114024530
62.112.118.38 8 8 36612 20171128224213
66.249.85.9 1 43 232532 20171109125239
172.58.84.139 1 72 1242809 20171119203418
2.94.218.209 2 2 9153 20171119092259
91.192.171.102 4 4 18306 20171103102417
83.169.38.204 1 1 34200 20171122224326
114.134.190.28 3 3 88050 20171123113548
179.156.185.216 14 14 64071 20171129112132
93.85.56.219 5 5 154162 20171102073526
194.242.11.13 4 4 120019 20171105094806
66.249.85.13 0 28 677720 
103.239.55.101 11 11 203725 20171121162018
156.67.106.95 4 4 112619 20171121084237
94.255.64.124 2 2 9153 20171106045259
190.206.114.223 12 114 1765257 20171103115349
91.233.220.10 22 22 652605 20171109190310
212.164.94.132 4 4 18306 20171130064325
103.40.226.11 2 2 4009 20171124234446
95.163.30.27 12 12 318795 20171127015611
145.255.2.8 6 6 181030 20171129090339
37.23.206.212 8 8 220184 20171121161906
178.159.37.129 6 6 184593 20171129165624
91.241.228.75 12 12 341265 20171117021357
8.28.16.254 10 10 449705 20171124125823
31.181.23.2 2 2 9153 20171109110824
109.188.64.73 8 8 36612 20171127104252
37.204.50.214 4 4 127924 20171104111750
188.170.194.131 2 2 9153 20171111235110
5.141.228.53 12 12 349773 20171107134520
178.155.6.213 18 18 565638 20171108181752
200.1.171.141 0 3 97344 
176.197.163.250 14 14 64071 20171130151534
186.167.248.185 1 72 1242812 20171110083056
185.85.190.132 2 2 9153 20171104091245
178.186.120.151 3 3 68008 20171117123455
200.114.222.228 2 75 1376734 20171120121159
88.147.153.230 24 24 682458 20171107021805
94.29.126.33 4 4 18306 20171123032854
94.41.149.113 10 10 290039 20171129212240
190.207.204.209 1 60 686734 20171102200047
194.183.169.29 5 5 154242 20171108190140
190.204.252.162 2 13 58469 20171107073818
37.112.63.219 12 12 369448 20171117205809
37.187.116.199 6 6 181031 20171118161637
145.255.9.70 4 4 120036 20171130014255
95.215.61.112 2 2 68410 20171115023713
190.203.95.156 1 73 1243435 20171105081729
64.233.172.176 0 28 402381 
106.38.241.140 1 1 9663 20171109070914
200.8.255.98 4 122 1559511 20171107134817
190.205.224.22 8 157 2677929 20171119081732
81.211.92.154 4 4 18306 20171130085759
190.204.226.99 3 82 1422628 20171105140944
46.22.87.166 2 2 2187 20171123145642
201.184.72.34 2 2 50590 20171119051412
188.68.221.152 2 2 9153 20171128091725
217.118.91.43 2 2 9153 20171117005113
186.108.185.54 1 1 34200 20171118071658
36.67.24.255 2 2 50585 20171113164826
217.118.90.236 2 2 9153 20171107064201
176.214.121.81 8 8 220726 20171129103316
176.110.122.124 4 4 18306 20171115070749
46.63.219.144 2 2 9153 20171122024347
190.39.52.238 1 57 626238 20171121111714
115.239.138.180 1 1 1955 20171123120834
185.224.133.183 8 8 232771 20171112155642
145.255.9.101 8 8 247321 20171117220852
37.53.20.98 3 3 9153 20171126121154
82.208.127.205 2 2 9153 20171105102229
172.58.175.54 1 61 697291 20171124183457
188.162.192.115 2 2 9153 20171129183514
31.28.113.97 8 8 36612 20171118094948
31.163.147.200 2 2 9153 20171115070647
94.242.252.46 2 2 9153 20171119140844
109.195.183.85 6 6 27459 20171128064412
146.185.223.105 13 13 360597 20171111052344
155.133.82.64 2 2 62475 20171122154623
66.249.85.7 1 35 689279 20171109125224
178.62.91.192 4 4 120036 20171103160035
91.222.80.21 6 6 169620 20171102141039
200.71.232.114 2 64 1124312 20171122065240
213.21.30.95 9 9 260770 20171102122819
190.199.206.251 2 63 710535 20171112082516
178.137.130.211 8 8 221611 20171127013752
2.62.250.16 2 2 9153 20171103025912
185.17.157.199 2 2 68410 20171121073853
83.149.44.114 2 2 9153 20171101024254
190.199.196.208 2 62 709576 20171105061214
5.254.97.84 4 4 123718 20171129015900
217.172.120.18 2 2 4003 20171123225528
191.191.84.58 1 1 34205 20171112133806
200.8.171.108 4 91 1458967 20171113142841
128.72.178.85 2 2 9153 20171104040426
178.75.80.43 2 2 9153 20171107102915
213.87.225.170 2 2 9153 20171105120434
31.132.182.222 2 2 9153 20171124093537
186.167.245.146 1 60 782296 20171106043630
82.114.250.69 2 2 9153 20171107093557
85.115.224.199 2 2 9153 20171114091949
176.214.136.143 6 6 170594 20171121163727
190.199.192.103 2 75 1376509 20171122090221
190.38.48.56 4 81 1305075 20171112070929
95.188.193.112 2 2 9153 20171101001104
5.138.51.148 2 2 9153 20171118054702
94.231.151.120 67 67 1965987 20171130023855
78.110.166.59 3 3 102556 20171101204627
78.110.166.52 5 5 171010 20171130225507
204.79.180.10 0 2 0 
186.167.244.22 1 60 686735 20171105190911
88.147.153.197 2 2 9153 20171114114230
178.137.177.108 3 3 102552 20171102014647
104.236.141.156 3 3 84523 20171127065424
146.185.223.5 2 2 68400 20171123155841
194.0.52.2 8 8 36612 20171129210618
176.108.5.212 16 16 450556 20171115192121
77.123.30.7 1 1 7954 20171103122756
146.185.223.187 57 57 1683714 20171125063045
79.173.127.46 2 2 9153 20171123041219
195.238.108.89 10 10 293357 20171113212753
5.19.7.124 2 2 9153 20171108023012
2.36.180.203 2 2 9153 20171107081600
185.159.158.100 6 6 181001 20171102125011
79.126.110.131 2 2 9153 20171129234338
82.63.22.36 1 59 693654 20171105183337
94.50.198.195 2 2 9153 20171107165215
190.199.244.91 2 56 771004 20171123091620
45.5.31.253 1 60 686740 20171107110559
46.147.91.68 6 6 170583 20171112101447
146.185.201.77 1 1 34200 20171127120215
192.200.26.250 6 6 170629 20171119175024
95.52.218.23 2 2 9153 20171129094148
37.139.101.63 10 10 288731 20171118085541
77.34.10.29 4 4 18306 20171121215950
196.15.243.18 2 2 62052 20171109121711
85.235.55.225 3 3 96507 20171108155715
200.109.8.214 0 3 21987 
180.254.252.93 2 2 9153 20171113013354
190.76.250.49 9 108 1612972 20171106162523
190.52.97.68 5 93 1510911 20171130133804
46.148.120.100 1 1 34200 20171127115655
196.19.159.235 1 1 9664 20171103220241
204.79.180.0 0 8 62813 
95.107.55.140 10 10 290005 20171128000533
89.189.181.43 2 2 9153 20171101011806
79.140.161.104 21 21 592969 20171115130301
201.211.109.214 2 70 759113 20171101195130
190.206.13.118 9 109 1791867 20171121134829
109.254.185.60 1 1 2048 20171123182613
141.105.64.97 5 5 143087 20171112004602
78.107.238.52 7 7 205849 20171115000311
209.58.142.157 6 6 184696 20171103145534
177.136.252.7 1 1 2051 20171124112652
188.187.161.229 2 2 9153 20171119060105
5.9.106.81 1 1 30749 20171108081232
95.163.5.182 6 6 168074 20171128045146
89.237.29.174 10 10 45765 20171109125827
93.84.39.23 4 4 120040 20171104133447
46.216.11.49 4 4 120040 20171117073607
77.222.97.10 2 2 9153 20171102071820
178.43.28.71 8 8 685880 20171116120559
194.44.247.218 1 1 34200 20171126073931
80.251.112.198 20 20 91530 20171123203838
77.66.140.109 2 2 9153 20171110113216
186.167.245.124 1 71 1181782 20171124045429
190.206.9.137 1 1 9662 20171115195402
45.55.86.49 2 2 4097 20171124191137
89.233.179.81 15 15 441732 20171129221741
178.43.48.118 8 8 213299 20171114030159
84.229.130.61 6 6 169677 20171118131625
200.124.153.206 3 3 84789 20171122200321
109.184.114.219 2 2 9153 20171117002648
46.161.9.60 16 16 464990 20171130041701
204.79.180.19 0 4 43969 
145.255.9.5 8 8 247152 20171121185415
190.212.67.150 1 61 697284 20171126071520
178.159.43.251 1 1 7960 20171112133853
199.19.104.163 3 3 28986 20171118161746
77.37.220.101 0 2 3970 
23.129.64.12 3 3 84523 20171103220157
5.137.71.244 2 2 9153 20171117014545
185.17.157.196 7 7 204782 20171111163922
66.129.161.150 1 31 533961 20171128095515
201.247.46.163 1 54 659845 20171105112707
62.33.49.153 6 6 27459 20171128111600
37.233.20.3 4 4 123261 20171105050717
223.207.22.124 2 2 9153 20171124004525
142.252.248.113 6 6 184724 20171107204747
14.215.176.19 0 3 7603 
82.193.109.246 10 10 304609 20171118112000
201.210.83.90 1 37 13089 20171106184554
23.254.164.219 2 2 36299 20171117071807
109.173.125.248 11 11 744194 20171122125236
84.33.8.5 1 1 34205 20171114185421
5.206.236.23 6 6 27459 20171116155739
88.147.141.170 6 6 184612 20171103220139
95.79.12.84 3 3 83763 20171114225104
200.44.205.49 1 29 185635 20171127093444
217.70.28.155 28 28 802426 20171121014022
178.45.54.210 8 8 238248 20171126074013
204.79.180.3 0 3 3059 
66.249.88.12 13 379 4636394 20171128173853
80.78.73.116 1 1 9661 20171113063146
37.212.68.204 2 2 9153 20171115124735
190.131.37.27 1 72 1242812 20171104165258
213.239.205.118 2 2 59543 20171116073812
37.110.15.160 1 1 34205 20171109123453
106.38.241.103 1 1 9663 20171127144027
151.249.180.226 6 6 170622 20171125042350
36.37.180.59 2 2 62274 20171122083046
178.43.55.99 4 4 111293 20171111195601
84.33.8.3 3 3 102599 20171122042557
94.29.126.156 2 2 9153 20171110005956
176.36.30.174 5 5 154244 20171130235109
95.163.30.23 2 2 50588 20171121002027
87.255.31.142 6 6 27459 20171119155811
178.45.51.54 4 4 120042 20171128130530
190.199.203.61 4 146 2504941 20171112075727
37.190.52.224 0 2 2365 
91.90.13.70 8 8 36612 20171129130347
46.242.9.210 2 2 9153 20171104054158
194.33.84.69 12 12 324701 20171127065607
5.157.1.187 1 1 34205 20171112152701
178.155.6.120 30 30 939921 20171108225941
186.93.54.139 1 55 739819 20171115141912
93.77.116.98 21 21 630868 20171130232148
195.225.231.214 36 36 1007720 20171118183753
46.31.30.194 8 8 237200 20171114105018
91.207.249.7 2 2 19325 20171109022152
89.223.47.201 9 9 246951 20171125044907
91.144.149.126 16 16 73224 20171128233923
178.206.53.130 2 2 9153 20171110131106
186.88.193.217 1 61 650288 20171117220558
200.109.31.42 1 61 697285 20171129144422
222.124.22.133 1 1 1956 20171124042940
82.202.205.10 4 4 120038 20171122112601
213.242.27.85 10 10 290576 20171122182500
66.249.80.14 0 5 373022 
201.249.31.72 3 148 2499879 20171119081527
188.162.166.53 2 2 9153 20171129064753
5.101.222.46 1 1 34200 20171117095114
156.67.106.100 4 4 130899 20171104133016
113.66.10.103 6 6 184562 20171119235912
62.109.7.238 3 3 0 20171102070144
200.69.219.209 1 60 686742 20171114123413
83.234.149.161 4 4 120038 20171127185400
139.59.149.99 1 1 9662 20171120045205
194.187.170.143 16 16 233764 20171120082850
43.240.102.34 1 1 1955 20171124165542
94.233.224.39 4 4 118221 20171122212110
200.35.85.165 10 347 2550612 20171124170620
178.218.28.233 2 2 9153 20171123025639
190.199.224.7 2 29 176464 20171114135305
109.196.253.72 1 1 34205 20171127043742
77.234.42.181 1 71 1241983 20171116130937
188.234.177.242 12 12 341235 20171114220016
104.202.122.130 1 1 9663 20171126213742
146.185.223.45 3 3 103797 20171123080027
31.185.13.212 2 2 9153 20171126095341
194.187.170.130 3 3 24378 20171108145919
145.255.2.45 10 10 290046 20171123070818
37.78.104.34 2 2 9153 20171125122915
104.223.79.150 16 16 154598 20171123061110
204.79.180.11 0 7 16122 
147.30.7.41 2 2 9153 20171103005520
103.12.177.110 1 1 1958 20171124201750
84.33.8.9 6 6 170627 20171127215042
190.199.226.80 2 79 1288697 20171128070030
177.107.128.59 5 5 146805 20171111035715
94.154.84.83 4 4 120022 20171122071102
65.214.68.133 3 3 84508 20171103104027
178.155.6.252 30 30 935788 20171118040540
179.7.8.159 1 50 12846 20171114120925
178.215.97.88 4 4 18306 20171111031811
188.16.120.160 4 4 18306 20171130060355
36.57.179.192 4 4 116177 20171124064533
64.173.188.21 1 1 1956 20171122091545
66.249.93.222 1 20 254221 20171113010008
200.8.222.202 1 72 1242806 20171128194637
178.74.243.246 2 2 11630 20171117112705
178.155.6.81 28 28 881679 20171107080255
176.100.111.30 20 20 594605 20171127220340
136.169.188.17 16 16 490903 20171129021005
178.155.6.76 14 14 437703 20171110095537
200.44.196.76 1 61 697290 20171121232428
176.193.197.128 4 4 120038 20171129042203
178.252.205.27 2 2 9153 20171111153917
190.53.16.179 1 39 598012 20171123191534
194.67.220.50 4 4 120018 20171130231815
95.105.6.246 1 1 7957 20171118144319
195.191.158.223 4 4 18306 20171129072401
185.20.184.72 6 6 155227 20171123231151
5.101.217.93 4 4 120036 20171120184431
176.120.38.254 9 9 260823 20171119062017
186.185.84.106 1 54 662292 20171106230253
69.39.239.57 1 1 34205 20171122183300
195.191.104.85 2 2 17625 20171128090742
190.203.37.133 3 67 37208 20171119202404
183.36.114.159 2 144 2485619 20171125074614
185.212.169.148 1 1 34205 20171122000050
62.149.29.52 12 12 369430 20171130201839
93.185.29.65 2 2 9153 20171102193925
201.211.97.220 1 72 1242808 20171127093237
190.198.216.72 1 57 682782 20171109103944
89.70.29.159 4 4 119954 20171101063921
107.167.106.221 1 50 300561 20171106104940
93.185.17.51 2 2 9153 20171125051459
209.85.238.16 1 1 53 20171130071831
201.219.233.25 1 72 1242807 20171118140529
146.185.223.166 36 36 1052990 20171123090514
142.44.156.249 2 2 19325 20171127134041
93.85.57.156 3 3 96491 20171124230004
188.16.122.107 2 2 9153 20171119163817
54.167.103.110 4 4 36850 20171117190017
193.201.224.195 24 24 738410 20171121190112
103.78.53.79 2 2 57733 20171120132549
146.185.200.34 1 1 9665 20171102184810
156.67.106.102 4 4 130895 20171104133422
5.228.14.226 6 6 170618 20171128084530
134.249.55.242 12 12 369440 20171116121123
5.101.217.54 2 2 50567 20171124171157
14.215.176.5 0 8 46511 
109.196.77.243 2 2 9153 20171109195856
148.251.75.46 2 2 60859 20171120051014
146.185.223.146 3 3 50110 20171104074430
188.186.2.233 2 2 9153 20171117105135
94.25.171.75 2 2 9153 20171128011329
188.163.98.202 1 1 34200 20171103040126
31.8.205.43 2 2 9153 20171115083816
81.162.224.132 10 10 279797 20171113000908
31.173.81.21 2 2 9153 20171129144641
201.249.28.251 0 12 143794 
36.67.64.129 2 2 57733 20171113164438
31.148.10.131 2 2 9153 20171126025818
176.110.129.2 12 12 360081 20171117110826
61.187.123.141 1 1 9661 20171122072853
93.78.189.154 4 4 120015 20171117222616
193.194.87.227 1 1 1959 20171121181811
46.32.85.92 6 6 181029 20171127032612
145.239.89.244 1 1 9661 20171113032626
149.56.135.217 1 1 9662 20171111123459
95.27.255.47 0 4 87301 
212.129.34.118 1 1 34205 20171112230037
109.63.197.187 2 2 9153 20171116034242
178.45.41.241 2 2 9153 20171130031813
5.101.222.111 1 1 34205 20171124172708
62.148.132.100 4 4 18306 20171115184537
206.53.226.251 2 61 699593 20171113090914
186.95.193.166 1 1 9663 20171130132834
190.199.243.31 1 66 582470 20171105073535
46.33.41.175 2 2 9153 20171116154316
186.92.64.210 1 60 686746 20171128074558
178.34.5.212 6 6 184556 20171123081527
88.200.136.163 2 2 9153 20171103033643
132.147.66.18 1 1 9657 20171105213319
218.30.103.165 1 1 9661 20171120195414
54.190.117.119 1 1 9663 20171109204902
186.6.35.210 2 74 1253100 20171126073159
38.100.21.65 2 11 115314 20171105110134
46.148.127.237 2 2 51117 20171120192224
5.188.211.72 1 1 12803 20171107055407
109.236.8.10 2 2 19329 20171128054219
210.101.131.231 1 1 2057 20171123134756
188.162.229.6 2 2 9153 20171112185727
212.3.130.83 2 2 9153 20171105234104
179.43.143.179 3 3 102600 20171121180811
176.108.5.190 4 4 110736 20171117020531
36.57.178.235 4 4 116319 20171113205523
46.146.47.94 2 2 9153 20171120044314
190.184.200.182 1 1 34184 20171101051534
109.169.146.223 2 2 9153 20171112222826
178.91.223.138 2 2 9153 20171123070244
69.196.253.100 6 6 23873 20171128092339
77.243.183.20 8 8 238229 20171120061338
91.121.88.41 1 1 34200 20171128105119
46.99.82.241 2 2 9153 20171114175805
109.123.117.171 12 12 375833 20171129090444
190.203.33.67 4 152 2538980 20171112074617
5.19.7.252 2 2 9153 20171122122440
178.129.198.107 2 2 9153 20171102113706
178.167.36.253 2 2 9153 20171120100828
185.17.157.198 1 1 34205 20171130070206
171.6.240.2 4 4 120017 20171123230135
188.17.80.34 4 4 18306 20171116015425
52.174.89.111 4 4 120036 20171126022602
91.200.12.7 12 12 362025 20171130000436
184.22.248.247 6 6 180937 20171102042326
168.128.29.75 2 2 4099 20171124010820
178.159.37.17 4 4 120035 20171130224239
177.131.51.155 1 1 34205 20171127212851
204.79.180.1 1 2 10163 20171125200215
213.4.207.130 3 87 1451733 20171117020342
188.120.198.193 1 1 2051 20171125005141
78.155.222.186 10 10 315563 20171114224902
200.90.76.117 1 72 1242805 20171112061417
77.243.183.89 4 4 123559 20171129200756
92.37.142.199 6 6 182291 20171112181348
37.115.190.154 13 13 266455 20171124123530
95.84.25.5 16 16 459698 20171130032345
176.227.188.66 1 1 2049 20171124042949
136.169.199.113 6 6 184536 20171103164652
107.178.4.109 1 1 1955 20171121221723
89.208.144.92 5 5 124984 20171122055425
31.181.249.250 5 5 139802 20171108113601
185.153.197.44 20 20 589906 20171127123053
41.58.155.102 1 1 1956 20171122075740
95.70.31.133 2 2 9153 20171108071117
80.246.95.229 4 4 18306 20171120011454
188.235.120.8 2 2 9153 20171120014702
66.102.8.46 0 50 381655 
179.43.143.184 3 3 102610 20171114231526
190.199.232.148 2 66 711125 20171108090341
82.114.95.85 2 2 9153 20171112140452
46.99.16.198 2 2 9153 20171108064419
46.242.63.61 39 39 1090241 20171123141350
188.163.109.0 24 24 731438 20171120043201
75.149.221.170 8 8 228364 20171122115617
66.249.83.68 0 1 82635 
178.155.6.1 9 9 285588 20171113071026
181.115.31.249 1 37 571384 20171120131052
188.230.21.78 5 5 152205 20171126042217
89.169.219.31 6 6 167821 20171113084429
162.244.15.123 12 12 365514 20171104095411
201.76.9.56 2 2 4007 20171124000313
195.22.126.38 4 4 130895 20171104132954
95.27.243.37 0 15 356977 
217.118.91.61 2 2 9153 20171120002134
95.78.46.45 6 6 170612 20171115103546
188.235.158.243 2 2 9153 20171127095312
89.35.52.133 13 13 378209 20171111040951
82.131.80.64 4 4 120013 20171114234909
36.67.129.77 2 2 4006 20171124212623
190.196.130.58 1 60 686747 20171123083653
178.207.230.15 2 2 9153 20171102091143
51.15.95.121 57 57 1643000 20171130155051
213.24.127.167 2 2 9153 20171102162354
95.78.7.197 1 1 34200 20171119025104
204.69.221.2 4 4 0 20171128082808
204.79.180.5 0 4 47996 
84.19.181.25 1 1 34200 20171122170830
188.32.189.202 1 25 207135 20171107061045
66.249.88.22 0 32 440788 
185.153.197.46 46 46 1314235 20171128062545
176.119.77.134 4 4 120034 20171114075712
212.3.130.63 2 2 9153 20171126042720
145.239.89.246 1 1 9664 20171113220500
178.155.6.84 2 2 9153 20171123054417
186.156.36.142 1 60 686740 20171104231818
185.119.81.50 2 2 9153 20171113021047
46.47.38.86 2 2 9153 20171103140135
217.69.143.217 1 1 9661 20171107233359
178.155.102.203 24 24 748195 20171121065043
46.188.73.70 1 25 204883 20171106083519
67.197.237.134 2 2 56167 20171120133357
200.46.94.194 6 6 184573 20171120092215
62.122.208.147 2 2 9153 20171109235739
136.24.133.49 2 2 62281 20171120231403
37.115.194.38 16 16 459814 20171128212905
156.67.106.103 4 4 116174 20171119130726
154.72.48.214 1 1 2051 20171123193411
189.249.165.102 1 57 687951 20171123161441
190.206.115.190 1 60 782283 20171128101958
169.50.62.68 15 15 453214 20171110144128
78.132.235.196 2 2 9153 20171101015615
179.153.20.222 4 4 100900 20171124211623
95.210.251.29 1 1 2059 20171121181911
179.43.178.231 6 6 169163 20171109071828
189.149.10.227 1 61 697288 20171112152451
31.173.101.214 2 2 9153 20171105092647
89.109.37.79 8 8 238270 20171109060706
88.147.173.218 8 8 238263 20171115093549
177.228.8.148 2 61 699578 20171109110136
50.203.216.14 22 22 15994 20171130135851
176.51.9.173 4 4 18306 20171107220201
217.107.106.87 2 2 9153 20171106075321
2.94.248.224 2 2 9153 20171121150516
91.200.12.49 1 1 31 20171128150653
190.90.2.70 1 1 2054 20171123074017
46.166.199.137 6 6 184701 20171128162116
185.85.238.244 2 2 9153 20171129190252
79.184.221.167 3 3 93524 20171128013749
179.7.15.28 55 114 1389951 20171104211738
163.182.172.243 6 6 170611 20171130102422
145.255.9.132 4 4 124574 20171108023715
176.215.5.30 2 2 9153 20171102051901
186.46.163.102 4 4 120016 20171114032841
2.94.196.59 1 1 34200 20171128043008
46.148.112.95 1 1 34200 20171114175904
178.90.140.23 2 2 9153 20171107182521
61.163.39.70 2 2 61330 20171108061729
178.214.74.27 2 2 4006 20171124155145
136.169.184.166 60 60 1850667 20171117011940
200.68.137.168 1 60 686750 20171125202726
66.102.8.50 1 57 1243010 20171105193046
192.241.184.169 1 1 2052 20171122030934
46.188.109.221 0 4 122834 
77.243.189.187 1 1 34205 20171129153341
109.198.165.161 2 2 9153 20171102012713
136.169.193.80 4 4 108989 20171129100313
54.67.53.4 15 15 145018 20171115005047
95.106.84.61 2 2 9153 20171118103628
190.207.187.62 2 56 456226 20171129142642
46.72.92.157 6 6 169088 20171124075120
91.200.12.63 12 12 361999 20171130025659
95.78.56.36 2 2 9153 20171117091740
204.79.180.7 0 3 40162 
179.43.143.181 1 1 34200 20171121112042
202.168.244.105 1 1 23102 20171119050628
196.22.249.124 2 2 50590 20171122083939
122.224.227.202 1 1 1955 20171123085411
94.50.194.6 2 2 9153 20171125143008
95.72.125.110 4 4 18306 20171120071358
186.92.49.223 1 72 1242807 20171123185130
190.117.126.118 1 60 686740 20171122204640
82.200.67.242 1 1 2052 20171122103714
194.187.170.123 1 1 9669 20171128064834
91.242.193.183 2 2 9153 20171125135420
180.254.253.164 2 2 9153 20171130011820
46.191.159.233 2 2 9153 20171128010102
91.213.44.240 2 2 9153 20171102071805
201.210.91.85 4 31 505693 20171102053038
178.90.225.58 4 4 109038 20171117102938
213.87.139.42 2 2 9153 20171110194328
200.90.68.120 2 75 1376741 20171129122720
46.161.9.57 2 2 0 20171129105426
79.165.239.242 42 42 1202420 20171130235509
185.14.195.189 1 1 34200 20171113063102
213.27.84.178 27 27 786075 20171129152552
165.138.225.250 1 1 2050 20171123032717
92.101.197.59 2 2 9153 20171119005043
204.79.180.16 0 4 6583 
94.255.106.5 2 2 9153 20171105035724
89.22.170.215 9 9 263223 20171120083738
178.162.217.141 1 1 34205 20171123010937
195.191.83.66 2 2 9153 20171113024948
81.171.59.42 4 4 119951 20171102035134
36.73.5.121 2 2 9153 20171123204027
194.187.170.142 3 3 24361 20171110104716
180.153.236.109 1 1 9661 20171126181624
89.249.64.222 2 2 60995 20171123041111
128.73.247.227 2 2 9153 20171125141349
190.212.71.227 1 61 697285 20171105073529
194.187.170.112 3 3 24379 20171128174438
190.37.66.2 1 42 83465 20171130164442
178.137.92.52 12 12 369472 20171116043037
93.76.252.151 1 1 7955 20171114051332
37.187.77.211 1 1 34200 20171127144419
93.84.33.54 4 4 123620 20171108070048
91.105.146.149 2 2 9153 20171107102827
95.47.244.121 9 9 254548 20171105010849
192.99.66.206 19 224 3611824 20171121152631
90.155.177.181 8 8 237202 20171115150709
194.187.170.106 3 3 24372 20171110055950
177.21.1.34 1 1 34205 20171105055607
67.216.129.26 6 306 3498723 20171129144826
37.79.182.33 2 2 9153 20171126084015
2.92.173.208 4 4 120015 20171114032723
178.75.73.153 4 4 18306 20171128014821
37.57.177.209 6 6 180903 20171101021544
103.60.126.44 1 1 34200 20171122004923
5.143.222.191 2 2 9153 20171130052631
122.2.158.202 2 2 50585 20171105055958
66.249.85.24 2 109 1214345 20171112201255
190.76.250.101 2 84 1317809 20171127090856
94.190.5.234 16 16 496443 20171124004753
109.110.82.150 10 10 290003 20171128063206
66.249.88.80 1 20 48109 20171101080430
5.101.217.74 2 2 50578 20171114181333
188.162.86.221 6 6 170601 20171123023706
31.163.164.85 2 2 9153 20171107203547
190.203.73.211 2 123 1284513 20171112073332
185.195.27.169 1 1 9660 20171108230558
180.153.236.173 1 1 9659 20171119051503
91.246.125.251 4 4 120012 20171108222627
89.208.144.111 3 3 77410 20171122055452
146.185.223.177 18 18 526477 20171123084941
136.169.184.66 8 8 247156 20171124012403
109.252.58.128 1 1 34205 20171119234116
82.114.226.79 2 2 9153 20171122230948
96.94.32.50 1 1 2049 20171124165559
37.139.8.104 3 3 84508 20171127231423
54.36.81.57 1 1 8938 20171102193506
185.119.81.63 2 2 9153 20171123152436
31.184.236.104 15 15 424881 20171115172308
170.82.7.250 8 8 243045 20171122224220
188.163.78.41 6 6 168983 20171104082207
178.155.6.13 32 32 998832 20171120191003
93.157.168.19 2 2 9153 20171107020719
123.202.251.129 2 2 18880 20171104000427
104.136.38.12 2 50 24589 20171105092452
178.129.222.84 2 2 9153 20171119102215
95.84.129.187 8 8 243648 20171130043559
78.106.220.13 2 2 9153 20171114084531
95.72.191.219 2 2 9153 20171111065104
94.75.53.201 2 2 9153 20171119000852
188.162.86.205 10 10 289995 20171128231436
88.200.215.85 2 2 9153 20171105031432
130.37.193.37 8 8 241020 20171118162329
35.184.189.105 9 10 161570 20171125094940
5.101.217.35 4 4 120038 20171114175149
128.199.167.199 1 1 34205 20171124173912
128.73.202.94 2 2 9153 20171108083131
31.130.91.37 2 2 9153 20171130022315
95.175.225.70 2 2 9153 20171101014450
94.41.217.253 6 6 181005 20171108023234
200.112.252.171 1 72 1242808 20171126091329
213.87.156.73 2 2 9153 20171130050019
188.234.228.165 2 2 9153 20171105045440
178.213.205.39 2 2 9153 20171113075740
66.249.88.82 0 15 199450 
188.32.176.243 1 53 798534 20171115170953
217.118.78.94 2 2 9153 20171121002944
92.255.205.52 2 2 9153 20171106235825
159.148.200.254 1 1 2051 20171123111859
146.185.223.163 27 27 789755 20171123075615
107.167.106.27 1 67 703735 20171105084840
93.173.46.104 6 6 170626 20171129210613
108.86.183.227 1 60 686745 20171104230319
61.135.217.130 1 1 9660 20171103202232
185.3.34.216 2 2 9153 20171116043929
190.203.73.174 12 148 1718513 20171116133922
2.62.226.165 2 2 9153 20171105072912
200.44.198.141 0 19 45014 
91.219.101.137 8 8 36612 20171122041016
178.68.175.159 2 2 9153 20171128001311
185.202.103.18 2 2 52903 20171113233743
54.219.163.179 1 1 9661 20171127114750
31.130.21.50 4 4 112603 20171128184344
93.81.33.228 2 2 9153 20171118034936
94.242.228.10 1 1 34200 20171130041612
94.243.213.14 2 2 9153 20171123125428
95.78.113.238 2 2 9153 20171109060913
159.203.78.219 4 4 118728 20171105212616
77.126.46.37 9 9 263227 20171125154525
178.34.160.215 2 2 9153 20171125153001
186.185.16.152 2 86 1290789 20171110193308
185.38.249.28 4 4 116164 20171128125538
194.135.212.190 2 2 9153 20171107065029
94.180.243.22 6 6 170621 20171126092537
66.249.88.15 19 373 5768546 20171128122335
187.132.233.89 1 60 686747 20171114212632
95.68.135.207 2 2 9153 20171108082011
85.95.178.115 2 2 9153 20171105133632
95.68.202.14 2 2 9153 20171120000726
186.95.8.250 2 61 705737 20171121175456
212.20.45.184 4 4 18306 20171117205333
46.147.84.98 2 2 9153 20171110225826
167.114.172.223 17 17 746900 20171118153728
79.173.83.153 17 17 495698 20171129104959
106.38.241.102 1 1 9662 20171114033353
62.182.207.26 3 3 6058 20171124180217
190.216.224.82 1 60 686743 20171116100037
176.213.8.21 2 2 9153 20171117094815
195.225.231.218 17 17 444392 20171127023219
88.210.48.167 1 1 9662 20171123052452
178.47.246.79 2 2 9153 20171130015234
78.85.104.29 4 4 18306 20171109023044
172.104.115.186 1 28 247011 20171124083723
46.167.112.179 4 4 122475 20171102002829
186.237.53.212 2 2 4011 20171122195414
103.72.217.164 36 36 1097127 20171130221838
190.92.33.61 1 13 179881 20171102171235
95.67.152.79 2 2 9153 20171121085538
201.210.83.9 16 118 1669894 20171129104339
95.70.69.122 2 2 9153 20171120105333
185.104.70.84 6 6 180996 20171127020100
178.162.216.1 1 1 1958 20171124075624
5.43.157.83 2 2 9153 20171115002951
178.151.142.134 2 2 9153 20171130153632
113.66.11.211 6 6 184532 20171117113413
89.109.229.176 14 14 412748 20171107021303
186.47.46.6 2 2 3912 20171124180215
199.116.173.196 3 3 93511 20171113090920
37.79.250.189 4 4 123664 20171102061557
52.170.39.71 8 8 237436 20171112063208
103.12.161.11 1 1 34205 20171119050549
46.101.203.40 15 15 440299 20171119183115
185.59.56.144 2 2 51157 20171102103525
23.27.112.183 6 6 180999 20171119182612
78.46.156.169 5 5 74521 20171124003954
217.99.54.16 2 2 9153 20171105132602
77.222.113.202 2 2 9153 20171115034132
179.43.143.180 7 7 204786 20171102184920
31.184.236.48 9 9 254364 20171116132024
37.215.88.171 4 4 123657 20171128133723
77.51.233.199 2 2 9153 20171118141650
89.26.248.3 12 12 341745 20171104212008
181.112.84.2 1 72 1242809 20171114184018
200.75.97.27 13 96 1401477 20171112072248
37.25.117.11 6 6 181031 20171127085317
186.185.77.104 1 47 358223 20171122230107
142.252.251.34 30 30 912531 20171129114708
36.57.178.206 4 4 110717 20171107035340
195.154.77.130 2 2 3909 20171124191127
190.204.224.197 11 108 1513635 20171127120841
5.188.211.78 12 12 365729 20171122194629
146.120.223.25 2 2 9153 20171108151955
91.232.188.120 4 4 18306 20171117004106
191.102.92.26 2 75 1376738 20171123162307
189.150.51.35 1 60 686740 20171107075712
95.78.75.46 4 4 120019 20171129044029
186.139.135.77 2 76 1314779 20171109115253
80.234.5.84 10 10 281537 20171127133311
176.195.189.47 2 2 9153 20171101023759
94.25.168.12 2 2 9153 20171120101612
186.24.41.130 0 46 53785 
82.114.250.141 2 2 9153 20171123205704
46.119.122.155 6 6 184708 20171116053135
87.225.23.55 2 2 9153 20171125094345
176.193.218.251 2 2 9153 20171105033853
84.234.59.246 8 8 36612 20171126131117
110.50.84.162 2 2 4100 20171124000350
31.8.243.196 2 2 9153 20171114045848
181.115.241.90 1 1 2048 20171122042122
46.98.3.54 4 4 119949 20171101085529
5.189.130.218 10 10 290026 20171114140230
45.115.168.40 1 1 1955 20171124144626
190.205.247.36 1 49 631400 20171116065432
190.200.253.17 3 89 1392167 20171111185701
93.81.124.200 2 2 9153 20171106081714
95.79.91.83 4 4 122533 20171121190627
178.45.131.225 2 2 9153 20171116122430
50.203.117.22 1 1 1957 20171125005108
188.163.18.65 62 62 1782204 20171130005550
188.163.77.11 4 4 136820 20171111091045
213.111.213.2 22 22 645774 20171129025047
213.24.127.185 2 2 9153 20171128215003
107.150.27.24 54 54 1571212 20171130164728
141.110.189.29 1 60 686738 20171107110701
46.229.170.197 4 4 136805 20171121095559
91.195.204.116 8 8 243612 20171122133619
14.215.176.13 0 2 4129 
64.233.172.174 0 21 198118 
186.6.76.117 1 72 1242809 20171115131035
31.135.97.26 6 6 170622 20171123061206
190.206.123.96 1 64 856951 20171106114441
36.67.161.226 1 1 2052 20171124064636
95.46.129.127 2 2 9153 20171126041458
46.216.36.234 6 6 170588 20171112112309
36.72.247.229 2 2 9153 20171112225607
212.83.157.140 6 6 169165 20171115171641
179.43.152.87 9 9 277550 20171104171018
95.105.29.215 6 6 181002 20171127191231
5.62.41.63 3 3 27289 20171114080351
178.140.152.19 6 6 170622 20171105050631
82.146.57.46 13 13 408228 20171120140446
94.25.170.86 2 2 9153 20171116025822
195.154.204.94 6 6 184564 20171111124947
85.93.60.14 2 2 9153 20171116145721
66.70.189.254 1 1 34205 20171106125812
110.177.140.32 1 1 9661 20171111114429
190.72.8.175 2 73 1252483 20171123130516
178.155.6.54 2 2 9153 20171115232204
190.204.149.236 2 66 790072 20171111185213
95.191.192.30 10 10 45765 20171110081606
188.162.166.27 2 2 9153 20171130130119
109.162.127.72 12 12 334210 20171123223348
37.150.20.95 2 2 9153 20171128075803
84.118.240.175 1 1 34205 20171114121637
88.200.214.187 2 2 9153 20171103114026
94.25.168.206 2 2 9153 20171101015926
200.90.67.12 1 70 1239168 20171105084627
186.95.139.116 1 55 604196 20171128222311
109.197.190.34 2 2 57733 20171109121622
190.206.99.226 2 145 2486239 20171126073202
88.147.153.8 12 12 341076 20171111053917
86.62.76.100 2 2 9153 20171115032951
46.118.119.80 13 13 337724 20171123145206
66.249.85.23 6 142 2646484 20171119165339
78.85.49.169 6 6 181030 20171109104424
37.215.72.181 4 4 123645 20171113165050
91.218.88.196 14 14 410058 20171116075506
93.85.149.18 4 4 123720 20171117201954
46.148.137.81 2 2 9153 20171103152629
190.63.119.104 3 86 1299655 20171118105103
204.79.180.9 1 6 92623 20171126233924
178.218.29.134 2 2 9153 20171119131532
93.185.24.169 2 2 9153 20171129121907
148.251.122.18 1 1 9662 20171117085245
95.52.221.129 2 2 9153 20171101134533
85.115.224.203 4 4 18306 20171126141758
204.79.180.20 0 10 53252 
66.70.144.254 43 43 1257953 20171117124442
212.124.19.252 2 2 9153 20171126110859
186.185.194.132 1 40 959611 20171112051749
178.137.18.185 10 10 288749 20171128222155
52.236.32.118 2 2 62316 20171111040947
200.109.31.242 6 6 73770 20171105093714
5.165.194.250 2 2 9153 20171121075328
109.172.98.83 6 6 27459 20171117222111
163.172.4.153 4 4 38634 20171128143638
201.52.93.197 3 3 83927 20171120132803
193.0.217.132 7 7 213053 20171113233429
190.142.10.222 1 71 1241980 20171126131556
109.252.20.126 2 2 9153 20171119015455
171.6.244.90 5 5 134492 20171125235903
193.165.79.30 1 1 1958 20171122195408
209.58.129.98 4 4 123731 20171106172127
186.88.71.117 1 60 686737 20171103182108
178.155.6.170 14 14 431428 20171113214332
178.155.6.153 12 12 374423 20171114195806
170.51.93.33 2 73 1252470 20171110114520
78.106.39.21 2 2 9153 20171114215215
188.232.77.79 9 9 263944 20171118023103
185.11.49.52 4 4 18306 20171129045255
31.130.20.244 6 6 181003 20171102145146
66.102.8.48 2 52 1046649 20171105193046
37.139.52.40 10 10 290027 20171107052223
52.40.59.11 3 3 102785 20171102122438
109.184.150.58 2 2 9153 20171109130039
188.234.116.138 18 18 527827 20171113030952
186.91.253.105 1 43 718513 20171114183852
178.43.35.102 16 16 1227037 20171112231322
190.199.198.62 2 64 597521 20171119082626
46.101.142.117 6 6 167843 20171127145642
204.79.180.18 0 3 5606 
107.167.105.100 5 206 2150323 20171126055646
92.255.228.198 13 13 399107 20171117071735
186.120.133.224 2 82 1314174 20171105071437
37.151.7.43 4 4 18306 20171105123654
186.89.126.180 2 132 1252476 20171112071654
78.85.49.71 5 5 157778 20171112175032
186.185.154.115 1 29 217514 20171103192814
46.31.29.7 8 8 237198 20171123072238
169.50.62.91 6 6 170592 20171130115314
178.91.186.15 2 2 9153 20171111054557
181.39.147.66 3 88 1424089 20171123095200
36.66.187.177 1 1 1954 20171122184515
185.85.239.157 2 2 9153 20171110073917
109.241.10.179 1 1 34205 20171104142543
91.200.12.106 6 6 181030 20171130074926
158.69.117.141 12 12 562146 20171110083308
144.217.68.229 1 1 34205 20171112202332
94.102.122.237 5 5 171000 20171126050624
212.66.34.157 14 14 414093 20171129091123
213.148.166.161 1 1 34184 20171101134433
94.242.252.58 8 8 36612 20171124195449
46.119.124.216 36 36 1108368 20171130001204
78.156.255.198 2 2 9153 20171121033214
186.95.202.139 5 222 3682371 20171130033302
71.172.20.3 21 21 587534 20171113181038
178.68.120.231 2 2 9153 20171129132819
37.151.164.98 2 2 9153 20171128065730
66.249.88.78 1 20 424369 20171101103039
194.15.117.19 10 10 45765 20171118011909
109.195.102.122 2 2 60995 20171108155708
5.18.241.173 2 2 9153 20171120132232
62.183.86.140 2 2 9153 20171129224837
46.105.98.160 4 4 120041 20171130072917
204.79.180.15 0 5 52706 
186.167.244.77 4 88 1461401 20171107141958
35.189.122.47 1 1 9665 20171126082145
178.155.6.79 17 17 531577 20171110083131
195.114.136.167 1 1 34205 20171128053249
176.214.227.225 2 2 9153 20171124115756
179.43.178.244 10 10 305592 20171105012157
91.234.147.66 4 4 18306 20171119122640
190.142.17.207 6 389 6464330 20171106035423
46.151.7.253 4 4 120036 20171109050847
94.232.16.168 2 2 9153 20171115140532
92.127.194.142 2 2 9153 20171130004912
190.206.5.142 15 329 3328242 20171127132338
91.205.131.168 1 1 1956 20171123005629
97.74.237.196 3 3 84523 20171107054208
79.122.230.190 2 2 9153 20171117054645
14.215.176.17 0 11 102323 
212.83.164.85 1 1 1958 20171122222414
5.101.156.30 1 1 34200 20171121134151
66.102.6.74 1 28 484015 20171117231443
176.120.55.100 4 4 18306 20171110154500
145.255.9.59 4 4 118708 20171126093035
201.209.23.125 3 76 1268395 20171116134904
31.181.113.213 6 6 170623 20171129183544
190.219.169.25 5 92 1355050 20171105083001
180.97.220.229 3 3 70955 20171124210812
93.185.26.6 2 2 9153 20171111130040
177.8.169.254 2 2 4006 20171122142521
37.215.64.44 4 4 123635 20171130234023
181.208.181.247 2 79 1288702 20171127085647
217.118.78.123 4 4 18306 20171123065423
95.25.89.204 4 4 109718 20171115081408
209.58.142.155 6 6 184696 20171105133116
179.43.143.188 6 6 170597 20171113081641
93.72.51.208 29 29 878424 20171129224627
36.57.176.37 1 1 34200 20171129045314
189.203.163.188 1 61 697286 20171128093937
92.100.244.254 6 6 170610 20171106044054
94.41.112.211 10 10 290010 20171113210236
217.107.126.78 2 2 9153 20171106193321
109.196.70.9 2 2 9153 20171113172343
66.249.93.221 0 23 418190 
178.129.204.223 2 2 9153 20171114085215
89.28.24.190 11 11 309591 20171130193508
193.106.170.57 2 2 9153 20171130085320
103.208.246.227 1 1 34188 20171101183044
91.193.130.172 2 2 36145 20171124212617
82.114.234.114 2 2 9153 20171111231452
66.102.6.72 0 39 200757 
91.134.120.60 11 11 328908 20171124151628
90.154.70.202 17 17 526763 20171129000924
89.221.61.202 4 4 18306 20171128044315
103.14.250.131 33 33 653614 20171129011608
80.252.154.233 10 10 290010 20171104020826
190.216.236.174 7 79 977272 20171123210118
95.163.30.38 5 5 141590 20171120235200
107.167.109.152 6 291 3460125 20171126074124
178.49.154.107 6 6 170585 20171128185559
68.111.191.156 2 2 9342 20171124201800
112.5.234.221 2 2 19325 20171108181534
88.135.1.206 48 48 1588479 20171130232429
109.194.60.187 6 6 177257 20171122094609
172.82.185.210 1 1 9654 20171117084358
217.107.106.36 4 4 18306 20171108071821
79.120.80.50 6 6 27459 20171112022548
185.86.5.212 2 2 9153 20171126184235
93.124.27.65 2 2 9153 20171125081627
186.185.222.228 4 66 40233 20171119083917
52.163.62.13 5 5 146984 20171114031740
106.120.162.111 1 50 789940 20171121194904
185.85.162.241 12 12 369180 20171119013535
142.252.248.36 6 6 184709 20171105124251
200.90.95.139 1 61 697285 20171104071940
190.202.54.12 11 68 825832 20171106132856
200.82.135.145 2 71 20351 20171112080435
201.210.250.122 2 75 1376733 20171103194456
78.84.157.182 14 14 371396 20171127180301
77.43.205.131 2 2 9153 20171114021255
186.89.107.136 5 80 1354326 20171128075809
200.90.81.165 1 1 12294 20171114081900
46.39.230.115 2 2 9153 20171102080428
145.255.2.203 2 2 9153 20171109095508
37.215.154.234 4 4 123637 20171129152128
45.58.117.232 3 3 28989 20171126220001
190.203.55.94 6 246 2813745 20171120164535
146.185.234.50 4 4 120015 20171117180529
201.249.107.140 8 104 1622935 20171107081109
91.241.226.233 6 6 170622 20171123025548
82.114.67.186 3 3 96486 20171127074446
51.15.60.255 3 3 84460 20171101044940
190.203.45.156 2 75 1376741 20171104213934
176.228.80.171 6 6 181006 20171129200124
190.202.165.115 2 83 1256012 20171103154730
190.225.77.238 2 75 1362926 20171128220904
37.147.108.24 6 6 184573 20171108153301
46.158.43.28 2 2 9153 20171127220222
195.208.220.183 15 15 431767 20171123135312
186.101.153.232 1 70 1239171 20171116202354
37.113.130.203 10 10 45765 20171123212215
83.174.223.180 2 2 9153 20171130025114
79.110.192.43 4 4 18306 20171126084328
69.164.193.205 3 3 84508 20171122204847
46.235.69.2 6 6 170618 20171113194026
201.149.80.146 1 54 662293 20171119144611
93.84.19.71 2 2 68405 20171127195005
93.188.37.144 8 8 221603 20171124071505
217.66.154.253 2 2 9153 20171111103651
190.79.105.59 1 60 686739 20171130115320
103.23.136.97 2 2 62475 20171124003643
88.200.214.22 6 6 170622 20171129201735
82.148.98.138 1 66 686065 20171121142530
178.68.172.35 2 2 9153 20171118004116
109.172.102.85 8 8 36612 20171122201416
199.249.223.47 1 1 9661 20171128153926
91.207.245.221 6 6 27459 20171121214619
46.191.249.136 9 9 255066 20171125100710
201.249.22.12 1 14 30717 20171119070417
145.255.2.55 10 10 305557 20171104074656
200.8.87.222 1 71 1241984 20171119061031
185.156.174.155 12 12 341041 20171101082249
136.243.67.139 1 1 9663 20171122211852
94.25.171.63 2 2 9153 20171119103742
187.150.119.75 4 70 807078 20171127235332
204.79.180.6 0 2 2685 
37.215.90.240 4 4 123639 20171119072443
188.162.172.65 2 2 9153 20171114054345
190.205.219.101 2 73 1159656 20171111175100
66.249.93.223 0 12 67405 
46.200.64.138 5 5 154241 20171126235159
183.157.84.173 1 1 9655 20171125185624
188.170.82.210 4 4 18306 20171104164625
201.210.225.120 1 70 1239171 20171130073301
94.24.244.182 14 14 64071 20171124002648
66.249.80.18 0 8 112608 
203.112.76.74 1 1 2049 20171124101606
84.229.1.120 9 9 263242 20171121202819
177.142.107.88 1 1 9665 20171128055847
64.34.21.84 3 3 84523 20171114091459
176.214.142.103 6 6 170620 20171118214412
66.249.85.25 1 129 2678111 20171108110007
185.36.102.114 48 48 1477640 20171129145732
202.69.61.131 1 1 138 20171124021530
93.171.30.146 1 1 1955 20171122174247
216.218.222.12 2 2 60995 20171104041335
176.226.140.255 2 2 9153 20171128060259
94.242.252.14 4 4 18306 20171122224850
46.159.18.154 4 4 18306 20171128020928
50.19.154.226 1 1 34205 20171120043858
200.84.139.98 1 72 1242808 20171115102715
195.114.7.212 6 6 27459 20171129110413
176.195.172.52 2 2 9153 20171116014207
195.43.70.133 2 2 9153 20171125114320
1.189.172.242 1 1 34205 20171105015956
212.124.19.173 2 2 9153 20171102155128
186.185.51.119 2 56 688789 20171126174720
204.79.180.2 0 2 37024 
14.215.176.6 1 1 9661 20171116085924
91.200.12.22 2 2 11619 20171129191339
178.155.6.97 18 18 562213 20171116044028
46.242.14.21 2 2 9153 20171115085343
188.32.229.3 6 6 170617 20171114133455
85.234.6.34 2 2 9153 20171114030844
179.43.143.187 6 6 171160 20171119045642
146.185.223.99 26 26 782371 20171130143535
200.90.85.66 0 1 6396 
149.56.36.54 2 2 36158 20171124112555
36.57.177.225 8 8 221611 20171125060613
200.44.204.95 3 143 1945825 20171112073236
46.53.178.208 8 8 221227 20171116180709
85.173.110.13 2 2 9153 20171123091027
82.208.112.166 12 12 341235 20171107041632
89.28.163.141 4 4 18306 20171105130153
178.155.6.101 2 2 9153 20171118025205
46.72.199.119 2 2 9153 20171127082734
190.167.227.174 1 47 363633 20171109152300
178.155.6.124 18 18 562224 20171112000728
37.110.146.217 0 4 8268 
213.184.226.68 1 1 1956 20171121205727
144.76.153.198 2 2 6805 20171116191301
46.149.94.55 5 5 157913 20171114015355
217.118.91.52 2 2 9153 20171110015051
185.85.239.130 2 2 9153 20171128193309
128.75.158.186 2 2 9153 20171112093410
178.205.71.239 4 4 18306 20171112095220
109.126.192.118 2 2 9153 20171128082637
134.249.88.211 32 32 940784 20171126120530
104.131.68.67 6 6 184571 20171114072915
146.185.223.147 36 36 1054060 20171123093639
217.66.154.95 2 2 9153 20171115080740
212.90.62.3 10 10 290001 20171125154444
94.242.252.13 2 2 9153 20171127134817
93.72.182.31 52 52 1778565 20171126151326
146.185.223.132 27 27 789728 20171123083709
78.85.151.141 6 6 184568 20171120233839
186.95.162.64 1 72 1242807 20171127165423
185.154.13.7 4 4 119952 20171101114731
178.49.64.13 2 2 9153 20171109033014
190.39.41.136 1 72 1242810 20171106195549
95.78.46.57 6 6 170635 20171118080949
66.98.69.57 2 2 57733 20171108035216
190.216.238.115 7 126 69485 20171119092157
5.9.112.6 1 1 3697 20171125225957
119.28.41.252 1 1 31219 20171101021651
176.195.156.48 2 2 9153 20171121164524
46.99.92.29 2 2 9153 20171108144018
122.52.49.179 1 1 2050 20171121221735
52.53.129.36 1 1 9660 20171128100655
37.215.70.189 4 4 123629 20171114211859
185.152.65.182 3 3 102609 20171130201202
187.95.11.239 2 2 4035 20171123171338
195.22.126.190 18 18 544653 20171130043841
164.132.44.171 3 3 84523 20171102171616
200.82.248.122 1 57 665850 20171107170824
212.83.163.211 6 6 181001 20171122004226
185.29.255.27 13 13 356607 20171130120104
66.249.80.16 0 9 16387 
95.78.42.62 4 4 123740 20171110093617
181.196.57.54 1 1 9662 20171113043411
31.129.170.42 1 1 34205 20171122051846
5.76.204.50 2 2 9153 20171104053518
93.85.37.94 4 4 120039 20171109122927
188.0.169.52 2 2 9153 20171127071808
178.46.215.188 2 2 9153 20171105100157
201.249.8.105 1 6 18199 20171126060556
190.205.225.185 1 22 110273 20171122122040
190.37.95.247 1 55 739816 20171111064910
66.249.85.11 1 39 895745 20171109132507
188.163.78.55 10 10 252945 20171124075022
200.93.23.164 4 76 937925 20171129084204
46.146.226.211 10 10 45765 20171129230903
59.126.48.8 1 1 9663 20171114013003
176.125.221.160 2 2 9153 20171122102351
200.52.85.99 1 1 9663 20171113131914
186.92.78.210 1 54 659846 20171123072550
177.141.87.94 1 1 9663 20171112114526
188.234.167.99 2 2 9153 20171103065758
5.249.148.238 20 20 604913 20171117061328
62.106.123.135 8 8 228928 20171130221148
77.238.156.124 5 5 154241 20171125082116
190.205.205.239 2 62 709574 20171112082749
46.147.92.78 3 3 83931 20171122224937
178.167.27.226 2 2 9153 20171103095757
46.101.11.131 1 1 1953 20171123160109
176.59.15.16 1 1 7957 20171116085414
91.78.173.109 6 6 168945 20171126225149
163.172.162.106 3 3 84523 20171105132221
190.205.238.43 16 114 1556164 20171102175548
201.242.60.137 7 91 1490459 20171119152112
188.187.176.13 2 2 9153 20171101103302
86.62.123.82 4 4 18306 20171106001731
186.185.253.41 1 1 9662 20171115172152
80.251.112.200 2 2 9153 20171113014255
79.140.15.198 6 6 184706 20171124082222
190.78.19.160 2 78 1260694 20171119072353
178.137.88.3 4 4 112621 20171113130135
178.141.25.212 6 6 170612 20171114123355
93.100.149.93 11 11 331735 20171121061144
190.206.109.30 16 171 2105491 20171105075307
109.63.145.203 1 61 688381 20171105042639
176.114.4.253 9 9 277818 20171128053501
190.57.69.19 4 73 814198 20171127154313
201.211.214.110 2 61 429956 20171120181926
212.26.236.6 6 6 181031 20171108005653
201.83.252.30 4 4 120036 20171128140210
163.121.188.3 2 2 50582 20171118162413
94.50.195.249 4 4 18306 20171102084012
79.184.181.186 3 3 93314 20171127144120
187.188.182.116 1 1 1956 20171121233342
185.59.140.98 11 11 317875 20171120040534
37.112.122.53 3 3 93316 20171119043550
201.210.94.115 2 131 1492359 20171126082448
81.2.254.205 9 9 263234 20171130224958
186.185.97.171 4 36 704220 20171107121356
88.200.214.100 2 2 9153 20171126090757
185.85.239.195 2 2 9153 20171125205332
156.67.106.94 8 8 261794 20171104133020
181.115.30.249 0 20 114911 
212.175.77.165 16 16 73224 20171130121855
201.209.41.228 1 1 34205 20171119083416
181.175.86.25 3 88 1424084 20171105134608
187.221.53.51 1 60 686742 20171122235033
167.250.193.200 2 2 4031 20171124075646
88.200.199.32 6 6 170620 20171130145006
190.200.243.99 1 71 1115124 20171111172121
193.201.224.32 6 6 171173 20171116081341
45.79.208.219 1 1 23528 20171104041358
109.252.59.251 6 6 27459 20171120105506
185.86.5.251 2 2 9153 20171119043529
94.177.196.107 15 15 457205 20171117055713
94.180.172.43 1 1 34205 20171123185904
195.22.124.70 6 6 170602 20171127231715
5.188.233.160 1 1 34200 20171122010355
200.121.151.155 1 72 1242810 20171112083334
211.20.238.33 3 3 102937 20171101144357
46.191.169.154 6 6 169143 20171109194345
5.227.7.141 10 10 290042 20171122065845
109.69.76.51 2 2 9153 20171125043637
188.16.64.191 6 6 170616 20171130123308
91.76.230.51 4 4 18306 20171116100051
178.155.6.38 33 33 1016560 20171103043440
69.16.152.154 4 4 120018 20171127133953
190.199.78.138 1 63 782381 20171128191809
139.162.50.77 1 1 9661 20171115043312
186.46.156.202 3 3 96882 20171109222659
91.122.60.151 2 2 9153 20171116070720
74.66.81.110 1 58 683105 20171108083452
190.198.90.187 2 61 699580 20171107120957
103.87.235.2 5 5 140138 20171122201739
94.251.32.89 4 4 18306 20171125153514
217.66.157.125 2 2 9153 20171115200121
107.167.106.30 1 71 712354 20171112080309
46.175.194.196 2 2 9153 20171117085828
91.205.46.26 6 6 27459 20171127010143
94.46.13.131 1 1 34200 20171121143211
36.66.56.130 1 1 1954 20171124090657
190.199.218.69 1 60 686727 20171103183751
190.199.239.181 4 81 1308021 20171130101805
14.215.176.16 0 1 425 
181.112.138.198 1 1 34205 20171109143444
175.44.18.75 1 1 34200 20171105225018
146.185.200.106 1 1 34200 20171113063413
186.92.45.128 1 1 83242 20171122200318
88.200.215.27 2 2 9153 20171125094955
213.183.51.28 1 1 9662 20171123121816
95.106.199.148 2 2 9153 20171116121357
77.243.183.167 1 1 34188 20171101174627
89.28.167.109 2 2 9153 20171101050245
5.144.97.173 1 1 34205 20171127041837
94.25.171.11 2 2 9153 20171129104348
31.173.110.226 1 1 23528 20171108155710
106.120.173.145 1 1 9665 20171103182007
201.211.210.92 5 93 1333419 20171112035555
109.194.58.39 1 1 34205 20171128022341
138.186.178.164 1 70 1239172 20171117082917
190.199.253.122 5 53 1188586 20171105102028
88.200.215.241 4 4 18306 20171106113935
109.126.235.57 2 2 9153 20171116024000
190.142.30.76 5 81 1293357 20171126080125
89.31.44.108 1 1 2048 20171122130953
95.81.236.73 8 8 238110 20171101083930
36.255.135.147 3 3 84523 20171121212813
93.85.39.240 3 3 68108 20171106041848
190.205.230.76 2 2 24580 20171106072848
190.200.180.243 1 60 686744 20171118100714
178.155.6.145 9 9 280563 20171109070403
186.68.85.26 1 1 28106 20171114033312
109.252.73.109 4 4 18306 20171110072015
195.137.167.42 2 2 68410 20171129084915
191.115.45.68 1 72 1242805 20171122160647
204.79.180.17 0 2 83751 
46.148.120.67 4 4 120036 20171124164305
116.249.34.92 1 1 9664 20171124103248
178.69.29.109 2 2 9153 20171121003236
5.254.97.68 6 6 184733 20171124014750
178.159.37.11 4 4 123622 20171118031937
166.216.157.83 1 58 683108 20171128220640
46.101.74.237 1 1 1957 20171124123352
5.189.133.231 1 1 27124 20171114031649
62.85.39.252 4 4 120036 20171114024546
217.118.83.206 4 4 18306 20171110003611
66.102.6.70 4 35 174645 20171123235419
201.208.15.225 1 1 12841 20171110211447
46.161.9.39 14 14 400739 20171122061055
204.79.180.21 1 3 12152 20171117060645
188.170.219.241 1 1 34205 20171114130751
94.50.194.64 2 2 9153 20171106031705
185.50.25.5 1 1 34205 20171120192931
46.175.194.226 2 2 9153 20171114200116
5.138.253.133 9 9 261198 20171101051943
190.14.213.26 6 6 184724 20171126111148
200.84.145.58 10 140 1329775 20171126081523
190.199.252.221 2 32 672865 20171103174800
62.210.215.109 41 41 3284128 20171130115048
85.140.56.188 2 2 9153 20171130015431
37.212.54.7 2 2 9153 20171109091816
178.206.6.142 2 2 9153 20171105104726
85.141.68.174 8 8 240474 20171114204110
46.191.207.159 10 10 305607 20171128223606
185.220.32.45 1 1 9665 20171114043811
37.235.68.93 8 8 36612 20171115040852
94.46.13.132 6 6 170621 20171128140444
190.121.158.114 1 1 2050 20171123204137
43.224.212.144 1 1 9664 20171114120412
181.174.75.129 2 59 635431 20171123212043
95.46.131.166 4 4 120042 20171124152502
87.11.189.16 6 6 171164 20171103232215
138.197.154.98 3 3 84508 20171122224122
37.215.68.29 3 3 96479 20171129235726
104.215.56.166 1 1 34205 20171117105739
94.240.176.46 12 12 342659 20171130045913
83.143.240.4 4 4 120035 20171130092004
31.173.100.65 2 2 9153 20171104233605
85.115.248.16 1 1 7957 20171119063748
178.91.19.211 4 4 120037 20171129221130
80.70.106.76 2 2 9153 20171130021516
85.115.224.212 2 2 9153 20171119014116
95.143.143.59 2 2 4103 20171124134034
END_VISITOR

# Date - Pages - Hits - Bandwidth - Visits
BEGIN_DAY 30
20171101 1873 2100 12346424 115
20171102 1898 2300 16302325 90
20171103 1900 2373 16996639 91
20171104 1974 2699 22714703 85
20171105 2198 4416 43833148 119
20171106 2261 2930 31450298 91
20171107 1946 2799 23551051 111
20171108 1810 2371 16191762 81
20171109 1786 2350 15145636 84
20171110 1752 2074 11635761 57
20171111 1831 2336 16472914 76
20171112 1804 3518 30847985 93
20171113 1820 2020 12821009 91
20171114 1845 2212 14833465 112
20171115 1755 2081 13383478 83
20171116 1780 2464 20444567 95
20171117 1842 2413 19518220 111
20171118 1772 1985 13866150 89
20171119 2026 3489 36859684 100
20171120 1787 2174 15531678 89
20171121 1819 2646 21580890 107
20171122 1925 2316 17202740 138
20171123 1988 2866 26825516 134
20171124 1862 2260 15892319 133
20171125 1753 2125 14493354 74
20171126 1828 3588 31903838 110
20171127 1844 2552 21143800 106
20171128 1885 2733 24960479 125
20171129 1896 2473 20892406 124
20171130 1859 2254 17725622 128
END_DAY

# Session range - Number of visits
BEGIN_SESSION 7
2mn-5mn 95
0s-30s 2372
30s-2mn 95
5mn-15mn 137
30mn-1h 101
15mn-30mn 78
1h+ 164
END_SESSION

# URL - Pages - Bandwidth - Entry - Exit
# The 25 first Pages must be first (order not required for others)
BEGIN_SIDER 19
/index.php 54407 317713590 1898 2086
/ 714 15481310 510 321
/administrator/index.php 654 2791240 117 626
/administrator/ 513 2294784 509 2
/modules/mod_bt_login/ajax.php 10 525 0 0
/index.php/login 3 102615 0 0
/templates/beez5/error.php 3 0 1 1
http://www.cepeniel.org/index.php 2 68405 2 0
/index.php/option=com_user&view=register 2 68400 1 1
/templates/atomic/error.php 2 0 1 1
/index.php/using-joomla/extensions/components/users-component/registration-form 1 34205 0 0
/google276bd62fdd7ea648.html 1 53 1 1
/index.php/option=com_user&view=registration 1 34205 1 1
/index.php/log-out 1 34205 0 0
/index.php/register 1 34205 0 0
/includes/ 1 31 1 1
/index.php/using-joomla/extensions/components/users-component/login-form 1 34205 0 0
/index.php/login-form 1 34205 0 0
/templates/zt_galosa/ 1 44 0 1
END_SIDER
