AWSTATS DATA FILE 7.4 (build 20140726)
# If you remove this file, all statistics for date 201512 will be lost/reset.
# Last config file used to build this data file was /home/cepeniel/tmp/awstats/awstats.cepeniel.org.conf.

# Position (offset in bytes) in this file for beginning of each section for
# direct I/O access. If you made changes somewhere in this file, you should
# also remove completely the MAP section (AWStats will rewrite it at next
# update).
BEGIN_MAP 28
POS_GENERAL 2009                
POS_TIME 2708                
POS_VISITOR 3945                
POS_DAY 38816               
POS_DOMAIN 39856               
POS_LOGIN 40919               
POS_ROBOT 41074               
POS_WORMS 41838               
POS_EMAILSENDER 41969               
POS_EMAILRECEIVER 42112               
POS_SESSION 42188               
POS_SIDER 42402               
POS_FILETYPES 42948               
POS_DOWNLOADS 43199               
POS_OS 43288               
POS_BROWSER 43830               
POS_SCREENSIZE 47836               
POS_UNKNOWNREFERER 47910               
POS_UNKNOWNREFERERBROWSER 51268               
POS_ORIGIN 52721               
POS_SEREFERRALS 52872               
POS_PAGEREFS 53094               
POS_SEARCHWORDS 56963               
POS_KEYWORDS 58801               
POS_MISC 2370                
POS_ERRORS 60326               
POS_CLUSTER 40775               
POS_SIDER_404 60484               
END_MAP

# LastLine    = Date of last record processed - Last record line number in last log - Last record offset in last log - Last record signature value
# FirstTime   = Date of first visit for history file
# LastTime    = Date of last visit for history file
# LastUpdate  = Date of last update - Nb of parsed records - Nb of parsed old records - Nb of parsed new records - Nb of parsed corrupted - Nb of parsed dropped
# TotalVisits = Number of visits
# TotalUnique = Number of unique visitors
# MonthHostsKnown   = Number of hosts known
# MonthHostsUnKnown = Number of hosts unknown
BEGIN_GENERAL 8
LastLine 20160101000310 847919 219403807 10337170601360
FirstTime 20151201000040
LastTime 20151231234356
LastUpdate 20170608094454 847919 0 847594 324 0
TotalVisits 1969                
TotalUnique 819                 
MonthHostsKnown 0                   
MonthHostsUnknown 860                 
END_GENERAL

# Misc ID - Pages - Hits - Bandwidth
BEGIN_MISC 10
PDFSupport 0 0 0
WindowsMediaPlayerSupport 0 0 0
DirectorSupport 0 0 0
FlashSupport 0 0 0
QuickTimeSupport 0 0 0
JavaEnabled 0 0 0
RealPlayerSupport 0 0 0
TotalMisc 0 0 0
AddToFavourites 0 403 0
JavascriptDisabled 0 0 0
END_MISC

# Hour - Pages - Hits - Bandwidth - Not viewed Pages - Not viewed Hits - Not viewed Bandwidth
BEGIN_TIME 24
0 111 670 9708975 1588 1708 18405712
1 133 289 6017443 1224 1287 13034043
2 195 699 13454419 1383 1422 13571453
3 348 559 16305704 1435 1487 13401597
4 159 329 6509270 1966 2009 19231528
5 340 1584 34209666 1656 1725 26798459
6 483 3934 74008603 2164 2263 22072291
7 354 4157 79759602 2990 3163 32095048
8 316 4078 76241012 2404 2581 26306049
9 372 2945 61058172 1130 1215 10841765
10 229 2298 41971775 1680 1794 27242032
11 306 1673 33751926 1688 1756 17589073
12 346 2447 45030112 1360 1499 17118869
13 312 1896 35552520 2908 2978 41482115
14 629 2276 33502601 2511 2706 24843718
15 279 1482 25419278 1102 1160 16327884
16 333 2166 36235471 1321 1411 13462329
17 320 2072 38325846 1067 1160 14694061
18 240 2753 51189293 1292 1439 16661481
19 305 2403 43600754 1457 1616 17355863
20 129 1308 25037649 1320 1412 13666769
21 187 1510 24364811 690 773 7272288
22 162 1607 24261450 1785 1870 29236791
23 119 254 6445299 1300 1359 13098965
END_TIME

# Host - Pages - Hits - Bandwidth - Last visit date - [Start date of last visit] - [Last page of last visit]
# [Start date of last visit] and [Last page of last visit] are saved only if session is not finished
# The 25 first Hits must be first (order not required for others)
BEGIN_VISITOR 860
186.86.149.166 585 720 1172655 20151202160623
213.197.175.78 453 453 2030346 20151220164142
46.148.22.18 389 389 4595619 20151222183240
188.165.233.34 248 248 9103885 20151228065801
37.59.55.128 248 248 9083133 20151214031042
66.249.90.27 223 223 7047346 20151231234356
66.249.90.25 221 221 7483810 20151231205346
66.249.90.23 183 183 5751613 20151231212811
177.220.178.212 150 150 451929 20151208054152
201.210.54.32 134 362 5572199 20151215180141
46.118.153.165 124 124 3549761 20151227162517
134.249.52.203 122 122 3247386 20151227011341
92.68.249.4 111 111 1434274 20151216151621
178.137.160.2 108 108 2691950 20151231000842
187.112.117.59 88 88 265743 20151219194228
91.200.12.106 74 74 2600431 20151230051856
91.200.12.137 71 71 2614604 20151230081504
189.102.166.192 71 71 214692 20151207074153
91.200.12.7 67 67 2217083 20151230043950
178.137.89.181 65 65 1546054 20151209040652
46.118.226.141 63 63 2118720 20151230172941
178.137.165.96 51 51 957854 20151215181803
91.200.12.141 51 51 1993351 20151230044757
46.118.123.53 48 48 1029269 20151208200757
188.143.234.155 45 45 511955 20151204130103
190.204.241.253 14 135 2474509 20151203144658
158.69.194.36 1 1 11814 20151221092316
186.167.242.213 4 90 1628324 20151215201751
186.92.114.27 1 72 1887405 20151202072828
187.213.216.54 5 93 2064558 20151203191003
190.186.44.147 1 68 1861212 20151204092723
190.230.74.153 1 74 1890856 20151213173650
200.84.13.243 1 74 1891039 20151203193934
177.242.101.232 2 62 709593 20151229222623
45.32.129.1 1 1 40869 20151228222943
186.96.66.130 2 75 1716563 20151217110920
79.153.21.181 3 3 13446 20151217071232
186.92.242.101 1 74 1890858 20151206170638
190.201.62.114 1 72 1887249 20151226173936
190.252.184.1 1 74 1891040 20151203122121
190.79.66.69 1 74 1890887 20151220074420
94.23.217.201 7 7 82806 20151230180552
31.13.112.117 0 1 3211 
186.167.248.63 11 96 2036965 20151228005900
190.104.200.130 1 55 643595 20151218173153
193.93.185.93 1 1 54017 20151229062618
186.95.213.124 2 81 1931931 20151215171101
204.79.180.15 0 1 2365 
64.111.126.29 1 1 11815 20151220144653
89.76.81.245 1 1 4482 20151218033226
178.150.15.176 7 7 214800 20151213133942
186.90.74.131 3 183 2091833 20151227082311
144.76.153.198 12 12 373625 20151225040448
190.206.155.25 1 74 1890856 20151215074727
186.95.248.198 1 74 1890885 20151218185144
82.80.17.106 2 2 3379 20151217185308
190.130.168.33 5 144 1094216 20151201201855
189.217.79.215 1 74 1891037 20151204002523
136.243.17.161 5 5 230510 20151225164407
204.79.180.37 0 1 333 
186.167.249.31 1 1 11815 20151227070107
201.183.44.62 6 86 2149136 20151222102615
31.193.0.17 4 4 47259 20151221214507
200.109.65.98 2 60 705905 20151201125710
93.186.202.239 1 1 5805 20151226222115
201.211.98.19 2 135 2588184 20151227073157
5.9.106.81 8 8 519254 20151228103452
107.167.105.225 1 40 266949 20151229164400
159.203.208.43 2 2 23628 20151219230754
186.185.9.236 1 74 13715 20151211130543
218.205.17.160 1 1 11787 20151209072251
186.89.98.112 5 98 2129942 20151220061710
107.170.123.11 1 1 11817 20151225132829
190.203.83.67 1 74 1890885 20151217094016
66.249.91.135 1 1 61111 20151208145032
37.115.191.181 9 9 352688 20151202021314
177.204.195.117 16 16 49527 20151208023350
65.183.154.104 1 1 11816 20151218145558
204.79.180.117 0 1 2260 
201.200.12.86 1 63 650861 20151216174806
151.236.23.54 12 12 20266 20151226063154
91.200.12.136 44 44 1634978 20151222091405
200.8.86.159 15 222 4262879 20151202150648
186.92.23.109 3 72 808635 20151228121646
216.144.243.244 2 2 81707 20151217031812
89.76.83.1 2 2 24576 20151216001228
190.205.123.90 2 65 661991 20151202142517
79.110.31.49 4 4 120442 20151207163835
31.13.112.122 0 1 1847 
186.185.81.87 1 69 1181634 20151222092625
190.74.19.135 7 85 1428445 20151224084013
186.185.43.242 3 63 721899 20151227074848
186.14.49.196 8 147 1095232 20151207075712
190.39.37.231 2 48 1314414 20151212114521
190.79.71.146 2 75 1337272 20151213145444
46.165.230.5 1 1 11815 20151223085155
92.63.81.69 4 4 163476 20151223135438
77.206.89.96 1 1 1960 20151226052532
80.227.254.251 1 1 1958 20151227053858
120.52.73.34 1 1 26797 20151230093928
62.210.37.113 2 2 23574 20151212195010
190.201.49.132 1 72 1887247 20151230083333
186.167.245.66 2 75 1902644 20151212050839
209.54.32.167 1 1 40838 20151215205836
69.65.41.23 1 1 42399 20151201002019
221.178.182.155 2 2 18771 20151209072307
52.35.30.199 1 1 11787 20151209013426
188.225.3.59 1 1 40869 20151219155004
204.69.221.0 1 1 0 20151204101434
192.30.231.228 1 1 11801 20151213015952
80.82.64.234 1 1 11812 20151223085016
83.208.119.30 1 1 11816 20151223085856
190.202.182.157 1 74 1890885 20151218150231
204.79.180.3 0 1 38985 
71.232.184.164 4 4 47260 20151218062905
144.76.185.173 8 8 543075 20151228182247
186.95.197.135 1 74 1890886 20151227055404
84.132.219.206 2 2 23574 20151215045054
5.79.68.161 1 1 11814 20151219044313
23.29.134.4 1 1 11814 20151220180235
190.207.202.4 1 54 659846 20151223085845
144.76.155.8 10 10 463743 20151223165124
93.49.94.41 1 73 1890065 20151230165502
201.211.121.209 1 1 12271 20151202063746
171.25.193.131 1 1 11814 20151216205626
190.142.18.38 2 80 1908772 20151220075912
178.62.190.145 4 4 47261 20151218062813
66.249.90.21 6 6 214650 20151204091500
209.133.212.210 2 2 81738 20151218205527
190.206.99.245 2 112 2539827 20151218154209
190.202.180.204 2 81 1931930 20151213165254
190.37.111.115 1 72 1887403 20151204092112
12.118.131.46 1 1 0 20151203125551
204.79.180.246 0 1 2906 
204.79.180.200 0 1 3211 
134.249.159.6 1 1 13042 20151215005851
185.117.74.157 1 1 11816 20151229121041
178.137.89.157 24 24 654541 20151231185244
190.203.43.224 3 78 1915117 20151204160224
190.114.241.2 2 77 1945810 20151229194705
89.76.82.40 7 7 173826 20151217093432
209.58.131.213 2 148 3781770 20151228191352
186.6.84.42 1 62 1564189 20151216155203
186.125.67.60 1 58 631857 20151211134922
82.112.188.95 3 3 13446 20151223010659
93.171.205.49 1 1 11816 20151220234310
200.84.143.94 4 100 2022149 20151215095610
190.78.255.129 1 73 1638220 20151221093837
195.154.251.131 1 1 16384 20151206073341
186.167.251.147 3 87 1341207 20151221081547
200.93.19.37 1 74 1890856 20151209063035
221.178.182.170 1 1 16204 20151209072233
136.243.48.85 1 1 11815 20151231185929
78.46.97.213 1 1 11816 20151226021119
190.37.97.91 5 78 1938160 20151228225959
201.248.107.40 4 88 1986550 20151209130002
185.36.100.145 1 1 11787 20151211212519
185.93.181.107 2 2 20521 20151222122157
91.237.25.40 2 2 53532 20151201051448
186.92.54.197 1 57 621515 20151207092153
190.207.231.103 1 58 666976 20151215202148
189.15.39.73 1 77 2153828 20151223094412
204.79.180.159 0 1 406 
190.72.7.196 3 90 1983482 20151219125432
87.17.107.38 1 47 580592 20151215101801
177.35.52.28 1 19 54916 20151231164854
198.229.1.173 1 23 101435 20151213155511
189.195.237.252 1 62 702148 20151209235531
190.204.116.65 2 65 1145839 20151201141506
186.95.91.181 3 148 3596970 20151213171237
201.157.85.49 1 74 1890858 20151213023138
190.202.175.183 4 143 2617223 20151227070833
190.206.127.134 26 373 6972275 20151221161811
112.119.100.141 1 75 1973523 20151217091557
195.242.80.47 1 1 40869 20151226003100
186.32.169.218 1 74 1891038 20151201220402
186.95.203.44 1 1 11817 20151220123016
190.207.19.156 0 16 624423 
201.249.199.91 3 55 830480 20151201140138
190.74.7.134 1 57 682455 20151219021512
173.28.123.240 1 62 729355 20151206210445
204.79.180.240 0 1 393 
117.177.243.14 1 1 26797 20151220184253
190.199.58.36 0 4 3300 
104.232.3.33 1 1 11816 20151218020422
38.87.238.225 1 57 621516 20151205194416
204.69.221.1 4 4 0 20151229072536
186.90.119.117 1 57 621515 20151207100618
142.196.125.34 16 172 3957833 20151205055554
186.94.108.85 2 80 1864730 20151220075337
186.26.232.154 2 58 1345272 20151229194542
204.79.180.55 0 1 3426 
186.90.136.144 1 62 702190 20151203193054
200.84.101.187 1 74 1891037 20151201074246
200.62.19.43 8 111 2100479 20151203210601
61.38.252.23 1 1 7960 20151229224613
162.209.102.100 1 1 40869 20151227053901
46.26.50.112 1 72 1887249 20151222181858
190.182.128.42 7 144 1009084 20151213122558
190.39.69.50 1 1 11818 20151223125817
186.2.146.65 17 157 1248865 20151212075155
190.198.23.186 1 62 702192 20151203130408
191.190.45.50 1 78 2227999 20151221095858
190.205.215.241 4 80 1626142 20151209133028
37.220.90.8 4 4 47263 20151221171843
186.167.251.99 1 72 1045652 20151213070440
108.62.19.246 4 4 47262 20151217225607
128.75.103.68 1 30 255420 20151215143251
190.203.59.158 6 147 3715763 20151221122345
190.202.184.217 1 62 842948 20151212093914
190.79.74.192 7 113 2249435 20151211111534
190.206.15.177 1 57 621516 20151215092800
186.92.158.2 1 61 697294 20151229092824
190.92.41.211 1 73 1874160 20151219122628
190.201.107.113 1 74 1891037 20151201100300
94.251.118.150 1 1 26797 20151223050457
186.90.149.139 1 15 34292 20151228220450
178.18.39.197 1 1 40869 20151222140454
117.6.133.24 1 1 40838 20151212223847
212.7.217.50 16 16 27016 20151216233828
200.29.139.66 5 142 1091523 20151216064822
186.167.250.20 4 67 937689 20151226102003
31.13.112.120 0 4 85733 
5.189.178.189 6 6 204689 20151221105731
190.206.10.190 2 75 1902683 20151227100112
194.150.168.79 1 1 11816 20151231004440
94.242.221.68 2 2 94446 20151229063012
167.114.172.225 12 12 597709 20151212022136
190.200.250.88 1 74 1890859 20151211132557
186.185.68.5 1 55 11787 20151211182505
190.206.126.34 2 21 266924 20151206091037
104.238.67.5 8 8 403966 20151215051456
186.95.198.74 1 74 1890883 20151219195834
191.98.75.219 3 86 1943903 20151223181548
221.178.182.203 1 1 11093 20151209072156
186.178.136.172 1 74 1890885 20151229095713
190.221.86.73 1 74 1890858 20151209142634
192.241.131.127 4 4 47264 20151220232203
186.92.220.149 2 77 2024770 20151209054950
190.199.209.204 2 41 800238 20151221120106
107.167.109.4 3 93 1983611 20151216134652
31.13.112.123 0 2 42556 
186.185.169.54 2 77 2024996 20151202015840
37.187.56.47 1 1 40838 20151215220604
66.249.88.217 6 180 2138868 20151230082807
201.210.181.74 1 13 27849 20151215190312
5.9.112.207 1 1 11816 20151225123723
188.143.232.43 2 2 258155 20151206183655
221.178.182.140 1 1 9344 20151209072222
186.154.34.48 1 61 697297 20151218101417
185.3.32.125 1 1 40869 20151218023656
201.242.1.78 2 75 1902643 20151208153744
204.79.180.133 0 2 4817 
204.85.191.30 1 1 11789 20151215091334
190.201.240.220 23 648 6145903 20151231101809
193.90.12.86 1 1 11815 20151227222417
204.79.180.176 0 1 2132 
66.102.6.156 3 28 164552 20151224223735
131.161.180.10 1 30 167967 20151230113851
218.205.17.171 1 1 10730 20151209072246
186.92.128.112 1 57 621541 20151219204502
186.185.193.19 1 46 794164 20151221224524
50.29.138.60 2 141 2717426 20151230053932
190.201.115.108 11 114 1761131 20151217141050
190.76.64.167 1 23 161261 20151225195634
66.249.91.164 28 28 718427 20151217025504
204.79.180.229 0 1 752 
151.236.15.143 4 4 163476 20151219172023
201.242.36.206 2 58 631770 20151212134935
221.178.182.205 1 1 8743 20151209072320
201.210.195.76 11 148 1090791 20151215121420
177.232.79.190 1 59 635937 20151215184037
73.22.80.179 1 74 1890885 20151227214723
212.7.218.96 2 2 3378 20151216060737
218.205.17.133 1 1 10419 20151209072225
95.28.8.100 1 30 255418 20151215062059
188.165.234.52 1 1 42399 20151202034931
104.194.26.204 1 1 43852 20151229094500
179.234.155.19 1 75 1948486 20151218221929
186.95.78.9 3 81 1212608 20151219143056
190.198.221.198 1 74 1890884 20151220092015
186.185.95.79 2 81 1936789 20151218144318
186.89.114.110 1 74 1890885 20151220090656
188.143.232.41 2 2 269399 20151208193606
190.206.110.19 1 72 1887402 20151204165835
221.178.182.202 1 1 83403 20151209072146
66.102.6.160 2 24 524318 20151224224159
200.84.31.51 3 76 1914431 20151214113938
190.206.105.153 4 150 3805348 20151220081910
84.92.134.145 5 140 1153502 20151208171857
186.167.244.26 1 7 171686 20151203054303
190.39.109.65 3 68 1197266 20151227192049
190.216.236.230 1 74 1890885 20151227070111
186.185.87.37 1 60 792602 20151229101259
66.249.83.227 1 29 340713 20151226191541
190.198.157.218 1 74 1890858 20151207141854
181.208.9.126 2 80 1908729 20151213081952
190.206.116.222 1 74 1890856 20151215203713
187.150.57.38 1 74 1890885 20151217184617
190.207.182.167 2 75 2021180 20151228142058
190.206.127.225 1 1 11787 20151212151717
190.201.236.189 1 74 1890849 20151208075305
195.245.112.150 1 1 11816 20151230160548
181.1.174.154 1 61 697266 20151201072744
66.249.91.145 2 2 34156 20151208142159
201.210.1.56 4 81 2047575 20151230185725
54.158.132.206 11 11 413737 20151209172854
86.107.229.69 1 1 18962 20151225103246
158.69.27.74 1 1 40869 20151229102225
190.67.249.234 2 58 631820 20151216170142
186.185.40.217 1 22 129973 20151225151542
188.143.232.15 1 1 75169 20151208115757
190.199.242.147 1 62 1065600 20151212110538
190.37.118.81 1 74 1890856 20151212104337
107.167.116.240 2 85 1992383 20151220065352
186.185.108.103 1 44 11492 20151224060925
136.243.65.114 1 1 10776 20151231045803
200.90.25.91 16 105 2127601 20151206172738
46.211.11.222 5 5 147208 20151207024346
186.185.116.85 5 106 2195300 20151208215754
37.78.14.44 1 1 40869 20151219120436
186.89.117.212 6 162 3840854 20151227144355
190.74.198.172 1 73 1890032 20151211181101
186.167.242.186 0 6 43494 
186.118.5.249 1 51 635028 20151221154941
190.204.224.142 1 61 12270 20151206142702
190.198.3.30 29 143 1009437 20151230062941
172.58.16.249 12 147 930824 20151204163753
158.222.2.244 2 2 19908 20151219151423
79.158.151.11 1 72 1887221 20151211125630
186.167.242.25 1 52 1335738 20151205120704
66.249.88.152 1 1 11787 20151215035033
88.150.224.220 6 6 254394 20151202160153
195.154.226.90 1 1 42399 20151201231530
66.249.88.46 9 32 1114522 20151228065611
186.91.43.44 1 27 182809 20151208144935
93.159.230.87 1 41 438388 20151230055043
189.115.97.161 18 18 55533 20151212170834
190.205.213.145 5 88 1973749 20151213070838
5.167.223.168 2 2 3378 20151221044157
188.143.232.19 2 2 92948 20151207055310
186.94.0.148 18 157 1103832 20151202190438
93.170.253.155 2 2 81738 20151216223934
186.185.103.19 1 61 697268 20151213080751
181.103.245.50 1 74 1890886 20151220184010
2.133.61.152 1 1 40869 20151219015408
94.103.231.103 1 1 7932 20151201134917
24.243.106.18 1 60 690059 20151208191123
87.230.83.44 2 2 81738 20151222080601
162.209.84.156 1 1 4482 20151227053858
200.84.151.106 3 76 35541 20151212144146
187.63.214.147 1 27 142364 20151224161716
190.4.8.242 1 74 1891037 20151202114932
188.143.232.24 1 1 57383 20151206193134
190.142.10.66 2 87 1938230 20151213072508
190.207.248.249 1 57 621681 20151227222709
104.197.211.151 1 28 297813 20151202181925
186.95.223.151 1 64 510546 20151216173937
190.201.37.155 5 65 776263 20151224184632
178.206.38.101 3 3 13446 20151221080541
200.11.208.125 2 113 825776 20151216094207
186.90.207.36 1 74 1890887 20151230225022
190.207.245.182 1 58 631858 20151208112346
218.205.17.144 1 1 11318 20151209072229
181.245.162.200 1 58 631878 20151222085515
166.78.134.156 1 1 4482 20151227053904
186.91.236.16 6 75 846444 20151216144820
66.249.90.63 6 6 282554 20151227093100
190.200.249.202 1 74 1890857 20151212001934
190.37.93.138 2 77 1903009 20151227122930
186.93.128.164 1 54 659824 20151201172547
103.250.251.167 1 1 26796 20151229222721
112.198.82.130 1 26 201714 20151224070253
186.195.141.2 1 30 255449 20151218063350
204.17.56.42 1 1 11787 20151211213951
178.137.88.17 12 12 408873 20151229234737
200.8.52.237 5 85 2066226 20151213172236
201.210.44.195 2 75 1902645 20151215180323
121.166.148.228 1 1 11788 20151213053018
51.254.129.249 1 1 40869 20151225082606
178.137.93.55 9 9 147456 20151201020133
87.228.117.183 6 6 244548 20151207141533
201.242.47.129 11 406 9517540 20151225075620
186.167.251.229 2 4 145471 20151214180327
31.13.112.116 0 1 0 
180.153.180.116 1 1 11786 20151208155428
5.141.232.72 1 1 26797 20151227065423
159.203.143.198 2 2 81738 20151225093201
63.203.158.46 1 1 11787 20151210234703
201.209.71.50 1 74 1890884 20151228211431
186.91.163.93 2 31 213297 20151217150505
70.196.73.85 1 74 1890885 20151228153508
177.68.105.40 1 18 52975 20151229120656
188.143.232.35 1 1 66429 20151211102053
146.0.72.80 6 6 122790 20151218151139
66.249.90.62 9 9 241852 20151227075109
186.185.15.245 4 20 113091 20151201150649
186.167.251.18 4 19 82673 20151227120259
186.92.198.23 4 102 2146598 20151228131828
212.7.220.188 1 1 11785 20151209002959
185.117.215.3 1 1 11816 20151217140217
181.208.2.44 1 74 1890884 20151220082132
186.92.22.172 2 81 1931974 20151223090125
148.251.124.42 7 7 232114 20151223123421
168.243.51.30 1 74 1891038 20151202170036
190.39.127.208 1 61 697296 20151222151627
186.93.235.231 0 29 426808 
5.61.39.5 1 1 11815 20151229120053
93.186.202.241 2 2 33557 20151222025310
186.167.244.255 1 73 1890060 20151227115921
201.242.7.7 1 61 697295 20151228124139
190.199.198.139 1 55 739821 20151216180511
221.178.182.133 1 1 11803 20151209072143
190.72.22.156 8 113 2345999 20151228182134
178.206.83.215 4 4 109737 20151229023049
186.93.169.56 1 73 1848518 20151201212258
85.119.12.115 1 18 190782 20151219112050
84.10.160.165 2 2 65445 20151220124633
204.79.180.216 0 1 639 
200.93.19.225 3 222 5673112 20151202122603
204.79.180.87 0 1 1847 
200.114.154.117 1 74 1890855 20151206180034
46.118.123.213 12 12 411483 20151203053504
190.39.114.20 1 57 687950 20151217055918
187.121.132.146 34 34 103581 20151213095250
188.163.75.7 1 1 40869 20151231090448
66.249.83.219 1 61 1434419 20151224083859
69.58.178.58 12 12 583543 20151208134235
162.247.72.201 1 1 11787 20151216034254
190.207.189.85 8 125 2381145 20151228193713
89.77.249.202 2 2 65445 20151220193856
201.211.110.189 3 3 28351 20151204123433
89.76.87.235 1 1 4482 20151218115928
94.23.40.23 1 1 40868 20151230102007
185.65.135.227 2 2 23629 20151223073443
186.91.35.100 1 74 1890857 20151214094502
177.134.179.105 1 59 1176539 20151224135319
190.129.13.234 1 13 29965 20151218070357
182.18.9.216 2 2 23631 20151224162537
191.223.210.59 1 81 2490941 20151228062741
188.143.232.37 1 1 57383 20151214014826
158.69.214.254 1 1 11814 20151228220828
46.229.170.197 5 5 208937 20151219232116
188.40.112.210 6 6 262066 20151230144704
177.238.121.99 1 74 1890885 20151218121333
190.200.250.54 1 74 1890885 20151220073106
104.197.53.231 2 52 403774 20151203041712
181.208.160.229 17 119 2457688 20151213143557
186.27.121.105 1 74 1890883 20151230111513
66.249.88.212 6 361 5587380 20151226194911
136.2.1.105 1 1 83448 20151208140010
186.185.175.32 1 62 905462 20151215084609
87.220.9.71 1 101 4218440 20151213020358
186.89.21.148 2 61 708233 20151221154532
216.4.56.184 8 172 2307632 20151212094627
186.92.5.124 1 1 11816 20151224162458
221.178.182.200 1 1 7934 20151209072256
79.196.67.109 4 79 2048360 20151209032243
148.251.54.44 13 13 506419 20151227140047
201.190.18.58 1 59 772202 20151201223628
186.185.155.137 1 20 154629 20151224134711
218.205.17.163 1 1 10703 20151209072213
218.205.17.205 1 1 9642 20151209072236
79.110.17.58 4 4 109582 20151208074557
190.103.31.10 13 134 2296964 20151215225527
186.93.230.142 0 1 110957 
186.26.115.66 1 46 1196063 20151227130009
104.207.150.177 1 1 40838 20151215205124
186.185.93.29 2 85 669009 20151208211555
190.142.11.97 1 1 11813 20151229043504
200.35.64.106 1 69 1800978 20151213084547
189.58.252.250 1 59 1113803 20151220121500
78.46.156.169 12 12 728320 20151224184400
190.39.73.190 1 58 667000 20151218083814
190.198.247.175 3 64 673574 20151213160843
62.210.84.121 1 1 42399 20151202044322
190.38.216.41 1 74 1890856 20151209113059
63.250.233.98 18 436 1886265 20151206092122
186.89.114.149 2 80 1908724 20151213084226
190.202.176.209 3 64 711132 20151213084303
177.101.226.10 2 71 788698 20151217104109
5.9.17.118 10 10 878827 20151228103452
221.178.182.206 1 1 11487 20151209072202
62.57.226.252 4 94 2174400 20151228152233
201.6.230.29 1 75 1981041 20151222121957
190.200.224.127 2 74 1782896 20151229104741
186.90.93.142 1 74 1890882 20151220075305
88.17.34.98 1 74 1891037 20151203112614
204.79.180.112 0 1 3490 
190.78.109.52 2 75 1902643 20151216080004
187.102.28.60 1 30 255448 20151224211853
186.167.243.210 5 143 1412695 20151229070933
186.185.104.220 1 74 11799 20151211145634
171.25.193.25 1 1 11816 20151218145335
66.249.88.57 8 17 255470 20151221092854
5.9.145.132 5 5 365376 20151219090805
151.76.216.70 3 3 13446 20151217020451
37.130.227.133 1 1 11814 20151225132752
186.94.121.42 2 81 1931975 20151220094732
186.94.98.98 2 77 1620979 20151231162504
162.244.33.8 1 1 11814 20151231113241
204.79.180.231 0 1 46169 
62.210.115.134 2 2 23632 20151226080727
5.9.36.66 1 1 11817 20151229230505
41.215.127.126 1 1 54017 20151229063119
186.92.112.222 18 184 1345681 20151226000954
177.81.131.165 1 68 1279637 20151219105220
181.91.131.140 1 74 1891036 20151202185413
212.7.218.30 2 2 40869 20151223092935
186.92.98.47 8 10 210677 20151202144140
190.78.157.72 3 64 670506 20151215141934
186.90.68.84 1 61 697298 20151220073930
190.79.67.15 2 70 967734 20151213075923
73.244.63.103 1 57 683257 20151201173454
198.154.225.251 1 1 62 20151230023005
179.7.114.210 1 57 621515 20151208064125
64.74.215.113 3 3 0 20151225213740
186.167.249.98 2 23 205941 20151215163708
190.37.36.174 1 74 1890884 20151217161300
201.210.106.53 1 60 691070 20151222205725
95.25.9.116 1 31 255842 20151220081418
200.84.137.83 5 78 1938148 20151227094012
91.200.12.143 36 36 1512960 20151227144456
204.79.180.182 0 1 1427 
146.0.42.15 4 4 163476 20151221014644
190.203.64.73 2 80 1908723 20151213074325
89.181.64.36 1 75 2001841 20151224042047
192.99.3.171 4 4 196953 20151210080058
190.79.51.178 2 77 2024946 20151206050249
199.21.99.218 1 1 11968 20151202141600
5.35.102.137 2 2 53532 20151211235251
186.92.87.220 1 58 631858 20151212165233
186.92.97.102 1 74 1890857 20151213133342
201.153.135.187 1 74 1890857 20151215202711
200.62.13.36 1 27 190735 20151209131316
66.249.88.222 8 206 3257972 20151229102137
201.242.34.194 1 73 1674721 20151217155206
201.210.29.157 14 124 2464929 20151215193605
186.167.244.248 1 22 194155 20151215163750
190.202.82.99 1 58 82125 20151207115245
221.178.182.176 3 3 33624 20151209082202
186.91.237.242 5 85 2168927 20151213142611
190.74.222.155 1 60 784252 20151212141200
80.24.9.5 1 96 3770370 20151214114621
186.90.69.6 7 149 1137897 20151212064211
200.82.155.141 1 74 1890855 20151207203255
190.203.37.146 1 74 11787 20151208220309
209.133.192.242 1 1 40839 20151216113808
123.126.68.141 1 73 1890035 20151215102328
186.185.120.211 1 60 792603 20151217210201
180.153.180.194 1 1 11786 20151209130853
188.163.80.234 2 2 3911 20151217011241
200.84.18.196 2 84 1962388 20151204113324
66.249.83.199 1 1 21060 20151204123432
81.202.179.138 1 74 1890886 20151231161145
91.185.194.122 1 1 11966 20151203173048
201.210.6.202 14 476 10693687 20151229160028
41.185.21.66 2 2 23633 20151228181734
186.185.34.179 1 10 23748 20151209183551
136.243.48.82 1 1 11818 20151230062157
200.8.52.217 5 93 2125495 20151212173333
89.180.3.52 1 45 485498 20151213044842
200.84.6.24 1 74 1890886 20151224101221
31.13.112.118 1 3 48150 20151213202946
66.249.85.173 2 2 23631 20151220231100
190.200.242.25 2 75 1761183 20151213083634
54.163.145.117 1 1 40839 20151211160524
190.206.161.106 1 24 178127 20151229124412
200.93.17.111 15 121 2337613 20151219174134
208.113.155.178 1 1 11815 20151219140404
200.84.177.137 13 469 9217004 20151227084358
186.92.159.148 1 65 1039616 20151220195534
178.137.162.85 6 6 220699 20151209053637
190.200.242.111 7 103 2211776 20151227075259
104.238.180.234 1 1 40870 20151222174744
186.185.2.105 1 57 622754 20151224055547
190.77.165.196 5 143 1006860 20151208184145
204.79.180.70 0 2 84416 
8.28.16.254 2 2 119369 20151207115244
187.59.203.210 1 52 941315 20151217072347
221.178.182.162 1 1 9180 20151209072216
75.149.221.169 1 1 40869 20151222180459
112.198.118.18 1 7 22720 20151219215155
186.2.144.158 5 123 1401874 20151215204230
204.79.180.199 0 1 3315 
66.249.91.156 27 27 953433 20151216074216
181.52.60.125 5 134 1241261 20151202180951
201.211.1.9 1 6 20354 20151221113238
45.122.52.10 4 4 87820 20151217150406
189.219.159.92 1 62 729386 20151230132812
89.234.157.254 1 1 11812 20151216205707
136.243.67.139 2 75 1902643 20151206233533
217.69.133.169 4 4 47177 20151228033343
190.201.240.247 8 152 3883505 20151225185533
188.166.97.97 1 1 0 20151221132631
190.142.27.6 2 75 1902643 20151213081559
200.93.122.85 2 75 1902640 20151211181513
66.249.90.19 2 2 42176 20151203211237
190.200.5.199 7 142 959775 20151204191507
190.200.252.177 1 73 1282139 20151225214906
186.185.110.10 1 17 35552 20151226191510
204.79.180.201 0 1 1167 
92.63.138.85 1 1 62 20151229191624
107.72.162.111 3 90 2072220 20151219122241
190.37.95.86 1 63 1441524 20151205090040
218.205.17.147 1 1 16189 20151209072141
186.185.64.8 0 1 46169 
187.121.138.112 1 1 4482 20151226051027
186.167.242.27 1 52 641130 20151203064832
62.212.73.49 1 1 11814 20151231080952
190.198.248.110 3 87 1977711 20151219180139
107.152.128.28 1 1 62125 20151221134013
8.37.70.253 1 1 11093 20151206183526
180.246.13.95 1 7 75293 20151221061501
190.124.30.245 1 73 1655182 20151202171243
201.209.197.58 1 73 1482796 20151230182041
186.92.194.198 7 27 207392 20151201054152
177.220.187.37 34 34 103581 20151217213608
190.183.126.205 1 57 687928 20151203112337
179.236.254.152 1 1 11817 20151222124641
85.93.89.74 30 30 405224 20151213162935
186.167.249.213 1 74 1370488 20151201174154
190.142.2.104 1 74 1890885 20151227085932
186.167.242.137 1 73 1881454 20151210101905
77.247.181.162 1 1 11816 20151221092222
144.76.71.83 12 12 825221 20151230144705
108.55.80.114 1 67 1904892 20151209205333
189.90.161.88 4 91 2113192 20151209094030
93.186.202.253 2 2 75495 20151222210412
218.205.17.206 1 1 12977 20151209072259
190.233.237.197 1 1 0 20151216192210
190.73.115.163 8 96 2235201 20151226192248
190.3.131.158 1 58 627808 20151221223744
89.248.167.141 4 4 163352 20151215091028
177.220.190.154 34 34 103581 20151205212635
162.209.101.250 1 1 40869 20151227053857
186.167.250.51 1 78 1593055 20151216180902
177.92.55.38 34 34 103581 20151212042126
46.161.63.84 2 2 53594 20151227183830
120.26.213.23 5 5 250564 20151215051812
93.159.230.28 1 41 438361 20151215015806
178.207.150.24 3 3 13446 20151225025221
178.206.41.222 3 3 105273 20151228181153
5.137.69.127 1 1 47213 20151229062511
186.93.172.129 1 57 1325773 20151217222852
186.94.122.221 2 76 1948871 20151227083452
188.143.232.34 1 1 56542 20151205094542
204.79.180.206 0 2 570 
172.56.13.36 2 77 1903524 20151220083211
146.185.128.226 3 3 122607 20151220025329
192.99.10.173 1 1 0 20151203205042
5.9.112.6 10 10 778111 20151223070700
78.137.195.151 1 75 1948482 20151229082402
38.99.62.91 1 1 11785 20151215105515
186.225.99.155 1 1 7958 20151231143325
204.79.180.204 0 1 327 
186.95.180.108 1 35 565599 20151228185728
186.167.244.249 7 144 1091554 20151207165021
23.89.250.91 1 1 18961 20151227210014
190.206.124.125 5 5 58259 20151204072104
200.84.181.226 1 61 697268 20151213071511
179.159.57.125 3 102 1019976 20151228104304
186.90.189.208 0 10 437654 
201.242.160.94 5 140 933233 20151203211835
54.244.49.214 1 2 48685 20151231065820
186.167.249.37 2 63 425090 20151222081943
172.56.12.208 1 74 1890857 20151211094819
200.93.19.112 1 79 1890858 20151213080840
168.235.196.243 3 296 2508159 20151224225212
177.8.194.99 1 73 1473882 20151227090656
186.149.177.129 1 73 1890059 20151221183224
146.255.98.7 1 1 40838 20151215064225
181.1.251.167 1 74 1890856 20151212200639
179.192.59.250 1 89 3133631 20151219111244
204.79.180.57 0 1 399 
201.210.15.76 1 74 1891038 20151205070032
190.205.223.252 2 122 1394532 20151208064151
117.102.80.18 8 8 403966 20151215051549
186.185.77.55 1 1 12271 20151213083201
66.102.6.164 0 29 210324 
190.200.250.221 1 74 1890857 20151214193654
190.142.25.168 5 124 929169 20151226062548
73.142.133.159 1 57 621660 20151202223453
148.251.75.46 7 7 503915 20151223123407
181.208.25.39 1 74 1890886 20151227070157
190.79.148.45 12 185 1207120 20151208183646
190.55.5.135 3 82 1948596 20151218110637
221.178.182.141 2 2 32353 20151209072249
107.167.105.218 3 47 277772 20151210155217
185.4.64.42 4 4 163480 20151230132334
88.198.22.8 2 2 81707 20151228093521
95.238.88.186 1 75 1973520 20151216183821
186.95.20.241 2 86 1965898 20151225071329
186.185.143.245 1 71 1886395 20151215130831
190.39.102.60 1 72 1887250 20151227173139
191.55.92.204 1 47 707429 20151229094420
38.100.21.62 2 11 121120 20151209052533
107.167.112.74 3 88 840264 20151228224940
186.57.6.63 1 74 1890883 20151223125018
101.86.123.71 9 9 318899 20151203054108
186.185.156.4 2 72 2462429 20151222053346
190.198.114.176 1 69 1659507 20151211081607
190.203.58.238 7 194 2024277 20151227063722
186.167.245.156 1 72 1471721 20151229195130
173.208.242.133 12 12 490428 20151231025142
94.242.228.108 1 1 11815 20151219044205
93.100.131.49 1 1 56333 20151231013228
201.209.107.218 9 228 5743404 20151220091002
186.15.90.203 1 74 1890855 20151213083434
187.193.51.79 7 159 1290365 20151229215257
190.79.84.227 2 54 342574 20151213172518
186.24.41.130 0 74 0 
23.94.69.90 2 2 19881 20151209051609
186.185.124.99 7 165 3407144 20151227083511
92.249.104.63 1 1 957 20151228122308
190.37.79.101 1 67 1280502 20151206182353
198.229.1.142 1 59 635936 20151202144633
190.201.21.103 15 95 940991 20151210143903
92.243.117.198 8 8 214253 20151225195915
92.129.163.69 2 2 81738 20151229232034
201.211.114.153 4 98 2190408 20151227190803
12.150.226.18 27 27 956401 20151204134306
186.95.84.80 1 74 11786 20151211061336
204.79.180.174 1 1 11818 20151227035603
37.115.207.143 1 1 10494 20151220173533
46.118.112.74 24 24 697716 20151207061934
107.173.193.143 1 1 18962 20151225032248
190.205.115.86 2 62 709049 20151215170244
200.126.155.7 2 77 2024815 20151230072735
190.207.182.254 1 57 621515 20151202143944
190.206.122.19 1 74 1890855 20151208183125
204.79.180.129 0 2 36810 
188.120.251.44 1 1 40869 20151224230345
86.160.209.180 2 2 81738 20151217160801
89.72.37.62 2 2 57942 20151221103911
107.167.105.160 1 85 1906457 20151227065501
190.199.210.28 1 55 739572 20151215153940
190.205.214.109 5 78 58940 20151211064133
201.252.117.151 8 171 3020056 20151206102009
52.58.3.52 2 2 81738 20151220052535
218.205.17.159 1 1 1747 20151209072239
91.200.12.60 2 2 28286 20151204111215
201.247.7.31 1 57 621517 20151207163709
144.76.201.69 15 15 1003703 20151223123407
186.14.132.169 1 74 1890857 20151211192657
190.38.170.59 1 47 184022 20151221093434
190.181.28.196 2 57 707232 20151230103435
186.185.173.254 1 53 638665 20151222084456
190.142.11.227 2 75 23630 20151227075612
213.193.24.147 1 30 255599 20151205191336
120.52.73.25 2 2 19179 20151204135616
188.143.232.14 1 1 75168 20151207150557
190.205.207.234 1 58 630263 20151208112536
186.89.109.239 5 147 2716077 20151227090813
50.118.198.137 1 74 1890860 20151207082802
221.178.182.144 1 1 9359 20151209072240
186.185.22.207 1 74 1890886 20151220081047
186.94.230.46 2 73 1899370 20151203130537
200.84.187.152 1 71 1332367 20151228074510
194.224.6.175 3 3 13446 20151217004814
92.37.57.218 1 30 255448 20151228035854
198.50.128.228 1 1 11789 20151211235655
46.118.156.224 6 6 122759 20151207222656
200.105.198.110 2 10 758312 20151204092506
199.119.141.8 13 279 956015 20151222024459
186.92.178.30 4 88 1985973 20151231213247
186.89.252.148 11 86 2014049 20151206084452
186.92.48.102 1 74 1890897 20151221054400
200.84.186.73 2 62 709544 20151201185849
90.50.131.20 8 8 326956 20151231234116
186.167.245.43 1 23 274104 20151224141238
200.35.64.107 2 31 263603 20151213083310
190.205.198.139 6 126 758625 20151204093902
178.206.6.129 1 1 4482 20151222004619
144.76.80.151 6 6 233266 20151215090114
186.95.207.110 1 74 1890885 20151229141302
189.46.139.174 1 1 11815 20151227192602
201.195.142.22 1 74 1890882 20151229092730
186.167.245.91 1 1 11093 20151201200103
186.14.133.140 1 74 1671964 20151227082747
186.95.211.239 5 100 2125581 20151226134212
178.137.90.172 13 13 347103 20151215144359
66.249.88.35 6 52 797000 20151229070025
201.66.10.153 1 1 11815 20151224133259
201.211.123.145 7 118 2211250 20151210200824
190.198.23.154 1 74 1890856 20151209164323
89.154.127.199 1 59 1289422 20151224051934
37.29.74.192 1 1 7933 20151216045806
190.201.43.4 4 160 3817454 20151213082813
66.249.91.160 28 28 1022732 20151217020417
186.92.49.123 3 82 1998457 20151212175513
218.205.17.136 1 1 10712 20151209072211
186.167.244.172 1 74 1110317 20151206161122
49.206.14.1 1 1 11815 20151225205128
134.249.49.23 9 9 269880 20151230233907
94.242.246.24 1 1 11815 20151222082152
200.8.87.215 1 74 1890887 20151227073550
177.39.88.5 1 30 204593 20151225113923
189.19.199.35 1 77 2096237 20151228034832
198.229.1.218 1 64 1454167 20151209203320
46.22.211.166 1 1 11787 20151214083826
190.202.183.133 1 3 11817 20151219164045
190.74.248.36 1 72 1887400 20151203154050
221.178.182.58 1 1 16192 20151209072137
217.197.251.141 1 1 47426 20151229063302
190.205.106.4 9 160 3869439 20151227091929
171.25.193.77 1 1 11819 20151222082130
181.135.141.58 1 61 433626 20151212191335
186.92.134.77 0 1 644582 
190.202.183.118 2 80 1908727 20151216092056
201.210.57.78 6 94 2564576 20151221220406
186.167.251.94 1 1 9252 20151203222511
176.8.244.238 11 11 379711 20151203074747
79.164.132.17 1 30 255418 20151214223152
66.249.83.223 1 41 619637 20151226194447
42.117.2.3 1 1 62 20151228124914
190.8.168.71 15 1052 25397953 20151230151902
66.249.90.61 8 8 268695 20151227063229
181.208.240.194 1 57 622782 20151225215220
166.62.88.229 4 4 47259 20151219071902
190.204.228.77 43 177 928510 20151216063807
109.162.124.220 9 9 313608 20151225034734
181.1.179.125 1 59 1682883 20151218145304
201.211.114.85 9 13 107712 20151204072540
190.204.224.33 1 61 697267 20151216100753
190.142.22.174 2 148 3781771 20151220062456
186.46.205.102 2 102 1263331 20151209112204
36.69.181.148 1 1 40839 20151213195543
149.202.47.181 1 1 11817 20151217044931
204.79.180.166 0 1 502 
58.62.234.120 2 2 29701 20151219035409
200.84.163.37 7 80 82605 20151218064735
198.229.1.163 2 106 1185509 20151207052348
62.210.215.109 21 21 1695364 20151231190417
62.210.37.82 1 1 11786 20151216122137
201.242.56.167 1 74 1890858 20151209131226
5.9.94.207 9 9 537717 20151229051929
201.191.199.48 1 54 662300 20151220142049
183.171.172.67 1 75 1948483 20151230081213
208.113.128.130 1 1 11816 20151218003538
186.93.141.175 1 53 638666 20151222124615
186.220.204.212 1 85 2878125 20151231081007
190.207.7.216 1 21 721600 20151204150711
178.140.124.192 1 30 255417 20151211131152
188.162.56.108 1 1 40869 20151217142932
190.38.214.242 1 74 1891038 20151203172540
190.142.18.219 1 1 11814 20151220073627
104.129.204.55 5 90 1971273 20151209064032
186.167.248.10 3 90 2127902 20151215090852
217.111.232.252 1 74 1890884 20151222055327
178.213.186.131 1 1 26797 20151227075748
81.89.96.88 1 1 11802 20151210012450
188.143.232.10 1 1 40827 20151206232637
149.202.42.188 1 1 11815 20151220071750
188.138.9.49 1 1 11786 20151215192219
186.185.126.147 1 6 17889 20151217062609
200.163.241.128 1 30 248482 20151229081503
194.150.168.95 5 5 59074 20151229230425
204.79.180.156 0 1 961 
186.185.21.56 1 1 11968 20151201072613
END_VISITOR

# Date - Pages - Hits - Bandwidth - Visits
BEGIN_DAY 31
20151201 127 1611 27245064 66
20151202 718 2169 29203545 63
20151203 127 1300 25225109 64
20151204 182 1045 21293317 50
20151205 92 369 7601253 39
20151206 176 1551 24161178 52
20151207 197 1129 16852455 56
20151208 273 1775 21041323 51
20151209 208 1392 30798281 86
20151210 98 479 9649742 42
20151211 94 1165 20641725 57
20151212 331 1759 27835269 63
20151213 389 3936 76149604 91
20151214 317 722 21335650 49
20151215 362 2820 48824168 80
20151216 211 1541 22583011 70
20151217 298 1548 29179897 73
20151218 90 1070 23665186 60
20151219 211 1187 25385241 70
20151220 397 2584 55508265 86
20151221 264 1472 28985308 67
20151222 253 1359 26104989 74
20151223 88 588 14452740 54
20151224 86 1222 17886736 56
20151225 105 537 10958519 62
20151226 132 1088 16705945 56
20151227 189 2960 59434728 92
20151228 378 2072 46288399 67
20151229 112 1463 24267275 69
20151230 140 1044 22305724 60
20151231 62 432 10392005 44
END_DAY

# Domain - Pages - Hits - Bandwidth
# The 25 first Pages must be first (order not required for others)
BEGIN_DOMAIN 52
ua 1490 1490 37501343
ve 1177 27110 500755999
us 1073 5610 96887714
co 600 1303 9278508
fr 550 550 20736434
br 515 1957 32406588
lt 453 453 2030346
de 228 449 16078565
nl 155 155 2182264
ru 121 376 5295941
cn 54 126 3021685
ar 34 1414 28101003
gb 31 166 1803664
hn 24 412 5297101
mx 22 867 15586509
ca 21 21 870948
eu 20 20 231003
pl 17 17 396198
es 17 590 17787333
ec 14 406 6397568
id 10 16 520098
bo 7 222 5247604
cr 6 385 8181999
it 6 198 4457623
se 5 5 59078
hu 1 18 190782
ie 1 12 181497
si 2 31 267414
sv 2 131 2512555
ae 1 1 1958
ke 1 1 54017
kr 2 2 19748
kz 1 1 40869
ro 1 1 18962
hk 5 79 2061343
za 2 2 23633
cz 5 5 117157
il 2 2 3379
ph 2 33 224434
pe 2 58 621515
my 1 75 1948483
cl 5 142 1091523
no 1 1 11815
ee 1 1 11787
pt 4 254 5725243
do 2 135 3454248
in 1 1 11815
gt 1 74 1891037
md 1 1 40869
lu 4 4 118076
lv 4 4 163476
vn 2 2 40900
END_DOMAIN

# Cluster ID - Pages - Hits - Bandwidth
BEGIN_CLUSTER 0
END_CLUSTER

# Login - Pages - Hits - Bandwidth - Last visit
# The 10 first Pages must be first (order not required for others)
BEGIN_LOGIN 0
END_LOGIN

# Robot ID - Hits - Bandwidth - Last visit - Hits on robots.txt
# The 25 first Hits must be first (order not required for others)
BEGIN_ROBOT 16
bot[\s_+:,\.\;\/\\-] 22328 288516637 20151231234056 1032
robot 8313 80233402 20151231235757 11
crawl 3244 33720186 20151231124514 2
googlebot 2777 33697918 20151231233921 59
bingpreview 308 5741983 20151231004938 0
spider 150 1487539 20151231183817 30
php 142 7287351 20151229234820 0
slurp 135 1318778 20151231213846 32
no_user_agent 82 2130629 20151230175122 6
google[_+\s]web[_+\s]preview 61 697267 20151203143303 0
unknown 28 14144 20151231090448 28
msnbot\-media 23 653974 20151225134653 0
googlebot\-image 1 946 20151208140839 0
netcraft 1 40838 20151209122543 0
curl 1 40837 20151211211643 0
discovery 1 31 20151212174345 0
END_ROBOT

# Worm ID - Hits - Bandwidth - Last visit
# The 5 first Hits must be first (order not required for others)
BEGIN_WORMS 0
END_WORMS

# EMail - Hits - Bandwidth - Last visit
# The 20 first Hits must be first (order not required for others)
BEGIN_EMAILSENDER 0
END_EMAILSENDER

# EMail - Hits - Bandwidth - Last visit
# The 20 first hits must be first (order not required for others)
BEGIN_EMAILRECEIVER 0
END_EMAILRECEIVER

# Session range - Number of visits
BEGIN_SESSION 7
30s-2mn 83
30mn-1h 79
0s-30s 1583
1h+ 12
5mn-15mn 90
2mn-5mn 66
15mn-30mn 56
END_SESSION

# URL - Pages - Bandwidth - Entry - Exit
# The 25 first Pages must be first (order not required for others)
BEGIN_SIDER 10
/index.php 3741 89645854 1100 1176
/ 1949 37394521 819 737
/administrator/index.php 979 3750181 24 39
/administrator/ 29 74419 22 11
/components/com_content/metadata.xml 3 186 3 3
/media/editors/tinymce/jscripts/tiny_mce/themes/advanced/source_editor.htm 2 1314 0 0
/plugins/content/extravote/assets/ajax.php 1 26 0 0
/language/en-GB/en-GB.xml 1 957 1 1
/google276bd62fdd7ea648.html 1 53 0 1
/index.php/trackback/ 1 11816 0 1
END_SIDER

# Files type - Hits - Bandwidth - Bandwidth without compression - Bandwidth after compression
BEGIN_FILETYPES 9
xml 4 1143 0 0
css 9447 13962490 0 0
php 4721 93396061 0 0
htm 2 1314 0 0
gif 1351 1951037 0 0
html 1980 37480809 0 0
jpg 3364 137965125 0 0
png 16701 444242991 0 0
js 7819 112960681 0 0
END_FILETYPES

# Downloads - Hits - Bandwidth
BEGIN_DOWNLOADS 1
/libraries/simplepie/README.txt 2 0 2390
END_DOWNLOADS

# OS ID - Hits
BEGIN_OS ID - Hits - Pages 33
winnt 1888 647
Unknown 2480 1298
linuxgentoo 2 2
win2003 69 60
j2me 87 4
blackberry 126 4
win98 27 27
wince 3 3
linux 1307 375
java 1 1
winxp 4463 800
linuxandroid 9176 292
ios_ipad 493 27
linuxubuntu 7 7
linuxsuse 2 2
win7 19346 2418
macosx8 11 11
winlong 548 40
macosx7 70 14
macosx5 4 4
winphone 121 3
linuxdebian 1 1
win2000 111 111
macosx9 12 12
macosx 151 12
win95 12 12
ios_iphone 528 27
winme 70 30
macosx6 87 14
unix 80 7
win8 955 96
winunknown 13 13
win8.1 3138 333
END_OS

# Browser ID - Hits - Pages
BEGIN_BROWSER 194
chrome36.0.1985.135 523 11
chrome19.0.1084.5409 1 1
firefox5.0 2 2
firefox42.0 1839 227
chrome14.0.803.0 4 4
safari9.0 621 15
chrome40.0.2214.115 3 3
chrome47.0.2526.73 1985 73
netscape4.79 9 9
firefox37.0 6 6
chrome46.8.2490.80 57 1
opera7.54 9 9
chrome45.0.2454.93 25 25
firefox2.0.0.14 2 2
android 2611 94
chrome23.0.1271.17 1 1
firefox33.0 4 4
chrome12.0.742.112 1 1
chrome34.0.1847.116 1 1
chrome45.0.2454.94 73 1
chrome27.0.1453.90 3 3
chrome30.0.1599.66 21 21
mozilla 602 528
safari9.0.2 74 1
firefox45.0 72 1
firefox6.0 16 16
chrome30.0.1599.103 147 12
chrome43.0.2357.134 63 4
chrome35.0.1849.0 77 2
chrome39.0.2171.95 158 12
opera7.02 3 3
chrome37.0.0.0 74 1
safari5.0.6 2 2
msie3.02 3 3
opera8.50 3 3
safari7.1.0.398 53 1
chrome36.0.1985.143 1640 37
chrome37.0.2062.120 9 9
chrome39.0.2171.99 64 3
chrome25.0.1349.2 77 2
chrome46.0.2490.76 968 30
firefox18.0 150 13
netscape0.91 5 5
firefox11.0 12 12
safari6.0 5 5
safari10.3.2.2639 245 14
firefox36.0 2 2
chrome42.0.2311.90 88 2
firefox3.6.3 29 29
chrome18.0.1025.166 2 2
chrome23.0.1271.64 1 1
safari7.0 75 2
chrome26.0.1410.58 3 3
chrome45.0.2454.85 74 1
firefox27.0 72 1
safari 410 26
chrome10.0.649.0 248 248
firefox38.0 437 19
lg\- 439 10
chrome49.0.2580.0 28 1
netscape0.6 5 5
opera12.16 351 11
libwww 4 4
opera9.01 7 7
chrome23.0.1271.97 7 7
chrome35.0.1916.141 74 1
blackberry 73 3
msie11.0 962 23
chrome47.0.2526.80 5010 186
chrome6.0.472.63 61 1
safari5.1.9 1 1
chrome18.0.1025.133 1 1
chrome33.0.1750.136 60 1
opera9.0 24 24
chrome45.0.2454.99 95 95
netscape5.0 1 1
opera26.0.1656.60 3 3
chrome38.0.2125.104 148 2
firefox31.0 71 1
firefox20.0 25 25
chrome24.0.1290.1 1 1
chrome27.0.1453.94 4 4
firefox12.0 7 7
chrome11.0.696.34 1 1
firefox32.0 2 2
opera12.17 1 1
chrome46.0.2490.86 4136 732
chrome24.0.1312.70 16 16
chrome17.0.963.66 4 4
msie7.0 228 39
chrome46.10.2490.86 69 3
chrome37.0.2062.124 1 1
chrome43.0.2357.124 29 29
chrome34.0.1847.76 227 3
chrome41.0.2228.0 3 3
chrome40.0.2214.111 94 94
safari6.1.6 57 1
chrome40.0.2214.93 6 6
chrome33.0.0.0 190 3
safari6.0.4 2 2
chrome47.0.2526.76 230 7
chrome47.0.2526.83 1351 46
safari5.1.7 4 4
firefox4.0 2 2
chrome35.0.1916.153 61 3
opera33.0.2002.98088 74 1
safari5.0.2 3 3
chrome46.0.2490.71 37 37
chrome27.0.1453.93 13 13
chrome42.0.2311.111 229 9
firefox21.0 736 736
chrome12.0.702.0 2 2
chrome43.0.2357.78 62 1
chrome10.0.648.204 2 2
chrome30.0.0.0 838 29
chrome26.0.1410.64 4 4
chrome24.0.1312.57 2 2
chrome30.0.1599.101 87 2
chrome49.0.2581.0 52 2
firefox40.0 183 72
msie9.0 182 18
chrome11.0.700.3 2 2
msie10.0 278 46
msie2.0 6 6
firefox34.0 10 10
firefox39.0 57 2
opera9.50 54 2
chrome32.0.1700.107 471 7
safari6.0.2 2 2
firefox43.0 1073 36
msie5.0 6 6
opera10.10 4 4
chrome10.0.634.0 76 3
chrome11.0.697.0 2 2
firefox29.0 11 11
firefox23.0 86 4
opera9.00 18 18
chrome45.0.2454.84 54 1
iphone 92 5
chrome38.0.1025.166 358 12
chrome28.0.1500.94 77 2
chrome26.0.1410.43 2 2
firefox41.0 121 50
firefox24.0 2 2
alcatel 62 2
chrome5.0.342.1 1 1
chrome45.0.2454.101 218 140
webcapture 2 2
opera8.00 10 10
chrome0.2.149.29 4 4
chrome10.0.648.133 2 2
opera34.0.2036.25 296 17
netscape4.76 6 6
firefox3.6.8 1 1
chrome34.0.1847.137 13 13
firefox3.6.9 1 1
firefox3.5.0 2 2
chrome43.0.2357.130 74 74
opera8.01 12 12
msie6.0 494 493
firefox35.0 71 1
firefox14.0.1 24 24
chrome17.0.963.65 4 4
chrome19.0.1055.1 2 2
chrome44.0.2403.133 319 10
chrome26.0.1410.65 4 4
safari5.1 13 13
msie8.0 114 4
msie5.5 35 35
chrome14.0.804.0 2 2
firefox17.0 5 5
chrome32.0.1700.99 76 3
msie4.01 3 3
Unknown 1545 1240
chrome10.0.626.0 2 2
chrome34.0.1847.118 74 1
opera7.11 17 17
chrome9.0.597 56 2
opera32.0.1948.25 30 30
chrome14.0.813.0 4 4
samsung 101 3
firefox15.0.1 3 3
chrome33.0.1750.154 1 1
chrome44.0.2403.125 30 30
chrome48.0.2564.23 77 2
chrome25.0.1364.172 1 1
chrome47.0.2526.106 8057 301
chrome38.0.2125.111 74 1
chrome41.0.2272.96 59 1
safari9.0.1 67 1
chrome36.0.1985.125 2 2
firefox19.0 4 4
netscape4.61 6 6
chrome41.0.2272.101 1 1
END_BROWSER

# Screen size - Hits
BEGIN_SCREENSIZE 0
END_SCREENSIZE

# Unknown referer OS - Last visit date
BEGIN_UNKNOWNREFERER 43
Opera/9.80_(Android;_Opera_Mini/12.0.1987/37.7465;_U;_es)_Presto/2.12.423_Version/12.16 20151220065353
}__test|O:_21: 20151219172022
Mozilla/5.0_(compatible;_Genieo/1.0_http://www.genieo.com/webfilter.html) 20151204123433
sjeua}__eusmxa|O:21: 20151218205524
WordPress/4.4;_http://aphiooz.org 20151220144653
LWP::Simple/6.13_libwww-perl/6.13 20151215205836
Mozilla/4.0_(compatible;) 20151231181031
LWP::Simple/6.00_libwww-perl/6.05 20151217031812
bhykp}__wwcsjgiouf}|O:21: 20151230132331
jklmj}__jklmjklmjk|O:21: 20151216223934
Mozilla/4.0_(compatible;_Synapse) 20151229063302
Feedfetcher-Google;_(_http://www.google.com/feedfetcher.html;_feed-id=5223073339734004264) 20151204123432
Mozilla/5.0_(en-us)_AppleWebKit/534.14_(KHTML,_like_Gecko;_Google_Wireless_Transcoder)_Chrome/9.0.597_Safari/534.14 20151226191541
aboutthedomain 20151203173048
SAMSUNG-GT-C3310/1.0_NetFront/4.2_Profile/MIDP-2.0_Configuration/CLDC-1.1_Google 20151230082827
Nokia300/5.0_(06.97)_Profile/MIDP-2.1_Configuration/CLDC-1.1_Mozilla/5.0_AppleWebKit/420__(KHTML,_like_Gecko)_Safari/420_ 20151203054332
Mozilla/5.0_(BB10;_Kbd)_AppleWebKit/537.35__(KHTML,_like_Gecko)_Version/10.3.2.2639_Mobile_Safari/537.35_ 20151228005900
Feedfetcher-Google;_(_http://www.google.com/feedfetcher.html;_1_subscribers;_feed-id=5223073339734004264) 20151231212811
LWP::Simple/5.835_libwww-perl/5.837 20151215064225
Opera/9.80_(Android;_Opera_Mini/12.0.1987/37.7549;_U;_es)_Presto/2.12.423_Version/12.16 20151227065504
Mozilla/5.0_(compatible;_Google-Site-Verification/1.0) 20151205061317
Opera/9.80_(Android;_Opera_Mini/10.0.1884/37.7465;_U;_es)_Presto/2.12.423_Version/12.16 20151216134652
AddThis.com_(http://support.addthis.com/) 20151206183526
Mozilla/5.0_(compatible;_Lipperhey-Kaus-Australis/5.0;__https://www.lipperhey.com/en/about/) 20151212022133
}__test|O:21: 20151231234114
Mozilla/5.0_(BB10;_Touch)_AppleWebKit/537.35__(KHTML,_like_Gecko)_Version/10.3.2.2639_Mobile_Safari/537.35_ 20151220081054
WordPress/4.3.1;_http://www.so-callasvegas.com 20151219140404
WordPress/4.4;_http://www.awmresearch.com 20151218003538
Feedfetcher-Google;_(_http://www.google.com/feedfetcher.html;_1_subscribers;_feed-id=17210911081176051355) 20151231234356
Mozilla/5.0_(compatible;_evc-batch/2.0) 20151215105515
Mozilla/5.0 20151222180459
Feedfetcher-Google;_(_http://www.google.com/feedfetcher.html;_1_subscribers;_feed-id=9213715099056081262) 20151231224251
lswcn}__fcifggammj}|O:21: 20151217121114
NokiaC3-00/5.0_(08.63)_Profile/MIDP-2.1_Configuration/CLDC-1.1_Mozilla/5.0_AppleWebKit/420__(KHTML,_like_Gecko)_Safari/420_ 20151201141513
BREW-Applet/0x20068888_(BREW/3.1.5.20;_DeviceId:_170017;_Lang:_zhcn)_ucweb-squid_Google 20151224223635
Opera/9.50_(Nintendo_DSi;_Opera/507;_U;_es-LA) 20151213172542
NokiaC2-01/5.0_(11.20)_Profile/MIDP-2.1_Configuration/CLDC-1.1_Mozilla/5.0_AppleWebKit/420__(KHTML,_like_Gecko)_Safari/420_ 20151215163911
Mozilla/5.0_(SAMSUNG;_SAMSUNG-GT-S5250/1.0;_U;_bada/1.0;_es)_AppleWebKit/533.1_(KHTML,_like_Gecko)_Dolfin/2.0_Mobile_WQVGA_SMM-MMS/1.2.0_OPN-B 20151213085117
Python-urllib/2.7 20151215091028
facebookexternalhit/1.1 20151213202948
Google_favicon 20151208082806
WhatsApp 20151208153744
BREW-Applet/0x20068888_(BREW/3.1.5.20;_DeviceId:_170017;_Lang:_zhcn)_ucweb-squid 20151224225212
END_UNKNOWNREFERER

# Unknown referer Browser - Last visit date
BEGIN_UNKNOWNREFERERBROWSER 23
python-requests/2.6.2_CPython/2.7.6_Linux/3.13.0-49-generic 20151220180235
}__test|O:21: 20151231234114
}__test|O:_21: 20151219172022
AddThis.com_(http://support.addthis.com/) 20151206183526
sjeua}__eusmxa|O:21: 20151218205524
Java_Browser 20151213015952
bhykp}__wwcsjgiouf}|O:21: 20151230132331
Feedfetcher-Google;_(_http://www.google.com/feedfetcher.html;_1_subscribers;_feed-id=17210911081176051355) 20151231234356
WordPress/4.4;_http://www.awmresearch.com 20151218003538
WordPress/4.4;_http://aphiooz.org 20151220144653
WordPress/4.3.1;_http://www.so-callasvegas.com 20151219140404
BREW-Applet/0x20068888_(BREW/3.1.5.20;_DeviceId:_170017;_Lang:_zhcn)_ucweb-squid_Google 20151224223635
Feedfetcher-Google;_(_http://www.google.com/feedfetcher.html;_feed-id=5223073339734004264) 20151204123432
lswcn}__fcifggammj}|O:21: 20151217121114
jklmj}__jklmjklmjk|O:21: 20151216223934
Feedfetcher-Google;_(_http://www.google.com/feedfetcher.html;_1_subscribers;_feed-id=9213715099056081262) 20151231224251
BREW-Applet/0x20068888_(BREW/3.1.5.20;_DeviceId:_170017;_Lang:_zhcn)_ucweb-squid 20151224225212
Feedfetcher-Google;_(_http://www.google.com/feedfetcher.html;_1_subscribers;_feed-id=5223073339734004264) 20151231212811
facebookexternalhit/1.1 20151213202948
Google_favicon 20151208082806
WhatsApp 20151208153744
Python-urllib/2.7 20151215091028
aboutthedomain 20151203173048
END_UNKNOWNREFERERBROWSER

# Origin - Pages - Hits 
BEGIN_ORIGIN 6
From0 3457 3586
From1 1 1
From2 528 736
From3 772 773
From4 1949 40293
From5 0 0
END_ORIGIN

# Search engine referers ID - Pages - Hits
BEGIN_SEREFERRALS 7
iminent 1 1
yahoo 5 5
bing 4 4
ask 12 12
yandex 6 6
google 496 704
search 4 4
END_SEREFERRALS

# External page referers - Pages - Hits
# The 25 first Pages must be first (order not required for others)
BEGIN_PAGEREFS 130
http://top1-seo-service.com/try.php 38 38
http://sdi-pme.com 21 21
http://best-funnycatsanddogs.com 18 18
http://vekzdorov.ru 16 16
http://www.sexkrasivo.net 15 15
http://auto.rusvile.lt 15 15
http://komputers-best.ru 14 14
http://numrinje.com 13 13
http://xn--b1agm2d.net 13 13
http://catalogs-parts.com 12 12
http://prometeimd.com 12 12
http://forum.poker4life.ru 12 12
http://www.ekspertmed.com 12 12
http://brendbutik.ru 12 12
http://bodybuilding-shop.biz 12 12
http://netpics.org 12 12
http://modabutik.ru 12 12
http://lost-alpha.ru 12 12
http://www.yugo-star.ru 9 9
http://light.ifmo.ru/en/ 9 9
http://mir-business-24.ru 9 9
http://xn--80ahvj9e.xn--p1ai 9 9
http://aftermarket.7zap.com 9 9
http://autonew.biz 9 9
http://choosecuisine.com 9 9
http://vesta-lada.net 6 6
http://sims-sims.ru 8 8
http://angeladorer.com 6 6
http://electricwheelchairsfind.com 7 7
http://www.shoppingmiracles.co.uk 6 6
http://vkontaktemusic.ru 6 6
http://hyipmanager.in 2 2
http://m.facebook.com 3 3
http://azazu.ru 3 3
http://horoshieokna.com 3 3
http://doeco.ru 3 3
http://zebradudka.com 6 6
http://ledekole.com 3 3
http://xn--80ajjbdhgmudixfjc8c5a9df8b.xn--p1ai 3 3
http://buttons-for-website.com 8 8
http://mojam3.com 3 3
http://fo-factory.ru 3 3
http://lombardfinder.ru 3 3
http://na15.ru 3 3
http://infazavr.ru 6 6
http://ublaze.ru 6 6
https://www.facebook.com 1 1
http://recsil.org 8 8
http://cmd.kz 3 3
http://myfeetish.com 8 8
http://wzgyyq.com 4 4
http://memovn.com 3 3
http://blogos.kz 6 6
http://ccpfy.net/porno-hd-2016/ 7 7
http://platesauto.com 6 6
http://dimkino.ru/tureckie-seriali 8 8
http://gdcentre.ru 3 3
http://gardene.ru 3 3
http://ecookna.com.ua 6 6
http://wdfdocando.com 3 3
http://kino-filmi.com 4 4
http://fealq.com 3 3
http://cardul.ru 6 6
http://slonechka.ru 8 8
http://t.co/BpeqXh2V0J 1 1
http://cookingmeat.ru 3 3
http://na-telefon.biz 6 6
http://vozbujdenie.com 6 6
http://delayreferat.ru 3 3
http://fanoboi.com 2 2
http://prokotov.com 2 2
http://origin-my.ru 1 1
http://healmytrauma.info 3 3
http://designdevise.com 3 3
http://shtaketniki.ru 2 2
http://www.rvtv.ru 5 5
http://lenoreno.com 3 3
https://steelmaster.lv 3 3
http://hvd-store.com 2 2
http://vsesubwaysurfers.com 6 6
http://www.hdfreeporno.net 3 3
http://www.moscow-region.ru 5 5
http://nalberan.com 2 2
http://burger-imperia.com 4 4
http://energy-ua.com 9 9
https://www.facebook.com 0 1
http://zojirushi-products.ru 5 5
http://feargames.ru 3 3
http://womensterritory.ru 6 6
http://bimatoprost-careprost.com 5 5
http://tytoona.com 3 3
http://lenoreno.com/news.php 6 6
http://luckyshop.net.ua 3 3
http://flprog.com 6 6
http://lirunet.ru 6 6
http://karadene.com 3 3
http://yaderenergy.ru 2 2
http://www.sarafangel.ru 6 6
http://azbukadiets.ru 3 3
http://wheelchairliftfind.com 9 9
http://mriyadh.com 3 3
http://labplus.ru 3 3
http://googleweblight.com 5 5
http://fermersovet.ru 2 2
http://detskie-zabavi.ru 9 9
http://realnye-otzyvy.info 3 3
http://ereko.ru 3 3
http://wallpapers-best.com 6 6
http://alphaforum.ru 3 3
http://sachaan.com 6 6
http://www.venturian.co.uk/CAREERS/TabId/1278/ArtMID/3644/ArticleID/497/Front-Of-House-Accounts-Assistant.aspx 1 1
http://privatov-zapisi.ru/home/ 3 3
http://pronekut.com 3 3
http://pornoforadult.com 6 6
http://expertnaya-ocenka.ru 3 3
http://brothers-smaller.ru 1 1
http://nagdak.ru 3 3
http://xn--80ab4aa2g.xn--p1ai 9 9
http://magda-gadalka.ru 3 3
http://www.samo-soznanie.ru 3 3
https://es-la.facebook.com 1 1
http://filmidivx.com 6 6
http://alepcable.com 6 6
http://www.hostingned.com/stream/index.php/nuestros-clientes/radios 1 1
http://m.facebook.com 3 3
http://domik-derevne.ru 3 3
http://stairliftsfind.com 6 6
http://hundejo.com 1 1
http://blockworld.ru 3 3
http://chcu.net/porno-video-2016/ 3 3
END_PAGEREFS

# Search keyphrases - Number of search
# The 10 first number of search must be first (order not required for others)
BEGIN_SEARCHWORDS 35
centro+evangelistico+peniel 9
ciudad+online 6
peniel 4
cepeniel 3
comuni%c3%b3n+adoraci%c3%b3n+discipular+evangelismo 2
http+//googleweblight.com/%3flite_url%3dhttp+//www.cepeniel.org/index.php%3foption%253dcom_content%2526view%253darticle%2526id%253d5+ministerios%2526catid%253d2+informacion%2526itemid%253d174%26ei%3du5lnlqd8%26lc%3des-419%26s%3d1%26m%3d90%26f%3d1%26gl%3dve%26host%3dwww.google.co.ve%26q%3dwww.cepeniel.com+musica%26ts%3d1451018061%26sig%3dall1aj6mumqzy_oyqsx5yappm1intl5erg 2
planificacion+del+ministerio+de+medios+audiovisuales 2
centro+evangel%c3%adstico+peniel 2
www.cepeniel.org 2
iglesia+peniel+valencia 2
iglesia+peniel+valencia+horarios 1
consultas+de+edmundo+lazdins 1
estructura+organica+de+un+equipo+ministerial+iklesia 1
logotipo+del+centro+peniel 1
reflexion+como+y+porque+jesus+fue+concebido+del+espiritu+santo+segun+el+libro+en+lucas1%3b30-35 1
iglesia+de+alvaro+rea 1
agenda+oracion+anual 1
centro+evangelistico+peniel+ciudad+online 1
www.centro+evangelistico+peniel 1
iglesia+evangelica+peniel+conservadora 1
a+tiempo.por+radio+transmundial.pastor+jose+hernandez 1
las+4+leyes+del+matrimonio 1
padre+en+estad+d%c3%ada+que+t%c3%ba+me+gu%c3%ades+y+t%c3%ba+nano+me+sostenga+am%c3%a9n 1
proyecto+evangelistico+para+jovenes+y+adolescentes 1
http+//www.cepeniel.org/ 1
mujerdechicoban 1
oraciones+de+liberacion+del+pueblo+de+venezuela 1
ceci+centro+evangelistico+peniel 1
proyectos+evangelisticos+para+jovenes 1
ministerio+evangelistico+de+liberacion+fuerzas+renovadas 1
oracion+para+que+lo+oculto+salga+a+la+luz 1
cu%c3%a1ntos+a%c3%b1os+tiene+peniel 1
www.cepeniel 1
p%c3%a1gina+oficial+de+la+peniel+en+venezuela 1
servicios+de+centro+cristiano+peniel 1
END_SEARCHWORDS

# Search keywords - Number of search
# The 25 first number of search must be first (order not required for others)
BEGIN_KEYWORDS 107
peniel 26
centro 15
evangelistico 14
de 10
ciudad 7
online 7
del 6
iglesia 5
y 3
http 3
valencia 3
en 3
para 3
ministerio 3
cepeniel 3
discipular 2
planificacion 2
www.cepeniel.org 2
liberacion 2
venezuela 2
informacion%2526itemid%253d174%26ei%3du5lnlqd8%26lc%3des-419%26s%3d1%26m%3d90%26f%3d1%26gl%3dve%26host%3dwww.google.co.ve%26q%3dwww.cepeniel.com 2
adoraci%c3%b3n 2
//googleweblight.com/%3flite_url%3dhttp 2
//www.cepeniel.org/index.php%3foption%253dcom_content%2526view%253darticle%2526id%253d5 2
t%c3%ba 2
agenda 1
consultas 1
pueblo 1
//www.cepeniel.org/ 1
estad 1
cristiano 1
renovadas 1
lazdins 1
alvaro 1
gu%c3%ades 1
oficial 1
santo 1
www.centro 1
leyes 1
hernandez 1
evangelica 1
lucas1%3b30-35 1
jesus 1
transmundial.pastor 1
matrimonio 1
logotipo 1
horarios 1
rea 1
ministerial 1
tiene 1
proyectos 1
salga 1
equipo 1
padre 1
anual 1
evangelismo 2
nano 1
audiovisuales 2
ceci 1
espiritu 1
evangel%c3%adstico 2
fue 1
luz 1
www.cepeniel 1
porque 1
conservadora 1
comuni%c3%b3n 2
segun 1
como 1
a 2
oraciones 1
jovenes 2
oculto 1
servicios 1
4 1
radio 1
evangelisticos 1
proyecto 1
musica%26ts%3d1451018061%26sig%3dall1aj6mumqzy_oyqsx5yappm1intl5erg 2
que 2
a%c3%b1os 1
edmundo 1
p%c3%a1gina 1
oracion 2
fuerzas 1
lo 1
tiempo.por 1
d%c3%ada 1
jose 1
la 2
me 2
adolescentes 1
iklesia 1
el 1
medios 2
reflexion 1
mujerdechicoban 1
concebido 1
las 1
am%c3%a9n 1
cu%c3%a1ntos 1
organica 1
un 1
sostenga 1
libro 1
ministerios%2526catid%253d2 2
estructura 1
END_KEYWORDS

# Errors - Hits - Bandwidth
BEGIN_ERRORS 6
206 161 9273512
303 1824 0
503 2 1258
500 1258 110154
301 19 11723
404 508 373376
END_ERRORS

# URL with 404 errors - Hits - Last URL referrer
BEGIN_SIDER_404 174
/cfg.php 2 -
/2011/images/stories/esther.png 4 http://www.ergio.uphero.com/99013/el-ministro-y-su-familia-conferencia-para-predicadores.html
/editor/FCKeditor/editor/dialog/fck_about.html 1 http://cepeniel.org/editor/FCKeditor/editor/dialog/fck_about.html
/modules/mod_fxprev/libraries/tr.php 2 http://cepeniel.org/modules/mod_fxprev/libraries/tmpl.php
/cepenielorg/videos/916171071758726/ 1 -
/Admin/Fckeditor/_whatsnew.html 1 -
/config.php 2 http://cepeniel.org/config.php
/site/libraries/simplepie/README.txt 1 -
/templates/zt_galosa/images/color/blue/module_badges.png 3 http://www.cepeniel.org/index.php
/plugins/system/plugin_googlemap2/plugin_googlemap2_proxy.php 1 -
/test/wp-admin/ 2 -
/editor/fckeditor/editor/ 1 -
/wp-content/plugins/resd.php 1 http://www.googlebot.com/bot.html
/news/libraries/simplepie/README.txt 1 -
/contact.php 2 -
/server/php/ 1 http://cepeniel.org/server/php/
/ 15 -
/wp-login.php 40 -
/index.php%3Foption%3Dcom_prayercenter%26task%3Dview_devotion%26Itemid%3D177&rct=j&q=&esrc=s&sa=U&ved=0ahUKEwiwwsvN6uXJAhXBJaYKHZqdDFA4yAEQFgh8MBM&usg=AFQjCNGvDS5wSNNNF__b-dwRCl_1wX4mvQ 2 http://www.cepeniel.org
/images/wso2.php 1 -
/74508855.php 1 -
/tmp/wso2.php 1 -
/templates/zt_galosa/images/bullet-list.gif 3 http://www.cepeniel.org/index.php
/2011/images/stories/Bautizantes01.JPG 1 -
//images/xxu.php 4 -
/wp/ 2 -
/libraries/joomla/exporter.php 14 http://cepeniel.org/
/images/maink.php 1 -
/index.php%3Foption%3Dcom_prayercenter%26task%3Dview_devotion%26Itemid%3D177&rct=j&q=&esrc=s&sa=U&ved=0ahUKEwjw9LzyxeXJAhXKBI4KHVHyD8c4yAEQFgh8MBQ&usg=AFQjCNGvDS5wSNNNF__b-dwRCl_1wX4mvQ 2 http://www.cepeniel.org
/images/stories/3xp.php 1 -
/blog/wp-admin/ 2 -
/blog/libraries/simplepie/README.txt 1 -
/wordpress/wp-admin/ 2 -
/main.asp 2 -
/fckeditor/editor/ 1 -
/libraries/simplepie/simplepie.lib.php 1 -
/components/com_creativecontactform/fileupload/index.php 1 http://cepeniel.org/components/com_creativecontactform/fileupload/index.php
/index.php%3Foption%3Dcom_prayercenter%26task%3Dview_devotion%26Itemid%3D177&rct=j&q=&esrc=s&sa=U&ved=0ahUKEwiJrsbJ--TJAhVNBY4KHclaDKQ4yAEQFgh_MBM&usg=AFQjCNGvDS5wSNNNF__b-dwRCl_1wX4mvQ 2 http://www.cepeniel.org
/modules/mod_araticlhess1/mod_araticlhess1.php 1 -
/wp-admin/wp-login.php 3 http://www.cepeniel.org/wp-admin/
/manage/FCKeditor/editor/dialog/fck_about.html 1 http://cepeniel.org/manage/FCKeditor/editor/dialog/fck_about.html
/modules/mod_cmscore/mod_cmscore.php 1 http://cepeniel.org/modules/mod_cmscore/mod_cmscore.php
/components/com_creativecontactform/fileupload/files/samplc.php 1 -
/89018596.php 1 -
/cache/clean.php 1 -
/x.php 1 -
/main.php 2 -
/joomla/libraries/simplepie/README.txt 1 -
/2011/images/stories/francis.png 4 http://www.ergio.uphero.com/99013/el-ministro-y-su-familia-conferencia-para-predicadores.html
/bitrix/admin/index.php 4 -
/contact.aspx 1 -
/index.php 105 -
/php-ofc-library/ofc_upload_image.php 1 http://cepeniel.org/php-ofc-library/ofc_upload_image.php
/modules/mod_xsystem/mod_xsystem.php 1 -
/39447940.php 1 -
/fckeditor/editor/filemanager/browser/default/connectors/test.html 1 -
/admin/login.php 4 -
/editor/editor/dialog/fck_about.html 1 http://cepeniel.org/editor/editor/dialog/fck_about.html
/index.php%3Foption%3Dcom_prayercenter%26task%3Dview_devotion%26Itemid%3D177&rct=j&q=&esrc=s&sa=U&ved=0ahUKEwi-pau1n-TJAhXDJqYKHU65A1A4yAEQFgiEATAX&usg=AFQjCNGvDS5wSNNNF__b-dwRCl_1wX4mvQ 2 http://www.cepeniel.org
/kp.html 2 -
/wp-content/plugins/revslider/temp/update_extract/samplc.php 1 -
/editor/dialog/fck_about.html 1 http://cepeniel.org/editor/dialog/fck_about.html
/index.php%3Foption%3Dcom_prayercenter%26task%3Dview_devotion%26Itemid%3D177&rct=j&q=&esrc=s&sa=U&ved=0ahUKEwih2MmT1uTJAhVOC44KHVgpBpU4yAEQFgh_MBM&usg=AFQjCNGvDS5wSNNNF__b-dwRCl_1wX4mvQ 2 http://www.cepeniel.org
/main.html 2 -
/store/libraries/simplepie/README.txt 1 -
/modules/mod_speedup/mod_speedup.php 1 http://cepeniel.org/modules/mod_speedup/mod_speedup.php
/libraries/css.php 1 -
/plugins/editor.zoho/agent/save_zoho.php 1 -
/wp-content/themes/ProjectTheme/lib/upload_main/upload.php 1 http://cepeniel.org/wp-content/themes/ProjectTheme/lib/upload_main/upload.php
/tmp/wso.php 1 -
/wp-content/uploads/phpinfo.php 1 http://www.googlebot.com/bot.html
/cms/libraries/simplepie/README.txt 1 -
/images/i.php 1 http://www.cepeniel.org/images/i.php
/73129835.php 1 -
/images/xxu.php 8 -
/libraries/lol.php 2 -
/images/DiaAmigoMarzo2013/p1110418.jpg 1 -
/libraries/image-import.php 1 -
/wordpress/ 2 -
/admin/ 4 -
/components/com_comprofiler/images/offline.gif 3 http://www.cepeniel.org/index.php
/images/img.php 1 -
/wsdl.php 1 -
/libraries/index.php 1 -
/FCK/editor/dialog/fck_about.html 1 http://cepeniel.org/FCK/editor/dialog/fck_about.html
/logs/logger.php 1 -
/images/presentacion/Banner%20VIIICECI.jpg 5 http://www.cepeniel.org/index.php
/cepenielorg/videos/943897178986115/ 6 -
/libraries/simplepie/idn/main.php 1 http://cepeniel.org/libraries/simplepie/idn/main.php
/contact 1 http://cepeniel.org/contact
/images/phocagallery/coolguy2004-coalo-zamo-0a69/thumbs/phoca_thumb_l_equipo%20web%205.jpg 3 http://www.cepeniel.org/index.php
/blog/ 2 -
/apple-touch-icon.png 3 -
/wp-content/plugins/Login-wall-etgFB/login_wall.php 1 www.cepeniel.org
/images/phocagallery/coolguy2004-coalo-zamo-0a69/thumbs/phoca_thumb_l_dscf4238.jpg 1 http://www.cepeniel.org/index.php
/admin/FCKeditor/editor/dialog/fck_about.html 1 http://cepeniel.org/admin/FCKeditor/editor/dialog/fck_about.html
/2011/index.php 20 -
/wp-content/ 1 -
/previous.html 3 -
/images/M_images/printButton.png 3 http://www.cepeniel.org/index.php
/contact.htm 2 -
/user/ 5 -
/tmp/404.php 1 -
/cache/cache-db.php 2 -
/\" 1 -
/xmlrpc.php 7 -
/wp-content/plugins/wpallimport/samplc.php 1 -
/samplc.php 1 -
/components/com_media/ajax.php 2 -
/abc.php 1 http://cepeniel.org/abc.php
/FCKeditor/editor/dialog/fck_about.html 1 http://cepeniel.org/FCKeditor/editor/dialog/fck_about.html
/modules/mod_ariimageslidersa/mod_ariimageslidersa.php 1 -
/wp-admin/ 5 -
/contact.asp 1 -
/administrator/includes/css.php 1 -
/uploadify/uploadify.php 1 http://cepeniel.org/uploadify/uploadify.php
/modules/mod_fxprev/libraries/search.php 2 http://cepeniel.org/modules/mod_fxprev/libraries/tr.php
/old/wp-admin/ 2 -
/js/fckeditor/editor/ 1 -
/ma.html 1 -
/%7B%22auto_hd%22:false,%22autoplay_reason%22:%22unknown%22,%22default_hd%22:true,%22disable_native_controls%22:true,%22inline_player%22:false,%22pixel_ratio%22:1,%22preload%22:false,%22start_muted%22:false,%22rtmp_buffer%22:false,%22video_data%22:%7B%22pr 2 -
/wp/wp-admin/ 2 -
/cache/cache.php 1 -
/Editor/Editor/dialog/fck_about.html 1 -
/component/users/ 5 http://cepeniel.org/component/users/
/index.php%3Foption%3Dcom_prayercenter%26task%3Dview_devotion%26Itemid%3D177&rct=j&q=&esrc=s&sa=U&ved=0ahUKEwiar-SN4uPJAhUm2qYKHctoAVQ4yAEQFgiJATAY&usg=AFQjCNGvDS5wSNNNF__b-dwRCl_1wX4mvQ 2 http://www.cepeniel.org
/server/php/files/samplc.php 1 -
/components/com_comprofiler/images/online.gif 3 http://www.cepeniel.org/index.php
/blog/robots.txt 2 -
/sites/all/libraries/elfinder/files/myshe.php 1 http://www.googlebot.com/bot.html
/43064886.php 1 -
/media/media.php 1 http://cepeniel.org/media/media.php
/images/phocagallery/coolguy2004-coalo-zamo-0a69/thumbs/phoca_thumb_l_dscf4254.jpg 1 http://www.cepeniel.org/index.php
//xxu.php 1 -
/tmp-upload-images/samplc.php 1 -
/images/phocagallery/coolguy2004-coalo-zamo-0a69/thumbs/phoca_thumb_l_equipo%20web%201.jpg 3 http://www.cepeniel.org/index.php
/shop/libraries/simplepie/README.txt 1 -
/plugins/editors/tinymce/jscripts/tiny_mce/plugins/tinybrowser/upload.php 1 http://cepeniel.org/
/includes/fckeditor/editor/ 1 -
/license.php 3 http://www.cepeniel.org/license.php
/blogs/libraries/simplepie/README.txt 1 -
/admin.php 9 -
/2011/images/stories/rmicn/misiones.jpg 1 -
/main.jsp 2 -
/admin 1 -
/tmp/img.php 1 -
/images/phocagallery/coolguy2004-coalo-zamo-0a69/thumbs/phoca_thumb_l_dscf4534.jpg 1 http://www.cepeniel.org/index.php
/components/com_virtuemart/virtuemart.php 1 http://cepeniel.org/
/test/libraries/simplepie/README.txt 1 -
/media/editors/tinymce/skins/lightgray/img/thumb.php 5 http://www.cepeniel.org/media/editors/tinymce/skins/lightgray/img/thumb.php
/FCKeditor/_whatsnew.html 1 -
/engine/init.php 1 -
/index.php%3Foption%3Dcom_prayercenter%26task%3Dview_devotion%26Itemid%3D177&rct=j&q=&esrc=s&sa=U&ved=0ahUKEwii_MecoOXJAhUBxY4KHbUjD9Q4yAEQFghyMBI&usg=AFQjCNGvDS5wSNNNF__b-dwRCl_1wX4mvQ 2 http://www.cepeniel.org
/wp-admin/admin-ajax.php 9 -
/modules/mod_fxprev/libraries/tmpl.php 3 -
/plus/img/wbg.gif 3 -
/user 1 -
/myshe.php 1 http://www.googlebot.com/bot.html
/%7B%22auto_hd%22:false,%22autoplay_reason%22:%22unknown%22,%22default_hd%22:true,%22disable_native_controls%22:true,%22inline_player%22:false,%22pixel_ratio%22:1,%22preload%22:false,%22start_muted%22:false,%22video_data%22:%7B%22progressive%22:[%7B%22hd_s 6 -
/10400076.php 1 -
/contact.html 1 -
/demo/libraries/simplepie/README.txt 1 -
//plugins/editors/tinymce/jscripts/tiny_mce/plugins/tinybrowser/upload.php 1 -
/main.htm 2 -
/templates/webcore_beginning/css/template.css 2 http://www.cepeniel.org/index.php
/media/jui/js/cms.js 1 -
/apple-touch-icon-precomposed.png 6 -
/wp-content/uploads/samplc.php 2 -
/libraries/rot.php 3 -
/libraries/simplepie/simple.php 1 -
/main.aspx 2 -
/sites/all/libraries/elfinder/elfinder.html 1 -
/modules/mod_fxprev/libraries/cacheplugin.php 1 http://cepeniel.org/modules/mod_fxprev/libraries/cacheplugin.php
/sites/all/libraries/elfinder/php/connector.minimal.php 1 http://www.cepeniel.org/sites/all/libraries/elfinder/php/connector.minimal.php
END_SIDER_404
