AWSTATS DATA FILE 7.4 (build 20140726)
# If you remove this file, all statistics for date 201511 will be lost/reset.
# Last config file used to build this data file was /home/cepeniel/tmp/awstats/awstats.cepeniel.org.conf.

# Position (offset in bytes) in this file for beginning of each section for
# direct I/O access. If you made changes somewhere in this file, you should
# also remove completely the MAP section (AWStats will rewrite it at next
# update).
BEGIN_MAP 28
POS_GENERAL 2009                
POS_TIME 2708                
POS_VISITOR 3946                
POS_DAY 37590               
POS_DOMAIN 38607               
POS_LOGIN 39465               
POS_ROBOT 39620               
POS_WORMS 40390               
POS_EMAILSENDER 40521               
POS_EMAILRECEIVER 40664               
POS_SESSION 40740               
POS_SIDER 40954               
POS_FILETYPES 41614               
POS_DOWNLOADS 41884               
POS_OS 41932               
POS_BROWSER 42444               
POS_SCREENSIZE 46457               
POS_UNKNOWNREFERER 46531               
POS_UNKNOWNREFERERBROWSER 48642               
POS_ORIGIN 49678               
POS_SEREFERRALS 49831               
POS_PAGEREFS 50043               
POS_SEARCHWORDS 52681               
POS_KEYWORDS 53978               
POS_MISC 2370                
POS_ERRORS 54953               
POS_CLUSTER 39321               
POS_SIDER_404 55119               
END_MAP

# LastLine    = Date of last record processed - Last record line number in last log - Last record offset in last log - Last record signature value
# FirstTime   = Date of first visit for history file
# LastTime    = Date of last visit for history file
# LastUpdate  = Date of last update - Nb of parsed records - Nb of parsed old records - Nb of parsed new records - Nb of parsed corrupted - Nb of parsed dropped
# TotalVisits = Number of visits
# TotalUnique = Number of unique visitors
# MonthHostsKnown   = Number of hosts known
# MonthHostsUnKnown = Number of hosts unknown
BEGIN_GENERAL 8
LastLine 20151201000040 760668 194589399 17098444242803
FirstTime 20151101002058
LastTime 20151130235411
LastUpdate 20170608094454 760668 0 760412 255 0
TotalVisits 1845                
TotalUnique 775                 
MonthHostsKnown 0                   
MonthHostsUnknown 820                 
END_GENERAL

# Misc ID - Pages - Hits - Bandwidth
BEGIN_MISC 10
PDFSupport 0 0 0
WindowsMediaPlayerSupport 0 0 0
DirectorSupport 0 0 0
FlashSupport 0 0 0
QuickTimeSupport 0 0 0
JavaEnabled 0 0 0
RealPlayerSupport 0 0 0
TotalMisc 0 0 0
AddToFavourites 0 567 0
JavascriptDisabled 0 0 0
END_MISC

# Hour - Pages - Hits - Bandwidth - Not viewed Pages - Not viewed Hits - Not viewed Bandwidth
BEGIN_TIME 24
0 324 464 14880929 1298 1354 12455021
1 69 191 3226060 1028 1057 12064279
2 73 215 3589985 1178 1229 13386636
3 138 671 10887895 1571 1619 15856156
4 73 626 12525830 1078 1129 12605916
5 176 1173 22471776 1003 1049 9748680
6 611 5700 107349125 885 1027 14554678
7 281 7600 152795837 1925 2199 29344156
8 255 4900 92214346 1666 1819 30589917
9 522 4137 70635140 1725 1868 21768279
10 251 2669 47500871 1191 1295 12656343
11 246 2524 43446826 2473 2547 30234476
12 149 1965 28837975 1682 1763 20475320
13 403 3350 62354982 1320 1456 14664102
14 254 3615 65802522 895 1119 17237334
15 148 2292 42202184 1428 1560 22485366
16 213 2267 47724187 1795 1875 24186406
17 156 2586 49062983 1337 1445 24757908
18 439 3449 62779698 1848 1981 24210514
19 189 3065 54289852 1205 1315 15255661
20 356 2738 44604790 1095 1234 15714864
21 236 2569 42938213 1699 1775 22482094
22 197 1379 21081256 1380 1519 23282937
23 140 928 20409757 1233 1373 16292382
END_TIME

# Host - Pages - Hits - Bandwidth - Last visit date - [Start date of last visit] - [Last page of last visit]
# [Start date of last visit] and [Last page of last visit] are saved only if session is not finished
# The 25 first Hits must be first (order not required for others)
BEGIN_VISITOR 820
186.90.90.88 407 482 4251088 20151129064946
179.178.99.141 255 255 767244 20151126092931
189.58.174.88 255 255 767244 20151121185913
188.165.196.25 248 248 9271618 20151116133933
192.95.29.116 248 248 9271696 20151130005506
66.249.90.23 203 203 6790969 20151130205846
66.249.90.25 194 194 7481529 20151130201002
66.249.90.27 146 146 5148203 20151130230802
186.91.126.47 144 282 1098640 20151112223051
193.201.227.56 118 118 528876 20151110122314
187.188.165.33 104 264 1103911 20151116143927
190.79.86.91 99 236 1109556 20151115210155
104.245.39.114 71 71 214692 20151119053341
200.98.167.226 68 68 205683 20151117162320
178.137.89.181 58 58 1805891 20151130171622
37.115.191.181 57 57 1781318 20151130235310
46.118.119.48 50 50 1577070 20151130154525
142.196.125.34 49 901 21201065 20151130061724
64.79.100.19 48 48 690189 20151125031454
91.200.12.106 48 48 1974220 20151114213448
67.217.35.215 48 48 690226 20151114232744
186.94.115.193 43 176 928648 20151101210105
201.77.70.219 42 42 129084 20151115120643
178.137.161.6 39 39 1424298 20151120062207
178.137.94.14 38 38 1265774 20151120144506
190.75.131.202 1 61 655040 20151119165319
186.90.159.254 1 53 625549 20151109132742
104.154.79.186 1 33 323070 20151129111633
200.82.184.172 0 40 1631467 
123.125.71.90 1 1 11992 20151109051142
190.78.238.76 8 135 1093402 20151105080929
186.185.70.242 2 86 87003 20151101083352
190.38.70.233 4 93 1966457 20151101082139
186.91.223.13 1 62 1142220 20151109153458
37.115.154.109 15 15 524730 20151121201605
91.200.12.7 36 36 1480656 20151118202734
200.35.64.107 1 74 1891040 20151115090126
190.205.198.139 4 64 734083 20151130070235
186.92.42.29 1 74 1891033 20151118173845
190.232.124.102 1 57 621517 20151127134412
190.199.220.74 2 75 1903308 20151122221024
190.227.34.164 1 74 1891065 20151109102750
186.24.41.162 4 143 1094223 20151120142515
190.111.122.106 2 65 2192715 20151124071027
200.84.186.73 4 184 2104105 20151124151136
193.0.129.193 3 3 118519 20151105144749
200.71.149.66 1 55 739797 20151120200640
190.206.96.197 10 228 5833752 20151129082221
181.168.2.226 1 74 1891038 20151115171706
190.114.247.190 1 62 842948 20151115210528
204.13.200.200 1 30 286031 20151128053821
190.157.68.251 1 62 727313 20151118162913
66.249.91.160 28 28 854550 20151127060526
190.212.71.117 6 171 2291798 20151104173353
201.242.82.247 1 58 631859 20151116115709
190.205.132.102 1 56 680016 20151115152839
66.249.88.35 10 56 1052386 20151130121227
186.185.239.204 1 58 667000 20151110044625
216.46.98.249 1 1 17995 20151118080851
200.84.163.50 0 1 0 
172.56.27.127 1 70 11993 20151101092451
201.242.54.169 9 302 5247043 20151129071937
186.95.211.179 0 26 133612 
212.225.135.245 1 74 1891063 20151110090219
186.57.27.212 1 74 1891038 20151128183254
190.199.210.171 7 89 2203200 20151112094007
190.204.160.63 3 78 1367824 20151109145239
190.233.151.160 1 57 621661 20151122181805
66.249.90.11 5 5 237595 20151113103218
181.34.216.225 1 60 792582 20151123182957
190.201.243.132 2 62 709589 20151108110545
107.167.109.152 1 78 1895613 20151108071559
186.167.244.42 1 74 1091751 20151122174936
190.206.125.97 11 185 3224488 20151125084913
201.243.157.8 1 57 687945 20151111050148
97.100.88.79 1 74 1891038 20151116132121
188.72.127.146 4 4 130669 20151103190302
200.84.151.39 2 64 751939 20151115161227
176.8.244.238 21 21 654363 20151130180257
190.201.41.194 4 86 1283559 20151106172632
190.77.240.14 1 64 653466 20151127104610
66.249.83.223 0 46 370999 
190.8.168.71 23 1058 24298863 20151130084026
190.202.169.109 7 107 2156664 20151124112921
119.160.130.218 1 1 42399 20151120051939
190.205.199.186 3 87 1908674 20151102072614
66.249.90.61 7 7 279659 20151126074810
190.205.106.4 4 184 4352152 20151129063733
142.255.234.56 5 64 733596 20151107134829
190.200.234.61 1 74 1891039 20151125194817
190.52.98.2 2 75 1903007 20151124065256
190.204.229.154 3 87 1975125 20151111170238
186.92.130.85 1 58 631860 20151115174917
190.204.245.13 1 74 1891040 20151116080112
201.211.114.85 36 338 512627 20151130082433
190.73.96.105 6 145 1112258 20151119184437
190.234.106.50 3 87 1974996 20151103093651
68.171.247.192 1 44 974448 20151118163506
186.188.112.125 3 78 2036994 20151105195315
186.89.180.174 2 87 1938299 20151130121927
181.193.147.67 3 58 649358 20151118043551
177.238.114.67 4 143 1095162 20151122084228
186.96.78.186 1 27 171354 20151122211218
186.124.40.186 2 81 1936908 20151121171813
201.209.142.25 9 124 2343431 20151106141747
5.9.94.207 6 6 200189 20151127080718
186.94.107.200 1 74 1891040 20151121110647
188.92.75.244 1 1 56573 20151102020532
190.199.217.192 3 149 3794045 20151122082528
176.213.16.27 6 6 251385 20151127073053
190.38.152.204 1 74 1891063 20151105095454
186.185.68.71 1 57 620105 20151119051106
190.53.209.77 1 59 957247 20151112162229
142.255.214.86 5 62 728487 20151118063244
190.201.101.191 1 73 1890239 20151104134306
92.222.252.176 1 1 11967 20151125203246
68.13.64.112 3 137 929148 20151118212101
62.210.215.109 20 20 1520496 20151130235411
190.200.44.75 1 31 188660 20151130141205
189.110.43.108 2 75 1903052 20151109154725
186.185.9.95 2 62 709540 20151122081016
179.62.57.114 1 74 1891063 20151101142619
68.171.247.196 0 27 660083 
37.233.37.93 2 2 34758 20151128104512
186.87.37.127 2 124 1926010 20151107154919
200.8.59.129 1 33 367993 20151112200053
157.55.80.72 1 204 2559627 20151118194802
91.198.127.156 3 3 118519 20151104211714
141.0.10.54 1 84 1906519 20151122043741
190.111.120.110 32 189 3532285 20151117113417
190.207.176.79 1 74 1891038 20151113200758
68.171.247.205 0 41 1118184 
192.99.10.173 1 1 42398 20151118181520
186.167.250.38 1 1 11992 20151101094159
190.200.23.45 7 300 7600882 20151129085232
190.38.62.61 0 1 644582 
181.112.204.144 1 58 631857 20151117073044
186.167.245.148 2 75 23988 20151108065048
216.170.119.130 2 2 17226 20151125111517
104.182.188.43 2 75 1903011 20151115085423
187.57.234.164 1 73 1287797 20151108092328
190.79.72.190 2 85 1941488 20151112075334
190.138.57.137 3 6 39414 20151129195637
190.206.124.125 3 82 1983373 20151130062812
186.92.163.36 1 57 621679 20151104101150
190.79.77.20 2 116 1481624 20151117120309
190.79.50.170 1 52 656186 20151114173259
68.171.247.206 1 14 207066 20151112012558
190.206.103.30 1 78 2232386 20151126212602
38.99.62.91 1 1 11968 20151128054129
5.9.112.6 12 12 721881 20151129073402
179.155.14.61 1 30 249964 20151101115548
186.167.251.55 2 59 714197 20151113085411
190.203.49.224 9 161 3844123 20151128194340
201.227.43.69 4 145 1092833 20151118212639
198.46.246.102 1 1 11969 20151130173536
200.84.5.115 7 103 2059816 20151129070331
142.255.230.176 1 1 11491 20151108164550
201.210.15.76 4 99 1555471 20151113132126
201.210.19.148 2 75 1903010 20151123084057
200.90.99.147 6 141 820670 20151106124053
65.55.217.53 1 31 255994 20151121034541
190.204.139.226 1 74 1891117 20151111202755
201.242.21.254 1 61 697269 20151122065901
201.249.19.213 1 74 1891036 20151119135236
198.229.1.249 1 74 1891037 20151117201852
148.251.75.46 5 5 174283 20151127213204
2.153.6.111 1 61 697267 20151118080724
177.220.184.3 34 34 103581 20151116105133
190.79.93.183 1 72 1887401 20151115134541
38.100.21.69 2 11 115309 20151114025805
88.198.22.8 1 1 42399 20151126141934
66.102.6.164 1 29 463825 20151116105011
190.205.117.86 1 32 354832 20151126110321
186.92.15.137 1 74 1891062 20151101060354
186.167.242.178 1 58 666977 20151125130115
50.166.237.34 1 57 683325 20151112131421
185.92.73.125 2 2 2048 20151130174908
190.206.151.200 3 87 1978009 20151129203025
186.185.60.43 1 1 8916 20151111180133
70.209.17.35 1 1 11970 20151115085541
190.74.17.49 2 77 2024948 20151115111518
200.84.179.21 1 74 1891037 20151113200834
186.94.101.53 6 89 2176068 20151104110609
200.75.9.82 17 183 1575894 20151105085901
198.229.1.238 15 153 1135721 20151106114725
186.167.251.35 14 224 1905875 20151109203034
186.167.249.54 1 1 83402 20151128113821
201.242.0.200 0 19 251077 
80.183.91.86 3 72 807650 20151113034611
177.17.43.22 1 74 1891037 20151127164733
201.242.95.146 1 35 438897 20151110171705
190.79.75.25 3 76 1914975 20151123100511
201.209.224.46 2 58 632098 20151104065818
200.84.0.106 7 106 2160285 20151101045623
157.55.81.9 0 75 1929580 
186.90.88.131 1 74 1891038 20151122073124
190.154.84.234 2 75 1903073 20151108210543
190.205.111.211 2 148 3563150 20151129073732
186.185.63.127 6 204 3208327 20151108083856
200.229.218.6 10 87 1157040 20151117210909
190.203.84.196 1 61 697268 20151118124504
186.185.40.115 3 83 2011466 20151118111607
186.24.41.130 0 127 0 
68.171.247.202 1 34 947239 20151116063651
186.90.68.183 1 74 1891038 20151122072524
190.231.85.240 1 74 1891066 20151106180323
172.56.27.25 2 59 693989 20151118154401
186.167.244.8 3 81 1807729 20151129082029
94.232.16.183 5 5 239512 20151103210139
190.204.42.63 1 33 565485 20151102174117
190.36.82.116 1 74 1891041 20151115161839
200.8.53.205 3 154 3916121 20151115065859
190.202.184.187 9 151 2689463 20151116183504
201.211.228.233 1 71 1886579 20151123184945
167.62.113.195 1 74 1891039 20151122120907
74.82.68.144 2 9 106162 20151108230528
67.237.91.78 7 145 1109737 20151117035545
88.198.227.103 6 6 340572 20151112112431
186.90.94.113 13 45 482354 20151101111515
186.167.251.0 1 72 1299364 20151126150001
186.92.167.29 0 27 830846 
200.84.11.7 2 77 1651466 20151125154617
181.1.250.85 1 1 11996 20151108181344
201.210.16.167 15 201 4360242 20151129053821
201.209.248.12 1 59 1200235 20151108231156
190.200.234.239 2 77 2024950 20151116203353
144.76.201.69 5 5 164197 20151128200958
190.77.14.121 0 4 3971 
68.171.247.193 1 5 76784 20151119001129
91.200.12.60 6 6 84547 20151130031902
200.93.1.188 1 19 73961 20151109214233
181.208.28.111 5 103 1899099 20151117171425
5.56.63.53 1 1 11993 20151103200800
189.239.123.222 1 58 630261 20151123170755
186.167.250.81 5 137 1357084 20151108084252
190.206.25.174 9 110 2261420 20151113114902
190.201.142.39 1 34 444836 20151127080928
190.246.230.2 4 141 1607363 20151113133141
190.207.55.11 0 5 63630 
186.0.103.223 1 62 727313 20151119205051
91.185.194.122 1 1 11997 20151103001704
181.34.165.101 2 56 747992 20151130184604
186.92.114.170 0 2 1289164 
92.63.87.97 1 1 11968 20151113104617
109.159.125.207 1 58 667042 20151112072539
186.90.69.6 2 62 709584 20151101061409
95.234.99.208 3 80 1977595 20151129165838
117.135.250.136 6 6 248486 20151112022229
5.158.236.158 2 2 83067 20151123170000
200.84.177.137 19 722 15961294 20151129073000
200.75.101.254 0 3 1302752 
201.210.6.202 10 409 7291670 20151129141742
66.249.85.173 0 18 332720 
190.199.83.111 7 97 2000268 20151115081707
8.28.16.254 3 3 140962 20151118080855
190.231.247.111 1 74 1891038 20151128195640
186.167.243.138 3 109 1767883 20151115080918
107.167.106.142 1 80 2083159 20151101161617
186.92.156.36 9 229 4560305 20151117144553
176.212.93.235 6 6 10128 20151120115043
181.136.122.145 1 74 1891038 20151130103417
186.92.123.30 5 87 1963289 20151114154656
190.202.183.236 8 105 2193261 20151106100714
104.227.17.10 2 2 19910 20151106064843
200.75.143.81 14 203 3339247 20151130151643
190.38.32.47 1 51 421689 20151124124622
201.209.106.174 1 74 1891037 20151122161735
186.167.242.139 11 34 478070 20151122194958
66.249.91.156 25 25 923441 20151127030428
201.208.212.212 1 1 10254 20151118112748
181.124.115.99 1 51 851281 20151118130032
24.139.193.173 7 142 930656 20151110075435
54.145.183.50 1 1 42535 20151112093658
190.198.8.228 7 96 2025006 20151109085856
200.85.64.35 6 145 1138257 20151123110446
190.201.221.31 1 21 156339 20151122210608
176.213.8.46 6 6 247670 20151123050531
68.171.247.199 0 18 202357 
68.171.247.195 0 12 160770 
186.108.73.201 1 73 1814199 20151108182811
150.70.173.44 1 1 42394 20151128060950
217.69.133.169 2 2 23938 20151120025439
186.167.250.213 1 74 11995 20151101071109
190.121.232.75 1 40 468492 20151126133205
91.200.12.141 12 12 493552 20151114092329
75.149.221.169 2 2 84798 20151130232409
190.205.208.71 1 61 697268 20151115064435
93.47.137.90 1 85 2799910 20151109030037
190.203.53.171 5 103 2121644 20151116212735
186.95.10.136 1 55 618432 20151129114438
190.52.97.130 1 74 1891037 20151126140117
66.249.90.19 5 5 149529 20151117085432
200.8.59.120 1 8 386702 20151122081953
190.203.52.23 1 18 841769 20151129165654
201.211.28.44 3 79 1187729 20151106105457
91.200.12.25 10 10 1559490 20151125123001
31.184.238.249 9 9 342131 20151118180621
190.201.240.247 33 303 5813149 20151110121229
181.208.9.37 3 93 1956242 20151108092632
201.209.112.31 1 74 1891041 20151129062444
190.207.197.78 2 32 196426 20151123184012
107.167.116.51 1 80 1899298 20151108064926
186.237.131.42 1 1 11992 20151106170610
186.92.194.198 3 135 1471413 20151130120810
190.205.105.123 6 288 7369245 20151129100226
190.206.19.9 0 22 91256 
200.93.48.143 2 71 798044 20151111082739
69.162.127.244 3 3 127397 20151111120734
200.75.109.71 3 91 1441128 20151103174001
186.92.203.60 14 186 4199839 20151115231540
186.93.111.250 4 79 2191946 20151104171233
186.185.185.97 2 77 1015051 20151122093436
186.185.183.211 1 30 236107 20151116122243
183.60.243.187 4 7 20513 20151113100536
209.0.146.172 2 10 95977 20151102192155
144.76.71.83 6 6 257823 20151126234205
186.185.32.128 3 3 31282 20151118194809
186.26.115.106 1 60 792603 20151110125611
190.202.5.225 1 74 1891039 20151120064442
198.229.1.183 1 3 43216 20151117050856
190.198.2.237 6 160 2183529 20151104195151
201.234.229.151 1 73 1825720 20151125114547
68.71.57.171 1 74 1891063 20151103094511
186.95.198.239 0 3 0 
186.91.93.133 1 5 115151 20151123184001
66.249.91.25 16 16 645499 20151105142916
190.38.26.164 1 46 778302 20151110130017
179.179.1.66 1 1 4482 20151128115028
93.186.202.253 2 2 33506 20151115201017
190.200.253.173 5 78 1939042 20151105125105
93.159.230.88 2 82 877084 20151130072627
190.63.150.185 1 1 83447 20151114171002
201.209.127.116 1 72 1887427 20151109200245
200.8.18.153 1 74 1891037 20151129235233
186.90.67.53 3 87 2145600 20151129074218
190.202.178.50 1 58 666995 20151103140950
186.90.88.132 1 1 11968 20151128195302
181.93.29.169 1 71 1886604 20151101182418
190.37.82.32 2 62 707755 20151122132141
186.185.71.242 3 81 1908273 20151129065256
107.167.109.201 3 102 715022 20151122105745
190.151.147.4 3 76 1915052 20151108075726
200.8.59.116 0 5 85696 
186.94.108.113 2 77 2024989 20151109190241
200.84.155.26 3 78 2036962 20151122125355
190.142.199.117 1 64 653469 20151126153719
186.77.204.83 1 73 1890239 20151109120414
201.209.34.2 1 74 1891037 20151119152147
186.92.72.193 1 61 697289 20151110145830
46.229.170.197 4 4 169660 20151118115734
200.93.14.59 1 74 1891067 20151105135248
188.40.112.210 2 2 7224 20151122020925
186.101.9.232 2 73 2423829 20151110104747
66.249.88.212 8 150 3770956 20151115085620
190.77.188.14 2 76 1429327 20151105182814
186.94.10.154 1 46 746154 20151115123623
186.94.240.74 1 51 635001 20151130084002
181.117.2.134 1 33 370617 20151108093658
190.201.132.252 9 154 1260071 20151103094136
190.171.118.140 2 77 2024951 20151130164009
201.210.26.66 10 110 2344690 20151120164947
67.55.84.212 3 3 84799 20151122212940
186.88.250.84 1 61 697291 20151101090300
179.216.45.100 19 19 58536 20151107012220
46.148.30.26 3 3 118516 20151109185641
148.251.54.44 4 4 128926 20151127164329
190.153.64.133 6 158 2798066 20151115064803
190.198.164.88 1 51 635003 20151114205805
190.217.1.109 1 72 1115244 20151122075302
5.9.17.118 5 5 132958 20151129201550
190.207.29.184 1 51 898730 20151103130058
190.3.245.146 2 75 1903006 20151122170140
186.89.102.216 2 8 23069 20151122091332
201.242.153.111 1 58 631857 20151118080431
190.199.92.149 0 6 698479 
92.63.87.89 2 2 23979 20151105154740
186.177.78.131 1 7 171537 20151107112519
201.210.55.93 22 233 7381253 20151119194526
186.185.110.76 2 112 23098 20151111032136
186.185.105.132 1 74 1891064 20151102104823
186.185.146.220 8 144 1011380 20151102195754
78.46.156.169 7 7 432598 20151130003419
186.185.23.227 1 74 1891044 20151129091438
212.117.170.192 1 1 4474 20151130103203
188.143.234.155 1 1 38661 20151112100037
190.199.243.228 1 1 11995 20151103212438
186.92.56.46 1 74 1891038 20151126030011
186.185.19.175 1 61 697267 20151130061307
201.211.114.195 17 73 678054 20151125151106
23.236.228.209 2 2 19909 20151103180155
190.73.49.58 1 7 171537 20151104083943
190.204.234.171 1 72 1887427 20151107073542
66.249.88.57 10 27 397279 20151130174211
179.7.94.52 2 75 1903004 20151113153626
5.9.145.132 10 10 820525 20151130003419
216.4.56.180 2 81 1947937 20151109180135
179.179.0.225 5 5 16494 20151129061632
5.166.192.19 1 1 26766 20151123073917
186.94.98.98 16 180 3270127 20151115075851
190.74.217.184 15 91 2271064 20151122191825
190.206.70.44 1 57 621515 20151115204653
186.92.56.2 3 82 2233127 20151104184656
99.172.75.46 2 77 1945934 20151119235800
201.210.120.153 2 24 164271 20151112214237
186.185.28.83 1 30 196143 20151112120153
195.154.146.225 1 1 11993 20151107224229
186.167.251.95 1 73 1541239 20151122091915
195.28.183.88 1 1 11970 20151130124126
66.249.85.176 0 25 962005 
158.222.7.233 2 2 19872 20151119091151
190.142.4.97 4 97 1503387 20151125062644
188.42.240.119 1 1 42431 20151109223649
186.88.235.228 29 532 7580261 20151124222235
62.210.115.134 1 1 607 20151105150934
190.37.78.63 35 1064 16105528 20151117143101
91.200.12.137 12 12 493552 20151118203511
190.206.93.13 0 28 567856 
181.208.17.2 1 74 1891063 20151101074845
24.115.146.208 5 70 788767 20151109213106
91.200.12.143 36 36 1480656 20151118222754
190.110.0.4 1 74 1891039 20151119143250
74.82.68.160 0 7 5888 
64.74.215.113 4 4 0 20151128175946
198.199.126.210 2 2 84799 20151124045808
200.75.107.37 4 116 1072512 20151118115601
181.66.248.200 1 57 682284 20151101114635
66.249.88.222 4 78 1616204 20151115085730
54.229.133.13 1 1 42399 20151128181512
98.112.93.29 1 53 638637 20151126234543
190.202.82.99 5 120 210867 20151104124146
186.77.200.217 11 150 1095369 20151119183350
190.202.187.169 3 73 1491856 20151115090126
186.91.80.29 1 34 306854 20151108115745
186.167.242.65 1 1 11968 20151115140437
189.35.46.177 1 73 1382911 20151105212155
186.91.40.252 2 70 697623 20151123150736
190.140.221.110 1 74 1891039 20151115093804
186.90.128.170 5 80 1879158 20151101080642
190.204.239.226 2 9 25269 20151122084946
68.171.247.197 0 5 262798 
186.67.91.98 1 51 629281 20151130065901
190.6.48.59 8 152 1412380 20151115221649
190.203.51.1 2 76 1843875 20151111112207
186.124.4.201 1 74 1891062 20151101161429
186.167.250.137 0 1 80845 
186.167.248.207 16 114 2158182 20151114182628
66.249.88.46 6 28 833305 20151127174406
95.72.212.177 1 1 16977 20151115011702
190.79.148.224 1 46 1184181 20151106140938
68.171.247.198 0 34 143271 
176.195.7.25 2 2 53806 20151112040901
68.171.247.207 0 35 478810 
104.197.207.85 1 48 720484 20151128122105
186.185.44.57 1 74 1891063 20151101062718
181.1.239.75 1 74 1891064 20151101181958
173.242.126.43 2 2 29227 20151124014233
192.99.9.164 1 1 11994 20151107142520
190.38.78.124 2 35 902956 20151129165619
186.92.66.154 1 74 1891066 20151101161820
186.91.93.55 19 146 2751573 20151125093932
176.213.8.55 1 1 26766 20151127104202
200.84.146.104 4 150 3806038 20151116211120
31.184.238.235 6 6 247852 20151102225028
166.137.252.50 2 65 1342539 20151122235149
198.229.1.195 5 143 1094049 20151121190322
201.242.8.194 1 73 1556172 20151109133046
186.91.230.166 5 144 1094223 20151120192605
186.185.14.196 1 46 773421 20151117131203
190.75.61.2 1 74 1891061 20151106210836
181.14.139.47 4 100 1709145 20151107222508
177.204.193.182 7 7 22500 20151117110159
201.211.173.224 1 46 806106 20151102163011
201.210.48.11 5 204 3333878 20151129070249
104.219.53.28 1 1 42399 20151127211338
37.29.74.111 1 1 11994 20151111005217
104.144.206.212 2 2 19905 20151106025627
200.84.164.61 4 90 1932347 20151122091233
190.202.177.254 1 74 1891036 20151122075521
190.138.200.104 1 72 1887428 20151107184726
186.89.111.138 1 74 1891039 20151113220828
186.167.243.183 1 59 676919 20151103154324
190.55.70.39 3 125 1309325 20151101163522
200.84.151.106 12 292 6059195 20151129073743
181.1.89.34 2 2 23987 20151108180302
64.79.75.42 2 21 937139 20151112053307
190.202.130.138 1 30 231902 20151118191606
190.77.64.125 1 60 688841 20151102150207
68.171.247.204 1 29 636811 20151116202844
186.93.221.231 6 143 1091549 20151130170129
186.95.210.36 3 88 1950273 20151114134226
66.249.90.63 7 7 235598 20151126004830
186.13.4.237 1 57 644181 20151117025934
186.43.129.16 1 72 1887428 20151104093018
186.185.115.102 6 143 2018682 20151111032058
190.206.5.8 1 74 1891117 20151112183421
190.204.143.35 1 60 1151936 20151104095229
190.206.117.194 1 74 1891040 20151122064947
186.14.134.45 0 1 644582 
186.74.14.26 1 62 842949 20151119223630
201.211.113.129 4 83 1956131 20151108082630
190.199.201.55 12 146 938981 20151110105312
186.167.244.96 1 45 1225720 20151115100302
123.125.71.69 1 1 11995 20151107084937
117.78.13.18 1 1 11969 20151129034932
190.37.94.31 3 153 3799199 20151108080733
65.55.218.170 1 31 255992 20151121090406
201.242.171.109 4 96 2162057 20151123111444
190.36.74.185 1 57 1057167 20151130150024
66.249.90.62 8 8 300887 20151126065009
186.91.116.252 1 2 351826 20151123184021
190.199.207.76 18 245 4699128 20151107191214
151.80.44.159 1 1 11991 20151106003303
93.148.167.72 1 77 2167290 20151103142900
93.186.202.241 2 2 43868 20151120225127
91.109.247.173 1 1 11995 20151107142101
181.174.69.210 1 52 881577 20151116204438
192.3.251.91 2 2 19882 20151126144644
181.208.161.29 0 1 644582 
189.157.196.215 1 57 621721 20151113013543
148.251.124.42 9 9 234083 20151130170711
69.118.79.85 1 74 1891061 20151105192440
89.77.250.171 2 2 44530 20151102121432
190.201.43.99 6 161 4010562 20151130150703
186.167.245.76 1 73 1491286 20151115191301
200.84.9.148 2 77 2024950 20151123085023
186.88.132.194 1 58 631857 20151114074835
66.249.83.219 3 91 2434377 20151126062721
190.198.194.212 1 74 1891063 20151108082613
69.58.178.58 12 12 588541 20151102184919
201.242.208.57 2 11 26818 20151122155104
66.249.91.33 18 18 578770 20151105140216
91.236.120.6 2 2 53532 20151116115146
190.205.103.108 0 14 676 
200.11.231.130 4 84 2102009 20151122081017
186.185.79.51 2 76 1723766 20151108193108
201.208.41.218 1 61 697266 20151119052831
200.93.19.225 11 593 14751371 20151124063404
186.90.94.151 2 2 11968 20151123103506
190.206.20.212 2 135 2588305 20151115095039
157.55.80.246 0 12 223415 
68.171.247.203 0 38 925595 
66.249.88.217 6 105 2152100 20151115075739
179.7.72.51 1 57 673283 20151102225609
190.148.39.135 16 155 1095530 20151103221600
200.84.25.115 1 59 693653 20151108080949
186.185.119.251 14 230 6658833 20151110201420
208.54.39.136 1 74 1891035 20151126134312
190.205.204.52 6 288 7369297 20151115072020
186.90.65.230 1 74 1891037 20151115080253
186.101.226.10 4 180 4766309 20151114175657
186.93.111.60 1 74 1891065 20151103173816
186.185.26.5 1 55 739825 20151105133002
186.92.108.50 1 63 1441605 20151112144708
190.205.126.52 14 307 6060702 20151123104819
190.38.59.22 1 55 1042845 20151117143507
186.95.210.245 1 74 1891038 20151119112454
186.167.242.12 1 50 561043 20151129083251
66.102.6.156 0 21 691217 
62.233.34.168 1 1 11966 20151124152718
200.45.139.17 5 83 1944437 20151101145940
186.89.113.221 6 144 1419544 20151130073732
186.95.218.187 1 74 1891037 20151126183358
190.148.39.138 5 140 1089724 20151103134142
190.204.255.93 2 75 1903052 20151101072845
136.243.20.77 2 2 23990 20151110163215
190.201.240.220 11 544 3819753 20151114131519
186.125.130.234 1 73 1540689 20151112173909
200.8.245.131 2 100 691821 20151108125858
186.89.109.222 6 91 1975839 20151106101718
68.171.247.201 0 18 181582 
190.78.161.115 1 72 1887404 20151125193256
179.7.66.230 4 140 1044602 20151128142135
186.167.249.162 1 1 24807 20151115212237
186.89.122.14 2 78 2054730 20151129055341
181.208.55.141 7 115 1057401 20151115195843
190.142.18.204 5 84 2112229 20151112172644
66.249.91.164 25 25 1011675 20151127062449
190.72.153.152 1 31 286707 20151114194635
115.112.64.154 2 2 58815 20151103024412
186.167.242.231 5 85 1068496 20151122192949
190.207.130.161 5 112 883792 20151119154239
200.35.106.92 5 179 4410359 20151118143617
200.8.59.216 0 1 644582 
74.82.64.160 10 89 412430 20151108230523
190.204.229.203 1 61 697269 20151115100254
190.216.236.230 1 78 2208534 20151129072105
190.198.221.198 5 161 3828705 20151114173921
66.102.6.160 0 24 735998 
188.165.234.68 1 1 42399 20151118072049
190.111.120.94 1 1 11967 20151127094533
83.34.34.223 3 82 1946058 20151107171143
66.249.83.227 1 56 1692547 20151105103421
190.201.180.231 0 21 233105 
186.167.243.12 1 61 697290 20151108201740
181.1.28.236 1 73 1766007 20151117151654
186.95.71.125 4 140 967307 20151101124427
186.95.214.79 4 69 797498 20151101081840
67.55.87.68 1 1 0 20151110160726
190.72.232.8 1 74 1891036 20151127232641
186.95.52.142 5 287 6371416 20151129073638
190.199.217.29 1 7 171686 20151115163033
186.95.17.224 5 94 988967 20151122195656
186.148.94.18 2 59 1111197 20151130135056
201.202.251.143 5 92 2094868 20151115202813
201.242.25.245 1 57 644182 20151125191553
200.109.230.234 2 73 923632 20151118055548
190.207.132.204 2 75 1903002 20151121213717
190.37.33.96 1 53 638659 20151103141029
190.199.71.85 1 14 327967 20151125132541
186.90.150.163 1 74 1891039 20151115055434
181.136.61.210 9 191 3972368 20151111102006
201.210.203.216 1 72 1887402 20151118141031
201.243.99.106 3 77 1284870 20151101190915
190.205.73.202 1 61 697268 20151129072640
190.205.199.165 7 170 3880793 20151125064152
108.81.234.53 1 57 621517 20151127090540
200.84.151.187 3 100 2105862 20151107062241
138.122.7.11 2 148 3030191 20151126062837
186.92.152.65 3 52 118538 20151122084746
190.39.123.67 4 140 967270 20151118143042
190.207.192.151 1 56 663342 20151119104033
190.206.11.14 7 88 1473027 20151130075000
181.67.232.53 1 62 735321 20151112064240
190.78.164.35 1 53 638661 20151101145959
201.174.45.18 8 260 962562 20151125095024
190.73.10.87 1 74 1891063 20151110170256
208.54.44.196 2 79 1550313 20151129094954
158.69.27.74 1 1 42431 20151102061603
181.1.90.47 2 80 1908958 20151105182015
200.75.96.47 1 74 1891066 20151110181905
186.93.136.24 5 144 1094277 20151109064520
66.249.90.15 5 5 193478 20151113084322
66.249.85.170 1 31 1090113 20151117171403
75.187.226.155 3 76 1915055 20151109090546
46.30.46.159 1 1 4474 20151124092745
186.167.248.214 4 82 1603148 20151101085919
185.81.158.93 1 1 42431 20151104163711
79.154.8.124 3 78 2037042 20151104075715
190.62.238.224 1 57 621534 20151109185815
210.75.99.11 1 1 42431 20151105052508
190.199.112.24 1 63 688596 20151120180511
188.233.89.27 22 22 37154 20151118172946
186.89.102.106 7 171 2350162 20151107101111
186.167.248.79 1 1 11981 20151126174326
64.69.91.210 1 1 42399 20151128164405
195.154.194.111 1 1 42400 20151121233300
186.93.215.47 1 73 1840343 20151111171743
201.211.111.188 1 74 1891063 20151107171520
190.201.38.252 1 72 1887412 20151129072314
186.94.229.161 1 55 619128 20151130065615
82.223.28.73 1 1 11993 20151102081506
200.110.186.239 2 75 1901927 20151107233747
146.185.204.188 3 3 118519 20151108005634
123.125.71.71 1 1 11993 20151108071509
186.92.210.92 1 74 1891039 20151127073937
190.37.36.130 1 60 792582 20151127195535
201.209.33.108 1 33 466971 20151130152825
190.78.177.29 1 74 1891037 20151123142827
200.8.182.88 3 43 556564 20151105113355
201.238.42.198 1 59 676920 20151107180905
186.95.21.53 4 92 2292889 20151103000013
104.197.216.21 3 41 379588 20151125071729
104.197.15.141 1 26 317771 20151119102718
190.206.4.90 1 72 1887426 20151109062618
190.202.131.54 10 198 3894523 20151110064252
186.95.170.76 1 21 101796 20151102072210
186.92.50.66 5 103 2149718 20151106032456
186.26.46.43 1 74 1891037 20151128162309
200.229.218.5 15 654 14166276 20151129070043
198.229.1.173 1 73 1787501 20151118183421
200.84.173.18 1 74 1891037 20151122075137
186.95.197.158 24 164 3250898 20151115172801
186.185.10.64 1 74 1891063 20151103150212
186.185.143.153 2 75 23937 20151115092910
181.208.224.61 1 74 1891036 20151117181139
186.94.101.121 4 86 2105093 20151103155322
181.130.224.127 4 140 1001501 20151106185021
200.84.142.224 2 80 1942193 20151129074010
186.92.20.120 1 32 186416 20151123184025
173.28.123.240 2 62 704790 20151112232205
177.103.34.18 2 2 80534 20151115031556
186.185.121.2 10 148 1069809 20151122112858
131.72.98.146 1 49 851131 20151105110600
186.91.193.7 2 59 691820 20151101082841
52.0.89.236 1 1 42430 20151102015841
189.226.188.168 1 53 638637 20151121192048
189.26.194.131 1 74 1891037 20151117093918
200.84.8.249 6 98 2164958 20151129201657
46.118.152.18 37 37 1112560 20151120032838
190.205.154.125 1 16 34950 20151119203557
190.202.191.47 0 7 2585 
190.73.42.168 1 57 621536 20151110090934
136.1.1.165 3 78 2036914 20151117133026
72.159.134.122 1 74 1891037 20151126092102
66.249.90.13 6 6 126528 20151113092926
186.93.124.62 1 74 1891063 20151108055403
186.89.227.159 1 73 1890214 20151125164556
201.242.193.121 3 183 2091871 20151107200652
5.164.244.34 5 5 88994 20151128054949
186.92.22.97 0 36 124528 
200.108.63.4 1 74 1891063 20151104004207
186.185.32.94 1 68 711530 20151129152016
23.94.185.198 2 2 18145 20151101015008
190.142.7.168 2 92 1927313 20151116085629
190.149.88.41 4 84 2714937 20151125124412
201.209.100.176 6 285 6394667 20151129082503
201.210.9.87 3 151 3941876 20151108113443
213.111.233.25 6 6 285625 20151117084856
188.165.208.29 1 1 42430 20151102051645
186.92.141.92 2 62 709249 20151130203814
186.167.244.119 1 43 363957 20151112152057
201.249.186.170 2 76 1655071 20151101164103
186.167.243.113 1 46 1285950 20151113093905
190.198.164.100 1 46 743728 20151121112101
179.49.104.209 10 145 996721 20151101171312
104.236.213.72 1 1 42399 20151128200249
190.37.230.81 1 73 1246467 20151128171952
201.211.97.41 1 1 11966 20151115072227
181.39.242.76 3 138 1001214 20151119104905
190.201.40.105 14 323 6834363 20151128041630
200.35.86.227 7 474 11722619 20151123091652
190.201.38.157 2 76 1922640 20151108072115
190.203.38.145 6 87 1815162 20151125075857
66.249.91.41 13 13 406355 20151105110656
186.185.117.30 4 29 515891 20151115074315
94.251.118.150 5 5 239352 20151122160057
190.201.107.113 7 270 5233819 20151123055554
186.167.249.249 2 8 119182 20151108214212
190.36.8.59 2 75 1903007 20151129214514
190.39.10.119 1 74 1891036 20151124131336
190.205.115.168 1 74 1891038 20151117215642
190.150.166.119 1 58 631859 20151130234724
186.185.37.144 1 74 1891038 20151122070857
186.89.251.11 3 81 1887431 20151104141115
200.84.164.98 1 8 16166 20151122091242
50.7.138.141 1 1 42431 20151106195625
94.23.217.201 3 3 35906 20151130182515
190.217.4.106 1 73 1182402 20151115080231
187.19.160.3 1 30 233788 20151101144042
190.201.13.25 3 145 2320322 20151116150246
190.231.100.21 1 74 1891063 20151105182917
186.167.244.54 2 2 95417 20151129062753
109.172.53.41 1 1 42399 20151128142625
186.167.249.101 0 1 80845 
201.211.55.48 1 56 626624 20151130210334
186.185.9.157 2 121 1934036 20151118212452
186.90.74.131 6 310 3441088 20151122075654
190.142.21.54 1 74 1891038 20151122081441
190.76.66.105 5 91 1976557 20151121041103
201.210.36.215 2 81 1932148 20151108065405
186.93.143.133 1 16 104999 20151123184014
181.95.166.207 1 74 1891063 20151105193310
200.8.184.129 1 58 666977 20151116200221
186.185.181.168 1 62 842979 20151106073137
186.92.151.46 0 1 342941 
201.242.182.186 10 218 3378830 20151101073623
193.238.153.6 2 2 18203 20151112194449
108.238.249.114 1 5 11997 20151101071549
186.108.111.7 1 74 1891066 20151107184822
190.73.102.8 8 95 1166751 20151110172129
208.90.57.196 2 2 84831 20151130140312
5.9.106.81 9 9 337246 20151127065404
190.56.253.73 4 142 1093989 20151104092858
212.192.196.84 1 1 42431 20151101074326
136.243.17.161 2 2 311547 20151117175435
190.201.112.202 1 74 1891037 20151118070911
201.243.201.231 1 74 1891039 20151130141042
142.255.252.97 3 72 806623 20151123022918
190.73.77.1 1 53 638658 20151101083541
176.31.39.23 1 1 17855 20151122182507
91.149.157.185 1 1 42431 20151101093306
190.100.187.72 1 59 1366715 20151119063552
74.82.64.144 15 74 785210 20151108230518
91.200.12.136 12 12 493552 20151114091231
186.94.211.171 3 78 2037199 20151111133255
190.74.196.87 2 74 1192683 20151117210223
117.254.178.210 1 1 11994 20151106122430
2.153.25.224 2 62 709538 20151127092854
68.171.247.194 1 3 63694 20151110172901
186.77.201.178 2 75 1903006 20151124085643
186.167.250.91 1 61 697290 20151101071200
186.185.163.144 2 59 643083 20151129110407
190.205.123.90 2 122 1394580 20151108071330
79.105.236.84 4 4 122129 20151102002224
94.163.110.90 1 76 1981897 20151109134355
200.93.5.114 1 55 739825 20151105101412
186.167.249.51 1 56 663340 20151115210009
186.14.160.165 1 53 638638 20151117062118
186.14.226.92 1 55 626332 20151108055452
200.84.176.247 9 100 2083706 20151114165419
75.141.105.145 2 81 1936964 20151101235638
201.242.32.77 7 142 930676 20151105201708
144.76.185.173 4 4 131812 20151127080718
200.8.128.249 1 56 1054653 20151105134105
190.207.138.208 1 74 1891116 20151111135530
5.79.68.161 1 1 11994 20151102173556
190.138.59.23 1 2 83427 20151108105445
204.69.221.0 3 3 0 20151117073853
207.199.231.200 1 1 42399 20151124164836
201.249.167.150 1 54 659844 20151102192101
176.9.78.25 1 1 11995 20151101133213
186.185.108.94 4 12 183939 20151110074705
119.29.11.200 1 1 12046 20151112155221
66.249.90.21 9 9 321891 20151124153619
181.112.205.106 1 62 703588 20151123144406
186.91.173.159 0 4 6278 
186.167.248.227 2 89 741903 20151106062916
201.253.159.223 3 106 1988021 20151127201515
5.158.238.251 1 1 26767 20151123205857
201.211.121.209 9 309 2850492 20151129093348
144.76.155.8 5 5 222470 20151117000211
186.92.163.101 6 106 2228960 20151125181643
107.167.108.223 1 52 1735998 20151105160549
68.171.247.200 0 9 33092 
200.11.148.138 1 1 11967 20151125132325
190.206.14.112 1 1 11966 20151115100716
94.23.41.214 2 2 1434 20151103023959
98.25.200.165 1 1 42399 20151130133144
190.153.71.89 4 162 4455451 20151122075638
END_VISITOR

# Date - Pages - Hits - Bandwidth - Visits
BEGIN_DAY 30
20151101 201 4006 69687931 78
20151102 122 1283 24590394 58
20151103 114 1417 24606068 55
20151104 91 1592 30779950 53
20151105 121 2007 36840256 61
20151106 123 1821 30658868 54
20151107 95 1518 29425755 47
20151108 153 3700 71261380 85
20151109 114 2249 42652272 60
20151110 237 2124 36234428 57
20151111 105 1775 29267855 53
20151112 228 1337 21784826 58
20151113 81 1257 25147108 49
20151114 259 1459 29970569 53
20151115 328 4465 81998143 99
20151116 488 2155 40040108 55
20151117 212 1892 35727844 67
20151118 178 2474 42494525 77
20151119 199 2054 32132999 66
20151120 85 1008 16884071 41
20151121 340 1099 17331456 49
20151122 186 3956 74105582 91
20151123 115 1971 38605119 65
20151124 109 1275 25766801 49
20151125 192 2110 41527455 61
20151126 334 1399 26826758 56
20151127 70 871 17067504 49
20151128 98 805 14044339 50
20151129 556 3912 78416828 77
20151130 365 2082 37735827 72
END_DAY

# Domain - Pages - Hits - Bandwidth
# The 25 first Pages must be first (order not required for others)
BEGIN_DOMAIN 38
ve 2247 43083 779439111
us 1157 5954 124078299
br 698 1167 11858091
ua 616 616 19157449
ca 285 870 19641856
fr 282 282 11053502
mx 119 835 5052254
de 105 105 4774092
ru 102 182 3510526
ar 67 2585 54419932
gt 30 573 6875757
co 20 728 12148549
ni 20 469 7180412
cl 19 293 3571890
cn 16 19 371425
ec 15 659 13400745
pe 14 592 8256668
cr 12 294 5733317
es 12 359 7304954
nl 11 11 314371
it 10 391 9746333
pa 7 355 5717884
pr 7 142 930656
lv 4 4 92520
in 3 3 70809
md 2 2 34758
py 1 51 851281
lu 2 2 46905
do 3 133 3002236
gb 3 60 691007
uy 1 74 1891039
bn 1 1 42399
pl 2 2 44530
si 1 1 11997
sv 2 115 1253393
hn 1 59 957247
jp 1 1 42394
by 1 1 42431
END_DOMAIN

# Cluster ID - Pages - Hits - Bandwidth
BEGIN_CLUSTER 0
END_CLUSTER

# Login - Pages - Hits - Bandwidth - Last visit
# The 10 first Pages must be first (order not required for others)
BEGIN_LOGIN 0
END_LOGIN

# Robot ID - Hits - Bandwidth - Last visit - Hits on robots.txt
# The 25 first Hits must be first (order not required for others)
BEGIN_ROBOT 16
bot[\s_+:,\.\;\/\\-] 22944 307479088 20151130231934 763
robot 7574 72438744 20151130235145 10
googlebot 2055 25491618 20151130233617 56
bingpreview 315 4179007 20151118145543 0
php 201 16216957 20151130154239 0
slurp 166 1514225 20151129212836 45
spider 143 1397257 20151130095423 19
google[_+\s]web[_+\s]preview 74 1891040 20151122074424 0
no_user_agent 50 486598 20151130004402 5
unknown 30 19996 20151130054510 30
crawl 20 385408 20151130234839 8
curl 4 169689 20151116172227 0
netcraft 4 169725 20151107150141 0
[\s_+:,\.\;\/\\-]bot 2 1730 20151108100546 2
ia_archiver 2 43264 20151120105459 1
msnbot\-media 2 27936 20151126060352 0
END_ROBOT

# Worm ID - Hits - Bandwidth - Last visit
# The 5 first Hits must be first (order not required for others)
BEGIN_WORMS 0
END_WORMS

# EMail - Hits - Bandwidth - Last visit
# The 20 first Hits must be first (order not required for others)
BEGIN_EMAILSENDER 0
END_EMAILSENDER

# EMail - Hits - Bandwidth - Last visit
# The 20 first hits must be first (order not required for others)
BEGIN_EMAILRECEIVER 0
END_EMAILRECEIVER

# Session range - Number of visits
BEGIN_SESSION 7
2mn-5mn 69
15mn-30mn 62
0s-30s 1431
30mn-1h 79
5mn-15mn 83
1h+ 24
30s-2mn 97
END_SESSION

# URL - Pages - Bandwidth - Entry - Exit
# The 25 first Pages must be first (order not required for others)
BEGIN_SIDER 16
/index.php 3774 87596729 1087 1240
/ 1176 22093465 722 567
/administrator/index.php 889 2838310 15 27
//index.php 28 1147188 0 0
/administrator/ 14 27388 12 0
/plugins/content/extravote/assets/ajax.php 3 77 0 1
// 3 127231 1 1
/language/en-GB/en-GB.xml 2 8948 2 2
/administrator/manifests/files/joomla.xml 2 1434 2 2
//index.php 2 2048 2 2
/webmail/ 1 2912 1 0
/webmail/maintlogin.jsp 1 2925 0 0
/webmail/index.cgi 1 2923 0 0
/plugins/system/cache/cache.xml 1 607 1 1
/webmail/cgi/index.cgi 1 2932 0 1
/google276bd62fdd7ea648.html 1 53 0 1
END_SIDER

# Files type - Hits - Bandwidth - Bandwidth without compression - Bandwidth after compression
BEGIN_FILETYPES 10
gif 1947 2768600 0 0
jsp 1 2925 0 0
css 13150 20042359 0 0
xml 5 10989 0 0
php 4696 91584352 0 0
js 11273 162912751 0 0
png 23843 634237316 0 0
jpg 4961 189796823 0 0
html 1195 22251049 0 0
cgi 2 5855 0 0
END_FILETYPES

# Downloads - Hits - Bandwidth
BEGIN_DOWNLOADS 0
END_DOWNLOADS

# OS ID - Hits
BEGIN_OS ID - Hits - Pages 31
ios_ipad 569 12
win8.1 4689 201
winunknown 7 7
win8 867 44
unix 224 5
macosx6 10 10
winme 1 1
ios_iphone 1806 64
win95 24 24
macosx 233 8
linuxandroid 13771 660
winxp 7082 615
java 21 2
macosx9 8 5
linux 1287 122
win2000 25 25
symbian 46 2
macosx5 4 4
winphone 434 12
win98 15 15
bsdfreebsd 1 1
macosx7 7 7
blackberry 823 41
winlong 591 50
j2me 154 4
win2003 40 23
macosx8 81 8
Unknown 1845 838
win7 23361 1695
winnt 2546 893
linuxubuntu 501 501
END_OS

# Browser ID - Hits - Pages
BEGIN_BROWSER 193
chrome38.0.1025.166 74 1
iphone 74 1
opera33.0.1990.115 223 4
chrome45.0.2454.84 55 1
opera9.00 10 10
chrome46.0.2480.0 482 407
chrome5.0.342.1 1 1
firefox24.0 1 1
firefox41.0 922 83
chrome28.0.1500.94 220 6
sonyericsson 180 4
firefox29.0 2 2
firefox39.0 121 6
firefox34.0 10 10
chrome16.0.912.36 2 2
msie2.0 3 3
msie10.0 300 12
msie5.0 3 3
firefox43.0 82 3
safari6.0.2 1 1
chrome32.0.1700.107 30 1
chrome24.0.1312.57 4 4
chrome30.0.1599.101 58 1
firefox8.0 128 3
chrome47.0.2526.58 74 1
chrome48.0.2564.0 26 1
chrome10.0.648.127 2 2
msie9.0 226 15
firefox40.0 502 83
chrome27.0.1453.93 8 8
chrome46.0.2490.71 722 35
safari5.0.2 3 3
chrome26.0.1410.64 1 1
chrome30.0.0.0 860 30
opera31.0.1889.174 58 1
opera33.0.1990.58 65 2
chrome40.0.2214.85 2 2
firefox21.0 19 19
chrome42.0.2311.111 30 5
firefox3.6.13 56 1
safari6.0.4 2 2
chrome35.0.1916.153 1 1
firefox4.0 1 1
chrome34.0.1847.114 295 6
chrome43.0.2357.124 4 4
chrome39.0.2171.96 1 1
chrome46.10.2490.86 74 1
msie7.0 81 20
chrome40.0.2214.93 3 3
chrome42.0.2311.135 59 1
chrome34.0.1847.76 53 1
chrome11.0.696.34 4 4
firefox12.0 87 16
chrome27.0.1453.94 3 3
firefox1.0 1 1
chrome13.0.782.220 2 2
chrome29.0.1600.1 1 1
chrome46.0.2490.86 16232 633
chrome27.0.1453.110 75 2
chrome49.0.2578.0 81 2
opera6.01 6 6
safari9.0.1 57 1
chrome41.0.2272.96 199 9
chrome41.0.2272.101 4 4
firefox19.0 1 1
chrome36.0.1985.125 125 122
firefox15.0.1 2 2
safari10.3.1.2576 153 15
chrome14.0.813.0 2 2
opera32.0.1948.25 20 20
chrome25.0.1364.172 60 3
chrome44.0.2403.125 218 7
chrome46.0.2490.80 10975 423
chrome34.0.1847.118 77 2
chrome39.0.2171.65 1 1
chrome43.0.2357.132 75 2
firefox6.0.2 3 3
Unknown 765 741
chrome9.0.597 184 11
safari6.0.0.668 55 1
opera7.11 6 6
msie5.5 23 23
msie8.0 347 19
chrome32.0.1700.99 74 1
msie6.0 209 203
firefox40.1 74 1
chrome26.0.1410.65 4 4
chrome44.0.2403.133 327 12
chrome15.0.864.0 2 2
firefox14.0.1 23 23
safari6.0.3 1 1
firefox3.6.9 1 1
firefox4.0.1 2 2
netscape 50 50
opera8.01 13 13
firefox3.5.0 1 1
chrome43.0.2357.130 197 10
chrome13.0.782.41 4 4
chrome43.0.2357.93 151 10
chrome46.0.2490.82 75 2
chrome34.0.1847.137 4 4
chrome45.0.2454.101 303 109
chrome10.0.648.133 2 2
safari7.1.0.1033 74 1
opera8.00 6 6
safari7.1.0.1098 179 27
opera8.50 2 2
safari8.0.3 137 3
chrome25.0.1364.169 2 2
chrome39.0.2171.99 74 1
chrome37.0.2062.120 64 4
chrome36.0.1985.143 465 9
safari7.1.0.398 128 5
opera7.02 7 7
chrome39.0.2171.95 60 60
chrome43.0.2357.134 2 2
safari5.0.6 2 2
opera12.1 1 1
chrome12.0.742.91 145 3
chrome41.0.2272.118 74 1
firefox3.6.10 143 6
chrome30.0.1599.103 75 2
opera32.0.1948.69 74 1
chrome5.0.375.99 2 2
chrome30.0.1599.66 20 20
firefox10.0 12 12
chrome45.0.2454.94 743 17
firefox28.0 72 1
chrome12.0.703.0 2 2
mozilla 896 769
firefox33.0 476 9
android 5928 362
chrome12.0.742.112 497 497
safari8.0 100 2
opera7.54 6 6
safari5.1.8 1 1
chrome19.0.1062.0 2 2
chrome45.0.2454.93 21 21
chrome44.0.2403.130 74 1
firefox42.0 2069 83
chrome31.0.1650.59 136 2
firefox5.0 1 1
chrome36.0.1985.135 184 21
safari9.0 902 23
firefox16.0.1 1 1
chrome38.0.2125.104 223 4
safari3.0 46 2
chrome39.0.2171.71 74 1
chrome49.0.2575.0 41 3
firefox20.0 26 26
chrome43.0.2357.81 121 3
firefox31.0 2 2
firefox22.0 1 1
chrome14.0.792.0 2 2
chrome32.0.1700.102 1 1
opera26.0.1656.60 1 1
netscape5.0 2 2
chrome45.0.2454.99 28 28
opera9.0 12 12
chrome16.0.912.75 2 2
msie11.0 1777 149
blackberry 387 7
opera6.0 3 3
chrome35.0.1916.141 77 2
safari5.1.9 1 1
opera9.01 6 6
libwww 4 4
chrome42.0.2311.109 74 1
chrome23.0.1271.97 2 2
lg\- 636 35
opera12.16 476 8
netscape0.6 5 5
chrome18.0.1025.166 198 7
firefox3.6.3 1 1
firefox16.0 2 2
chrome45.0.2454.85 74 1
safari 1125 45
firefox27.0 103 2
chrome11.0.696.3 2 2
safari7.0 174 5
safari10.3.2.2639 165 5
chrome40.0.2214.94 77 2
safari6.0 1 1
chrome18.0.1025.308 142 4
chrome44.0.2403.157 146 4
chrome42.0.2311.90 335 9
firefox36.0 1 1
safari7.0.3 1 1
netscape0.91 2 2
firefox18.0 70 3
chrome46.0.2490.76 2986 122
firefox11.0 3 3
chrome26.0.1410.63 1 1
END_BROWSER

# Screen size - Hits
BEGIN_SCREENSIZE 0
END_SCREENSIZE

# Unknown referer OS - Last visit date
BEGIN_UNKNOWNREFERER 29
Opera/9.80_(Android;_Opera_Mini/12.0.1987/37.7011;_U;_es)_Presto/2.12.423_Version/12.16 20151108071602
Mozilla/5.0_(compatible;_evc-batch/2.0) 20151128054129
Mozilla/5.0 20151130232409
Feedfetcher-Google;_(_http://www.google.com/feedfetcher.html;_1_subscribers;_feed-id=17210911081176051355) 20151130230802
Mozilla/5.0_(BB10;_Touch)_AppleWebKit/537.35__(KHTML,_like_Gecko)_Version/10.3.2.2639_Mobile_Safari/537.35_ 20151122075638
Python-urllib/2.6 20151127211338
Mozilla/5.0_(compatible;_Google-Site-Verification/1.0) 20151105021820
Google_favicon 20151130174211
python-requests/2.8.1 20151112155221
LibreOffice 20151120181328
Python-urllib/2.7 20151128181512
CATExplorador/1.0beta_(sistemes_at_domini_dot_cat;_http://domini.cat/catexplorador.html) 20151103200800
Mozilla 20151125031450
Opera/9.80_(Android;_Opera_Mini/10.0.1884/37.6897;_U;_es)_Presto/2.12.423_Version/12.16 20151101161620
Feedfetcher-Google;_(_http://www.google.com/feedfetcher.html;_1_subscribers;_feed-id=9213715099056081262) 20151130210000
null 20151128053822
Opera/9.80_(Android;_Opera_Mini/12.0.1987/37.7148;_U;_es)_Presto/2.12.423_Version/12.16 20151122043744
nutch-1.4/Nutch-1.4 20151129034932
Mozilla/5.0_(BB10;_Touch)_AppleWebKit/537.35__(KHTML,_like_Gecko)_Version/10.3.1.2576_Mobile_Safari/537.35_ 20151106114725
Mozilla/3.0_(compatible;_Indy_Library) 20151106195625
Mozilla/4.0_(compatible;) 20151123210635
LWP::Simple/5.827_libwww-perl/5.833 20151111120734
Mozilla/5.0_(compatible;_Genieo/1.0_http://www.genieo.com/webfilter.html) 20151123103506
Feedfetcher-Google;_(_http://www.google.com/feedfetcher.html;_1_subscribers;_feed-id=5223073339734004264) 20151130205846
Mozilla/5.0_(en-us)_AppleWebKit/534.14_(KHTML,_like_Gecko;_Google_Wireless_Transcoder)_Chrome/9.0.597_Safari/534.14 20151118093624
Calypso_v/0.01 20151128200249
aboutthedomain 20151103001704
Feedfetcher-Google;_(_http://www.google.com/feedfetcher.html;_feed-id=5223073339734004264) 20151123103505
Mozilla/5.0_(Android;_Mobile;_rv:40.0)_Gecko/40.0_Firefox/40.0 20151121041103
END_UNKNOWNREFERER

# Unknown referer Browser - Last visit date
BEGIN_UNKNOWNREFERERBROWSER 16
Java/1.6.0_04 20151112053313
Feedfetcher-Google;_(_http://www.google.com/feedfetcher.html;_1_subscribers;_feed-id=17210911081176051355) 20151130230802
nutch-1.4/Nutch-1.4 20151129034932
python-requests/2.7.0_CPython/2.7.6_Linux/3.13.0-36-generic 20151110163215
Python-urllib/2.6 20151127211338
Feedfetcher-Google;_(_http://www.google.com/feedfetcher.html;_1_subscribers;_feed-id=5223073339734004264) 20151130205846
python-requests/2.8.1 20151112155221
LibreOffice 20151120181328
Google_favicon 20151130174211
aboutthedomain 20151103001704
Calypso_v/0.01 20151128200249
Python-urllib/2.7 20151128181512
CATExplorador/1.0beta_(sistemes_at_domini_dot_cat;_http://domini.cat/catexplorador.html) 20151103200800
Feedfetcher-Google;_(_http://www.google.com/feedfetcher.html;_feed-id=5223073339734004264) 20151123103505
null 20151128053822
Feedfetcher-Google;_(_http://www.google.com/feedfetcher.html;_1_subscribers;_feed-id=9213715099056081262) 20151130210000
END_UNKNOWNREFERERBROWSER

# Origin - Pages - Hits 
BEGIN_ORIGIN 6
From0 2750 2933
From1 0 0
From2 1201 1575
From3 348 359
From4 1600 56206
From5 0 0
END_ORIGIN

# Search engine referers ID - Pages - Hits
BEGIN_SEREFERRALS 6
google 1180 1554
yandex 3 3
search 1 1
yahoo 5 5
bing 2 2
ask 10 10
END_SEREFERRALS

# External page referers - Pages - Hits
# The 25 first Pages must be first (order not required for others)
BEGIN_PAGEREFS 85
http://blockworld.ru 15 15
http://www.hacktougroup.ru 11 11
http://www.vzlom-na-zakaz.com 10 10
http://www.zakazvzloma.com 10 10
http://www.hdfreeporno.net 9 9
http://vozbujdenie.com 8 8
http://ublaze.ru 8 8
http://magda-gadalka.ru 7 7
http://dimkino.ru/tureckie-seriali 7 7
http://lombardfinder.ru 6 6
http://prometeimd.com 6 6
http://cinemaenergy-hd.ru 6 6
https://www.facebook.com 6 17
http://energy-ua.com 6 6
http://www.24videos.tv 6 6
http://game-mmorpg.net 6 6
http://designdevise.com 6 6
http://liquimondo.com 6 6
http://favoritemoney.ru 6 6
http://xn--80ahvj9e.xn--p1ai 6 6
http://www.shoppingmiracles.co.uk 6 6
http://wmzcreditor.ru 6 6
http://infazavr.ru 6 6
http://stariy-baku.com 6 6
http://gta-club.ru 6 6
http://5elementov.ru 3 3
http://downloadsphotoshop.com 3 3
http://pizza-imperia.com 1 1
http://vesta-lada.net 3 3
http://origin-my.ru 3 3
http://burger-imperia.com 1 1
http://zebradudka.com 3 3
http://doeco.ru 3 3
http://horoshieokna.com 2 2
http://m.facebook.com 2 2
http://hyipmanager.in 3 3
http://xn--b1agm2d.net 3 3
http://hvd-store.com 1 1
http://vkontaktemusic.ru 3 3
http://netpics.org 3 3
http://gk-atlant.info 1 1
http://bimatoprost-careprost.com 3 3
http://mojam3.com 3 3
http://buttons-for-website.com 5 5
http://zojirushi-products.ru 3 3
http://zaimhelp.ru 3 3
http://www.sarafangel.ru 3 3
https://www.facebook.com 1 1
http://pornogig.com 4 4
http://lirunet.ru 3 3
http://numrinje.com 3 3
http://berlininsl.com 5 5
http://www.micasainvest.com 4 4
http://wzgyyq.com 3 3
http://labplus.ru 1 1
http://gta-top.ru 5 5
http://wheelchairliftfind.com 3 3
http://hostingned.com/stream/index.php/nuestros-clientes/radios 3 3
http://us.wow.com/search 1 1
http://moneymaster.ru 2 2
http://cepeg-ucdenver.org 1 1
http://mir-business-24.ru 2 2
http://gdcentre.ru 3 3
http://ledstudio.org 3 3
http://alphaforum.ru 3 3
http://nonprofitconferences.org/jplrharvest/nanpoe-fl-database-11202015-FINALIZED-SET4_files/sheet001.htm 1 1
http://wallpapers-best.com 3 3
http://www.thejournal.ru 2 2
http://detskie-zabavi.ru 3 3
http://alepcable.com 2 2
http://komputers-best.ru 3 3
http://cardul.ru 3 3
http://nagdak.ru 3 3
http://lenvred.org 2 2
http://mosrif.ru/produktsiya/oblitsovochnaya-plita 5 5
https://m.facebook.com 4 4
http://ostroike.org 3 3
http://kino-filmi.com 5 5
http://jaxcube.info 3 3
http://www.yugo-star.ru 3 3
http://rankings-analytics.com/try.php 5 5
http://vostoktrade.info 3 3
http://t.co/BpeqXh2V0J 3 3
http://m.facebook.com 1 1
http://dlya-android.org 2 2
END_PAGEREFS

# Search keyphrases - Number of search
# The 10 first number of search must be first (order not required for others)
BEGIN_SEARCHWORDS 37
ciudad+online 12
peniel 9
centro+evangelistico+peniel 8
www.cepeniel.org 8
cepeniel 8
cepeniel.org 7
iglesia+peniel 2
centro+evangelistico+peniel+valencia 2
2+oraciones+sobre+con%c3%b3cenos 2
pastor+alvaro+rea 2
iglesia+peniel+guayaquil 2
todas+las+predicaciones+del+centro+evangelistico+peniel 1
complejo+evangelistico+peniel 1
logos+evangelisticos+de+paz 1
venezuelaa+es+de+todos+volv%e1monos+a+dios 1
en+vivo+complejo+evangelistico+peniel 1
complejo+evangelico+peniel+campana 1
cepeniel+emisora 1
centro+evaangelistico+pejniel 1
evangelismo+en+mujeres 1
leyes+del+matrimonio 1
cuales+son+las+4+leyes+del+matrimonio 1
concilio+peniel+venezuela 1
libro+from+duty+to+delight+ron+parrish 1
mensajes+de+alvaro+rea 1
psicologo+alvaro+rea 1
ministerio+de+medios+audiovisuales 1
jesus+tripartita 1
www.+ceppeniel 1
from+duty+to+delight+ron+parrish 1
mensaje+evanlistico+de+jose 1
coral+cepeniel 1
video+de+peniel 1
rendimos+nuestras+vidas+a+ti+se%c3%b1or 1
http+//www.cepeniel.org/index.php%3foption%3dcom_content%26view%3darticle%26id%3d90+ciudad-online%26catid%3d2+informacion%26itemid%3d463 1
complejo+evangelistico 1
%c3%81lvaro+rea+biografia 1
END_SEARCHWORDS

# Search keywords - Number of search
# The 25 first number of search must be first (order not required for others)
BEGIN_KEYWORDS 81
peniel 29
evangelistico 14
ciudad 12
online 12
centro 12
cepeniel 10
www.cepeniel.org 8
cepeniel.org 7
de 6
rea 5
iglesia 4
alvaro 4
complejo 4
del 3
a 2
ron 2
guayaquil 2
oraciones 2
from 2
leyes 2
2 2
pastor 2
las 2
sobre 2
to 2
es 1
venezuelaa 1
evangelisticos 1
mensaje 1
4 1
dios 1
se%c3%b1or 1
www. 1
ti 1
son 1
//www.cepeniel.org/index.php%3foption%3dcom_content%26view%3darticle%26id%3d90 1
concilio 1
psicologo 1
evangelico 1
emisora 1
mujeres 1
medios 1
nuestras 1
pejniel 1
jose 1
ministerio 1
video 1
evaangelistico 1
vidas 1
libro 1
ciudad-online%26catid%3d2 1
venezuela 1
ceppeniel 1
tripartita 1
informacion%26itemid%3d463 1
%c3%81lvaro 1
volv%e1monos 1
rendimos 1
predicaciones 1
evanlistico 1
vivo 1
campana 1
todos 1
parrish 2
valencia 2
biografia 1
delight 2
matrimonio 2
coral 1
duty 2
jesus 1
mensajes 1
logos 1
todas 1
audiovisuales 1
evangelismo 1
con%c3%b3cenos 2
cuales 1
http 1
paz 1
en 2
END_KEYWORDS

# Errors - Hits - Bandwidth
BEGIN_ERRORS 7
406 7 4207
404 728 583399
500 561 54072
301 24 14808
403 1 793
303 679 0
206 415 23092414
END_ERRORS

# URL with 404 errors - Hits - Last URL referrer
BEGIN_SIDER_404 269
/data/safe/360.php 1 -
/apple-touch-icon.png 10 -
/wp-content/plugins/Login-wall-etgFB/login_wall.php 2 www.cepeniel.org
/xiaolei.php 1 -
/plugins/captcha/jproicaptcha/jproicaptcha.php 1 http://cepeniel.org/plugins/captcha/jproicaptcha/jproicaptcha.php
/images/presentacion/Banner%20VIIICECI.jpg 5 http://www.cepeniel.org/index.php
/lrrpv51331.asp 1 -
/jycpcx.asp 1 -
/images/DiaAmigoMarzo2013/p1110494.jpg 1 http://www.cepeniel.org/index.php
/Editor/editor/filemanager/browser/default/connectors/test.html 1 -
/https://www.facebook.com/cepenielorg 1 -
/phpsso_server/phpcms/modules/admin/map.php 1 -
/phpsso_server/phpcms/libs/functions/global.top.php 1 -
/Ac2.asp 1 -
/lindex.php 1 -
/phpbb/ 1 -
/maintlogin.jsp 1 -
/mambots/editors/wysiwygpro/document.php 1 -
/images/DiaAmigoMarzo2013/p1110418.jpg 1 http://www.cepeniel.org/index.php
/docs/ 1 -
/user-profile 1 -
/clientscript/vbulletin_ajax_htmlloader.js 1 -
/data/s.php 1 -
/data/data/index.php 1 -
/images/.jindex.php 3 -
/shops/ 3 -
/cgi/index.cgi 1 -
/components/com_prayercenter/assets/js/index.php 1 -
/images/powered_by.gif 1 -
/modules/mod_dionefileuploader/upload.php 1 -
/Somnus/Somnus.asp 1 -
/2011/images/reproductor/ 2 -
/modules/mod_media_style/mod_media_style.php 1 http://cepeniel.org/modules/mod_media_style/mod_media_style.php
/index.php 158 -
/data/s.asp 1 -
/archiver/ 1 -
/plus/laobiao.php 1 -
/modules/mod_araticlhess/mod_araticlhess.php 1 -
/next/img/logo.gif 1 -
/web-console 1 -
//index.php 51 -
/images/login9/login_33.jpg 1 -
/modules/mod_bt_login/assets/js/).html(a) 1 -
/fckeditor/editor/ 1 -
/wordpress/wp-admin/ 1 -
/eshop/ 3 -
/Admin/fckeditor/editor/filemanager/browser/default/connectors/test.html 1 -
/video/embed 1 -
/tmp/php.class.php 2 -
/plus/myjs.php 1 -
/dxyylc/md5.asp 1 -
/kdatebase/index_.asp 1 -
/fluxbb/ 1 -
/config/AspCms_Conn.asp 1 -
/%22https://www.facebook.com/cepenielorg/photos_stream 1 -
/blog/xmlrpc.php 2 -
/templets/plus/sky.php 1 -
/ 8 -
/%7B%22auto_hd%22:false,%22autoplay_reason%22:%22unknown%22,%22default_hd%22:true,%22disable_native_controls%22:true,%22inline_player%22:false,%22pixel_ratio%22:1,%22preload%22:false,%22start_muted%22:false,%22video_data%22:[%7B%22hd_src%22:%22https:%5C/%5 2 -
/miaojcx.asp 1 -
/include/helperss/filter.helpear.php 1 -
/wp-content/plugins/fs-real-estate-plugin/readme.txt 1 -
/plugins/.joomla.system.php 2 -
/index.cgi 1 -
/Images/login/lefttu.jpg 1 -
/test/wp-admin/ 1 -
/bbsmax/ 1 -
/mobile/index.php 4 -
/images/post.php 1 -
/wp-content/themes/inline/edit.php 1 -
/wp-content/plugins/infos.php 1 http://www.googlebot.com/bot.html
/rss.php 1 -
/images/stories/food.php 1 -
/2011/images/stories/esther.png 7 -
/administrator/components/com_civicrm/civicrm/packages/OpenFlashChart/php-ofc-library/ofc_upload_image.php 1 -
/modules/mod_artuploader/upload.php 1 -
/modules/mod_mapsapi/mod_mapsapi.php 1 http://cepeniel.org/modules/mod_mapsapi/mod_mapsapi.php
/phpcms/plugin/weibo/tan.php 1 -
/apple-touch-icon-precomposed.png 10 -
/include/ckeditor/plugins/pagebreak/images/inCahe.php 1 -
//plugins/editors/tinymce/jscripts/tiny_mce/plugins/tinybrowser/upload.php 4 -
/utility/convert/include/rom2823.php 1 -
/templates/webcore_beginning/css/template.css 5 http://www.cepeniel.org/index.php
/%7B%22auto_hd%22:false,%22autoplay_reason%22:%22unknown%22,%22default_hd%22:true,%22disable_native_controls%22:true,%22inline_player%22:false,%22pixel_ratio%22:1,%22preload%22:false,%22start_muted%22:false,%22video_data%22:%7B%22progressive%22:[%7B%22hd_s 8 -
/phpsso_server/phpcms/modules/admin/top.php 1 -
/uploads/allimg/xm.php 1 -
//components/com_community/LICENSE.php 18 -
/phpcms/plugin/tangshi.PHp 1 -
/phpsso_server/api/uc_client/model/cachebase.php 1 -
/language/includes.php 1 http://cepeniel.org/language/includes.php
/user 1 -
/include/data/fonts/uddatasql.php 1 -
/Bienvenidos.html 1 -
/images/login_03.gif 1 -
/Images/login/biaoti.jpg 1 -
/administrator/components/com_spidercalendar/spidercalendar.xml 1 -
/Images/login/mainlogo.gif 1 -
/.config.php 2 -
/wp-content/plugins/phpinfo.php 2 http://www.googlebot.com/bot.html
/plus/mytag_js.php 5 -
/.cpanelinfo.php 1 -
/administrator/components/com_maian15/charts/php-ofc-library/ofc_upload_image.php 1 -
/media/mod_vt_nivo_slider/js/'+r.currentImage.attr( 1 -
/issmall 1 -
/archiver 3 -
/admin.php 4 -
/templates/system/css/template.css 1 -
/%22mailto:dayssibendecida@hotmail.com%22%3Edayssibendecida@hotmail.com%3C/a%3E%3C/span%3E%3C/p%3E 1 -
/license.php 5 http://www.cepeniel.org/license.php
/users/registration 1 -
/weki.asp 1 -
/licence.txt 1 -
/%22http://www.cepeniel.org/cepenielorg/videos/943897178986115/%22%3E%3C/a%3E 1 -
/shop/ 3 -
/l0s4r.asp 1 -
/forum/ 3 -
/wp-content/plugins/gravityforms/js/gravityforms.js 1 -
/cepenielorg/videos/943897178986115 2 -
/%22https://twitter.com/cepenielorg%22%3E%3Cspan%3E%3Cbr 1 -
/joomla/index.php 3 -
/%22https://www.facebook.com/cepenielorg%22%3ECentro 1 -
/Fckeditor/editor/filemanager/browser/default/connectors/test.html 1 -
/administrator///components/com_extplorer/ 1 -
/wp-content/plugins/like-dislike-counter-for-posts-pages-and-comments/readme.txt 1 -
/wp-content/plugins/google-document-embedder/readme.txt 1 -
/config/AspCms_Config.asp 2 -
/admin/fckeditor/editor/filemanager/connectors/php/upload.php 1 -
//administrator/components/com_simplephotogallery/lib/uploadFile.php 21 -
/old/wp-admin/ 1 -
/js/fckeditor/editor/ 1 -
/plus/av.php 1 -
//wp-admin/admin-ajax.php 2 -
/modules/mod_ariimageslidersa/mod_ariimageslidersa.php 2 http://cepeniel.org/modules/mod_ariimageslidersa/mod_ariimageslidersa.php
/6kbbs/ 1 -
/%22https://twitter.com/cepenielorg%22%3E%3Cspan 1 -
/wp-content/uploads/infos.php 1 http://www.googlebot.com/bot.html
/rss.aspx 1 -
/plus/xsvip.php 1 -
/user/register 1 -
/modules/mod_araticlws/mod_araticlws.php 2 http://cepeniel.org/modules/mod_araticlws/mod_araticlws.php
/wp-content/plugins/Login-wall-YsqOw/login_wall.php 1 -
/modules/mod_msn/mod_msn.php 1 http://cepeniel.org/modules/mod_msn/mod_msn.php
/previous.html 6 -
/2011/index.php 12 -
/wp-content/uploads/ftp.php 1 -
/cepenielorg/videos/943897178986115/ 24 http://www.cepeniel.org/
/include/code/mp.php 1 -
/extern.php 1 -
/browserconfig.xml 1 -
/modules/mod_articless/mod_articless.php 2 http://cepeniel.org/modules/mod_articless/mod_articless.php
/modules/mod_rssemailer/mod_rssemailer.php 1 http://cepeniel.org/modules/mod_rssemailer/mod_rssemailer.php
/index.php%3Foption%3Dcom_prayercenter%26task%3Dview_request%26id%3D72%26pop%3D1%26prt%3D1%26tmpl%3Dcomponent%26Itemid%3D177 1 -
/book/story_dod_hjkdsafon.php 1 -
/modules/mod_speedup/mod_speedup.php 1 http://cepeniel.org/modules/mod_speedup/mod_speedup.php
/phpmyadmin/docs.css 1 -
/fckeditor/editor/filemanager/connectors/uploadtest.html 1 -
/default/images/logo.gif 1 -
/media/system/js/) 1 -
/sitemap/templates/met/SqlIn.asp 1 -
/wp-content/themes/light/log.php 1 -
/wp-includes/images/wlwlog.php 1 -
/wp-includes/css/log.php 1 -
/php168/1ist.php 1 -
/manager/html 1 -
/images/swfupload/images/uploadye.php 1 -
/admin-console 1 -
/wp-content/plugins/revslider/js/rev_admin.js 1 -
/2011/images/stories/francis.png 6 -
/doku.php 1 -
/media/mod_vt_nivo_slider/js/'+c.attr( 1 -
/.joomla.system.php 1 -
/extman/default/images/logo.gif 1 -
/phpinfo.php 2 http://www.googlebot.com/bot.html
/js/lib/ccard.js 1 -
/images/zh-CN/logo.ico 1 -
/utility/convert/data/rom2823.php 1 -
/js/ajax_x.js 1 -
/Editor/editor/filemanager/connectors/test.html 1 -
/leadbbs/ 1 -
/configuration.php-s 1 http://cepeniel.org/configuration.php-s
/images/zh-CN/winisp.gif 1 -
/skin/frontend/default/modern/css/styles.css 1 -
//images/stories/wawalo.gif 1 -
/%22mailto:jesusjose281@hotmail.com%22%3Ejesusjose281@hotmail.com%3C/a%3E%3C/span%3E%3C/p%3E 1 -
/%22mailto:logosextensionvalencia@gmail.com%22%3Elogosextensionvalencia@gmail.com%3C/a%3E 1 -
/Admin/fCKeditor/editor/filemanager/connectors/test.html 1 -
//images/xxu.php 39 -
/%22/index.php 4 -
/dvbbs/ 1 -
/dxyylc/md5.php 1 -
/modules/mod_bt_login/assets/js/).html(html.replace( 1 -
/wp-login.php 12 http://cepeniel.org/wp-login.php
/infos.php 1 http://www.googlebot.com/bot.html
/discuz/ 2 -
/images/DiaAmigoMarzo2013/p1110534.jpg 1 http://www.cepeniel.org/index.php
/include/helpers/cookie.helpea.php 1 -
/modules/mod_twit/mod_twit.php 1 http://cepeniel.org/modules/mod_twit/mod_twit.php
/utility/convert/include/phpmp.php 1 -
/modules/mod_ariimageslider/mod_ariimageslider.php 1 -
/plugins/system/plugin_googlemap2/plugin_googlemap2_proxy.php 1 -
/zixi.asp 1 -
/modules/mod_articlemanage/mod_articlemanage.php 1 http://cepeniel.org/modules/mod_articlemanage/mod_articlemanage.php
/inc/Templates/rss.xslt 1 -
/images/login-page.gif 1 -
/https://twitter.com/cepenielorg 1 -
/manager/status 2 -
/wp-admin/newfile.php 1 -
/data/conn/config.php 1 -
/phpmyadmin/ 1 -
/stylesheet.css 1 -
/wp-admin/js/edit.php 1 -
/includes/general.js 1 -
/%22http://www.cepeniel.org/index.php 4 -
/%22https://www.facebook.com/video.php 2 -
/plus/cere.php 1 -
/tmp/.jindex.php 2 -
/archive/archive.css 1 -
/fckeditor/editor/filemanager/connectors/php/upload.php 1 -
/plus/img/wbg.gif 1 -
/tmp/aratidhess.php 1 http://cepeniel.org/tmp/aratidhess.php
/plus/mybak.php 1 -
/modules/mod_fxprev/libraries/tmpl.php 1 -
/m/index.php 2 -
/plus/mytag_j.php 1 -
/images/aratidhess.php 1 http://cepeniel.org/images/aratidhess.php
/data/admin/sky.php 1 -
/privacy.php 1 -
/plus/360.php 1 -
/modules/mod_system/mod_system.php 1 http://cepeniel.org/modules/mod_system/mod_system.php
/xk_com.asp 1 -
/modules/mod_ariimagesws/mod_ariimagesws.php 2 http://cepeniel.org/modules/mod_ariimagesws/mod_ariimagesws.php
/https://www.facebook.com/video.php 1 -
/plugins/editors/tinymce/jscripts/tiny_mce/plugins/tinybrowser/upload.php 1 http://cepeniel.org/
/wp-includes/theme-compat/qiaogua.php 1 -
/components/com_facileforms/libraries/jquery/uploadify.php 1 -
/bk-001.php 1 -
/max-templates/classic/styles/app.css 1 -
/images/banners/cache.php 1 -
/bbs/ 3 -
/wp-content/plugins/wp-symposium/readme.txt 1 -
/tools/rss.aspx 1 -
/FCKeditor/editor/filemanager/connectors/test.html 1 -
/component/users/ 8 http://www.cepeniel.org/component/users/
/plus/e7xue.php 1 -
/modules/mod_bt_login/index.php 1 -
/2011/media/mod_vinaora_cu3er/config/V177_20110423_002825.xml 1 -
/docs.css 1 -
/.cpanel_config.php 2 -
/modules/mod_mapsgoogle/mod_mapsgoogle.php 1 http://cepeniel.org/modules/mod_mapsgoogle/mod_mapsgoogle.php
/images%5Ciglesia.jpg 1 http://www.cepeniel.org/index.php
/%22https://www.facebook.com/photo.php 1 -
/utility/convert/data/config.inc.php 5 -
/wp-admin/ 1 -
/mall/ 3 -
/dxyylc/1ndex.php 1 -
/modules/mod_sape/mod_sape.php 1 http://cepeniel.org/modules/mod_sape/mod_sape.php
/plus/bakup.php 1 -
/administrator/components///com_extplorer/ 1 -
/components/com_sexycontactform/fileupload/index.php 1 -
/ecshop/ 1 -
/xmlrpc.php 3 -
/phpwind/ 1 -
/zzz.asp 1 -
/jjasp.asp 1 -
/plus/long.php 1 -
/components/com_content/cons.php 1 -
/components/com_search/views/search/tmpl/tmpl.php 1 -
/plus/90sec.php 1 -
/weki.php 1 -
END_SIDER_404
